1564772103.342403,0,0.0001,0.24,0.294,IDLE,0,0.0,3,3
1564772103.3924155,0,0.0001,0.24,0.294,IDLE,0,0.0,3,3
1564772103.4446325,0,0.0001,0.24,0.294,IDLE,0,0.0,3,3
1564772103.497195,0,0.0001,0.24,0.294,IDLE,0,0.0,3,3
1564772103.5433693,0,0.0001,0.24,0.294,IDLE,0,0.0,3,3
1564772103.5955126,0,0.0001,0.24,0.294,IDLE,0,0.0,3,3
1564772103.645742,0,0.0001,0.24,0.294,IDLE,0,0.0,3,3
1564772103.6959088,0,0.0001,0.24,0.294,IDLE,0,0.0,3,3
1564772103.7457385,0,0.0001,0.24,0.294,IDLE,0,0.0,3,3
1564772103.7972593,0,0.0001,0.24,0.294,IDLE,0,0.0,3,3
1564772103.8510668,0,0.0001,0.24,0.294,IDLE,0,0.0,3,3
1564772103.8967443,0,0.0001,0.24,0.294,IDLE,0,0.0,3,3
1564772103.9495745,0,0.0001,0.24,0.294,IDLE,0,0.0,3,3
1564772103.9988132,0,0.0001,0.24,0.294,IDLE,0,0.0,3,3
1564772104.0567522,0,0.0001,0.24,0.294,IDLE,0,0.0,3,3
1564772104.1006436,0,0.0001,0.24,0.294,IDLE,0,0.0,3,3
1564772104.1499698,0,0.0001,0.24,0.294,IDLE,0,0.0,3,3
1564772104.1984725,0,0.0001,0.24,0.294,IDLE,0,0.0,3,3
1564772104.251712,0,0.0001,0.24,0.294,IDLE,0,0.0,3,3
1564772104.3018358,0,0.0001,0.24,0.294,IDLE,0,0.0,3,3
1564772104.358249,0,0.0001,0.24,0.294,IDLE,0,0.0,3,3
1564772104.4035435,0,0.0001,0.24,0.294,IDLE,0,0.0,3,3
1564772104.4565942,0,0.0001,0.24,0.294,IDLE,0,0.0,3,3
1564772104.505875,0,0.0001,0.24,0.294,IDLE,0,0.0,3,3
1564772104.5552602,0,0.0001,0.24,0.294,IDLE,0,0.0,3,3
1564772104.6074166,0,0.0001,0.24,0.294,IDLE,0,0.0,3,3
1564772104.6569529,0,0.0001,0.24,0.294,IDLE,0,0.0,3,3
1564772104.7104056,0,0.0001,0.24,0.294,IDLE,0,0.0,3,3
1564772104.7554038,0,0.0001,0.24,0.294,IDLE,0,0.0,3,3
1564772104.8084257,0,0.0001,0.24,0.294,IDLE,0,0.0,3,3
1564772104.858046,0,0.0001,0.24,0.294,IDLE,0,0.0,3,3
1564772104.9075828,0,0.0001,0.24,0.294,IDLE,0,0.0,3,3
1564772104.9602203,0,0.0001,0.24,0.294,IDLE,0,0.0,3,3
1564772105.009407,0,0.0001,0.24,0.294,IDLE,0,0.0,3,3
1564772105.062598,0,0.0001,0.24,0.294,IDLE,0,0.0,3,3
1564772105.1118171,0,0.0001,0.24,0.294,IDLE,0,0.0,3,3
1564772105.1636322,0,0.0001,0.24,0.294,IDLE,0,0.0,3,3
1564772105.210278,0,0.0001,0.24,0.294,IDLE,0,0.0,3,3
1564772105.263182,0,0.0001,0.24,0.294,IDLE,0,0.0,3,3
1564772105.3125737,0,0.0001,0.24,0.294,IDLE,0,0.0,3,3
1564772105.362867,0,0.0001,0.24,0.294,IDLE,0,0.0,3,3
1564772105.4110777,0,0.0001,0.24,0.294,IDLE,0,0.0,3,3
1564772105.4641545,0,0.0001,0.24,0.294,IDLE,0,0.0,3,3
1564772105.513779,0,0.0001,0.24,0.294,IDLE,0,0.0,3,3
1564772105.5641935,0,0.0001,0.24,0.294,IDLE,0,0.0,3,3
1564772105.6157188,0,0.0001,0.24,0.294,IDLE,0,0.0,3,3
1564772105.66639,0,0.0001,0.24,0.294,IDLE,0,0.0,3,3
1564772105.7231617,0,0.0001,0.24,0.294,IDLE,0,0.0,3,3
1564772105.7684608,0,0.0001,0.24,0.294,IDLE,0,0.0,3,3
1564772105.8172317,0,0.0001,0.24,0.294,IDLE,0,0.0,3,3
1564772105.8706532,0,0.0001,0.24,0.294,IDLE,0,0.0,3,3
1564772105.918874,0,0.0001,0.24,0.294,IDLE,0,0.0,3,3
1564772105.9704194,0,0.0001,0.24,0.294,IDLE,0,0.0,3,3
1564772106.0211446,0,0.0001,0.24,0.294,IDLE,0,0.0,3,3
1564772106.0706632,0,0.0001,0.24,0.294,IDLE,0,0.0,3,3
1564772106.1201515,0,0.0001,0.24,0.294,IDLE,0,0.0,3,3
1564772106.1726134,0,0.0001,0.24,0.294,IDLE,0,0.0,3,3
1564772106.2221818,0,0.0001,0.24,0.294,IDLE,0,0.0,3,3
1564772106.2744918,0,0.0001,0.24,0.294,IDLE,0,0.0,3,3
1564772106.3243108,0,0.0001,0.24,0.294,IDLE,0,0.0,3,3
1564772106.3731635,0,0.0001,0.24,0.294,IDLE,0,0.0,3,3
1564772106.423142,0,0.0001,0.24,0.294,IDLE,0,0.0,3,3
1564772106.4758298,0,0.0001,0.24,0.294,IDLE,0,0.0,3,3
1564772106.524674,0,0.0001,0.24,0.294,IDLE,0,0.0,3,3
1564772106.5772083,0,0.0001,0.24,0.294,IDLE,0,0.0,3,3
1564772106.627305,0,0.0001,0.24,0.294,IDLE,0,0.0,3,3
1564772106.6773918,0,0.0001,0.24,0.294,IDLE,0,0.0,3,3
1564772106.7257767,0,0.0001,0.24,0.294,MOVETO_PICKUP,180,4.34,3,3
1564772106.7790859,0,0.0001,0.24,0.294,MOVETO_PICKUP,180,4.34,3,3
1564772106.8284743,0,0.0001,0.24,0.294,MOVETO_PICKUP,180,8.66,3,3
1564772106.885057,0,0.0001,0.24,0.294,MOVETO_PICKUP,180,8.66,3,3
1564772106.9264107,0,0.0001,0.24,0.294,MOVETO_PICKUP,180,12.98,3,3
1564772106.97942,0,0.0001,0.24,0.294,MOVETO_PICKUP,180,12.98,3,3
1564772107.0326943,1,0.0001,0.24,0.294,MOVETO_PICKUP,180,17.3,3,3
1564772107.081996,1,0.0001,0.24,0.294,MOVETO_PICKUP,180,17.3,3,3
1564772107.133764,2,0.0001,0.24,0.294,MOVETO_PICKUP,180,18.65,3,3
1564772107.1810849,2,0.0001,0.24,0.294,MOVETO_PICKUP,180,18.65,3,3
1564772107.233679,3,0.0001,0.24,0.294,MOVETO_PICKUP,180,19.96,3,3
1564772107.2846944,4,0.0001,0.24,0.294,MOVETO_PICKUP,180,19.96,3,3
1564772107.3358262,6,0.0001,0.24,0.294,MOVETO_PICKUP,180,24.16,3,3
1564772107.3897555,8,0.0001,0.24,0.294,MOVETO_PICKUP,180,24.16,3,3
1564772107.4382796,10,0.0001,0.24,0.294,MOVETO_PICKUP,180,25.35,3,3
1564772107.4872673,12,0.0001,0.24,0.294,MOVETO_PICKUP,180,25.35,3,3
1564772107.5369382,15,0.0001,0.24,0.294,MOVETO_PICKUP,180,23.48,3,3
1564772107.5901024,19,0.0001,0.24,0.294,MOVETO_PICKUP,180,23.48,3,3
1564772107.6416843,22,0.0001,0.24,0.294,MOVETO_PICKUP,180,24.4,3,3
1564772107.6923656,26,0.0001,0.24,0.294,MOVETO_PICKUP,180,24.4,3,3
1564772107.746221,30,0.0001,0.24,0.294,MOVETO_PICKUP,180,22.19,3,3
1564772107.7950919,35,0.0001,0.24,0.294,MOVETO_PICKUP,180,22.19,3,3
1564772107.8519094,40,0.0001,0.24,0.294,MOVETO_PICKUP,180,22.71,3,3
1564772107.8972404,45,0.0001,0.24,0.294,MOVETO_PICKUP,180,22.71,3,3
1564772107.9494185,50,0.0001,0.24,0.294,MOVETO_PICKUP,180,22.98,3,3
1564772107.9999776,56,0.0001,0.24,0.294,MOVETO_PICKUP,180,22.98,3,3
1564772108.0533512,62,0.0001,0.24,0.294,MOVETO_PICKUP,180,22.99,3,3
1564772108.1026657,68,0.0001,0.24,0.294,MOVETO_PICKUP,180,22.99,3,3
1564772108.1575096,74,0.0001,0.24,0.294,MOVETO_PICKUP,180,25.68,3,3
1564772108.2045524,80,0.0001,0.24,0.294,MOVETO_PICKUP,180,25.68,3,3
1564772108.2540822,87,0.0001,0.24,0.294,MOVETO_PICKUP,180,22.17,3,3
1564772108.3062835,93,0.0001,0.24,0.294,MOVETO_PICKUP,180,22.17,3,3
1564772108.3558767,100,0.0001,0.24,0.294,MOVETO_PICKUP,180,24.24,3,3
1564772108.4106324,107,0.0001,0.24,0.294,MOVETO_PICKUP,180,24.24,3,3
1564772108.4584181,114,0.0001,0.24,0.294,MOVETO_PICKUP,180,23.02,3,3
1564772108.5083148,122,0.0001,0.24,0.294,MOVETO_PICKUP,180,23.02,3,3
1564772108.5646677,129,0.0001,0.24,0.294,MOVETO_PICKUP,180,24.41,3,3
1564772108.6106718,137,0.0001,0.24,0.294,MOVETO_PICKUP,180,24.41,3,3
1564772108.6620698,144,0.0001,0.24,0.294,MOVETO_PICKUP,180,22.5,3,3
1564772108.718514,152,0.0001,0.24,0.294,MOVETO_PICKUP,180,22.5,3,3
1564772108.7652175,159,0.0001,0.24,0.294,MOVETO_PICKUP,180,23.17,3,3
1564772108.8144753,167,0.0001,0.24,0.294,MOVETO_PICKUP,180,23.17,3,3
1564772108.8685951,174,0.0001,0.24,0.294,MOVETO_PICKUP,180,20.52,3,3
1564772108.916758,181,0.0001,0.24,0.294,MOVETO_PICKUP,180,20.52,3,3
1564772108.966078,187,0.0001,0.24,0.294,MOVETO_PICKUP,180,26.35,3,3
1564772109.0219383,194,0.0001,0.24,0.294,MOVETO_PICKUP,180,26.35,3,3
1564772109.0684779,200,0.0001,0.24,0.294,MOVETO_PICKUP,180,31.89,3,3
1564772109.1186316,205,0.0001,0.24,0.294,MOVETO_PICKUP,180,31.89,3,3
1564772109.1712408,210,0.0001,0.24,0.294,MOVETO_PICKUP,180,34.23,3,3
1564772109.2239935,214,0.0001,0.24,0.294,MOVETO_PICKUP,180,34.23,3,3
1564772109.2754593,218,0.0001,0.24,0.294,MOVETO_PICKUP,180,39.3,3,3
1564772109.3261378,221,0.0001,0.24,0.294,MOVETO_PICKUP,180,39.3,3,3
1564772109.3824592,223,0.0001,0.24,0.294,MOVETO_PICKUP,180,44.19,3,3
1564772109.428623,225,0.0001,0.24,0.294,MOVETO_PICKUP,180,44.19,3,3
1564772109.4773886,226,0.0001,0.24,0.294,MOVETO_PICKUP,180,51.93,3,3
1564772109.534208,227,0.0001,0.24,0.294,MOVETO_PICKUP,180,51.93,3,3
1564772109.5782564,227,0.0001,0.24,0.294,MOVETO_PICKUP,180,56.68,3,3
1564772109.6291375,227,0.0001,0.24,0.294,MOVETO_PICKUP,180,56.68,3,3
1564772109.6818268,227,0.0001,0.24,0.294,MOVETO_PICKUP,180,61.44,3,3
1564772109.728109,227,0.0001,0.24,0.294,MOVETO_PICKUP,180,61.44,3,3
1564772109.7776365,226,0.0001,0.24,0.294,MOVETO_PICKUP,180,60.31,3,3
1564772109.8314571,226,0.0001,0.24,0.294,MOVETO_PICKUP,180,60.31,3,3
1564772109.879244,225,0.0001,0.24,0.294,MOVETO_PICKUP,180,62.14,3,3
1564772109.9288447,225,0.0001,0.24,0.294,MOVETO_PICKUP,180,62.14,3,3
1564772109.9810722,224,0.0001,0.24,0.294,MOVETO_PICKUP,180,61.06,3,3
1564772110.0305645,224,0.0001,0.24,0.294,MOVETO_PICKUP,180,61.06,3,3
1564772110.0796757,224,0.0001,0.24,0.294,MOVETO_PICKUP,180,60.01,3,3
1564772110.1352782,224,0.0001,0.24,0.294,MOVETO_PICKUP,180,60.01,3,3
1564772110.1822112,224,0.0001,0.24,0.294,MOVETO_PICKUP,180,56.01,3,3
1564772110.231712,224,0.0001,0.24,0.294,MOVETO_PICKUP,180,56.01,3,3
1564772110.2805717,224,0.0001,0.24,0.294,MOVETO_PICKUP,180,54.96,3,3
1564772110.3337758,224,0.0001,0.24,0.294,MOVETO_PICKUP,180,54.96,3,3
1564772110.3829887,224,0.0001,0.24,0.294,MOVETO_PICKUP,180,53.9,3,3
1564772110.4326549,224,0.0001,0.24,0.294,MOVETO_PICKUP,180,53.9,3,3
1564772110.49684,224,0.0001,0.24,0.294,MOVETO_PICKUP,180,52.84,3,3
1564772110.5417182,224,0.0001,0.24,0.294,MOVETO_PICKUP,180,52.84,3,3
1564772110.5876315,224,0.0001,0.24,0.294,MOVETO_PICKUP,180,51.79,3,3
1564772110.6375396,224,0.0001,0.24,0.294,MOVETO_PICKUP,180,51.79,3,3
1564772110.6917021,224,0.0001,0.24,0.294,MOVETO_PICKUP,180,50.73,3,3
1564772110.7401564,224,0.0001,0.24,0.294,MOVETO_PICKUP,180,50.73,3,3
1564772110.7888873,224,0.0001,0.24,0.294,MOVETO_PICKUP,180,49.68,3,3
1564772110.8431683,224,0.0001,0.24,0.294,MOVETO_PICKUP,180,49.68,3,3
1564772110.8908343,224,0.0001,0.24,0.294,MOVETO_PICKUP,180,48.62,3,3
1564772110.9414697,224,0.0001,0.24,0.294,MOVETO_PICKUP,180,48.62,3,3
1564772110.9996846,224,0.0001,0.24,0.294,MOVETO_PICKUP,180,47.56,3,3
1564772111.04366,224,0.0001,0.24,0.294,MOVETO_PICKUP,180,47.56,3,3
1564772111.0920107,224,0.0001,0.24,0.294,MOVETO_PICKUP,180,46.51,3,3
1564772111.1454144,224,0.0001,0.24,0.294,MOVETO_PICKUP,180,46.51,3,3
1564772111.2000632,224,0.0001,0.24,0.294,MOVETO_PICKUP,180,45.45,3,3
1564772111.2467003,224,0.0001,0.24,0.294,MOVETO_PICKUP,180,45.45,3,3
1564772111.2961645,224,0.0001,0.24,0.294,MOVETO_PICKUP,180,44.4,3,3
1564772111.356719,224,0.0001,0.24,0.294,MOVETO_PICKUP,180,44.4,3,3
1564772111.4033582,224,0.0001,0.24,0.294,MOVETO_PICKUP,180,43.34,3,3
1564772111.447993,224,0.0001,0.24,0.294,MOVETO_PICKUP,180,43.34,3,3
1564772111.4980063,224,0.0001,0.24,0.294,MOVETO_PICKUP,180,42.28,3,3
1564772111.5569408,224,0.0001,0.24,0.294,MOVETO_PICKUP,180,42.28,3,3
1564772111.6029088,224,0.0001,0.24,0.294,MOVETO_PICKUP,180,41.23,3,3
1564772111.6522682,224,0.0001,0.24,0.294,MOVETO_PICKUP,180,41.23,3,3
1564772111.7091787,224,0.0001,0.24,0.294,MOVETO_PICKUP,180,40.17,3,3
1564772111.7545774,224,0.0001,0.24,0.294,MOVETO_PICKUP,180,40.17,3,3
1564772111.8008118,224,0.0001,0.24,0.294,MOVETO_PICKUP,180,39.12,3,3
1564772111.8535962,224,0.0001,0.24,0.294,MOVETO_PICKUP,180,39.12,3,3
1564772111.9102757,224,0.0001,0.24,0.294,MOVETO_PICKUP,180,38.06,3,3
1564772111.9554784,224,0.0001,0.24,0.294,MOVETO_PICKUP,180,38.06,3,3
1564772112.0055556,224,0.0001,0.24,0.294,MOVETO_PICKUP,180,37.0,3,3
1564772112.0549867,224,0.0001,0.24,0.294,MOVETO_PICKUP,180,37.0,3,3
1564772112.1139677,224,0.0001,0.24,0.294,MOVETO_PICKUP,180,35.95,3,3
1564772112.159599,224,0.0001,0.24,0.294,MOVETO_PICKUP,180,35.95,3,3
1564772112.2094634,224,0.0001,0.24,0.294,MOVETO_PICKUP,180,34.89,3,3
1564772112.259004,224,0.0001,0.24,0.294,MOVETO_PICKUP,180,34.89,3,3
1564772112.30845,224,0.0001,0.24,0.294,MOVETO_PICKUP,180,33.84,3,3
1564772112.3651762,224,0.0001,0.24,0.294,MOVETO_PICKUP,180,33.84,3,3
1564772112.4095657,224,0.0001,0.24,0.294,MOVETO_PICKUP,180,32.78,3,3
1564772112.460416,224,0.0001,0.24,0.294,MOVETO_PICKUP,180,32.78,3,3
1564772112.5190706,224,0.0001,0.24,0.294,MOVETO_PICKUP,180,31.72,3,3
1564772112.5632865,224,0.0001,0.24,0.294,MOVETO_PICKUP,180,31.72,3,3
1564772112.6112561,224,0.0001,0.24,0.294,MOVETO_PICKUP,180,30.67,3,3
1564772112.6646624,224,0.0001,0.24,0.294,MOVETO_PICKUP,180,30.67,3,3
1564772112.7219374,224,0.0001,0.24,0.294,MOVETO_PICKUP,180,29.61,3,3
1564772112.7688017,224,0.0001,0.24,0.294,MOVETO_PICKUP,180,29.61,3,3
1564772112.8156984,224,0.0001,0.24,0.294,MOVETO_PICKUP,180,28.56,3,3
1564772112.865178,224,0.0001,0.24,0.294,MOVETO_PICKUP,180,28.56,3,3
1564772112.9152715,224,0.0001,0.24,0.294,MOVETO_PICKUP,180,27.5,3,3
1564772112.9719298,224,0.0001,0.24,0.294,MOVETO_PICKUP,180,27.5,3,3
1564772113.0164616,224,0.0001,0.24,0.294,IDLE,180,26.44,3,3
1564772113.067073,224,0.0001,0.24,0.294,IDLE,180,26.44,3,3
1564772113.115842,224,0.0001,0.24,0.294,IDLE,180,26.44,3,3
1564772113.17292,224,0.0001,0.24,0.294,IDLE,180,26.44,3,3
1564772113.219473,224,0.0001,0.24,0.294,IDLE,180,26.44,3,3
1564772113.2704873,224,0.0001,0.24,0.294,IDLE,180,26.44,3,3
1564772113.328047,224,0.0001,0.24,0.294,IDLE,180,26.44,3,3
1564772113.3714955,224,0.0001,0.24,0.294,IDLE,180,26.44,3,3
1564772113.419418,224,0.0001,0.24,0.294,IDLE,180,26.44,3,3
1564772113.4711413,224,0.0001,0.24,0.294,IDLE,180,26.44,3,3
1564772113.5205798,224,0.0001,0.24,0.294,IDLE,180,26.44,3,3
1564772113.574002,224,0.0001,0.24,0.294,IDLE,180,26.44,3,3
1564772113.6229575,224,0.0001,0.24,0.294,IDLE,180,26.44,3,3
1564772113.6721313,224,0.0001,0.24,0.294,IDLE,180,26.44,3,3
1564772113.7214005,224,0.0001,0.24,0.294,IDLE,180,26.44,3,3
1564772113.778473,224,0.0001,0.24,0.294,IDLE,180,26.44,3,3
1564772113.8248792,224,0.0001,0.24,0.294,IDLE,180,26.44,3,3
1564772113.8731947,224,0.0001,0.24,0.294,IDLE,180,26.44,3,3
1564772113.9257555,224,0.0001,0.24,0.294,IDLE,180,26.44,3,3
1564772113.9835806,224,0.0001,0.24,0.294,IDLE,180,26.44,3,3
1564772114.02977,224,0.0001,0.24,0.294,IDLE,180,26.44,3,3
1564772114.0790098,224,0.0001,0.24,0.294,IDLE,180,26.44,3,3
1564772114.1275628,224,0.0001,0.24,0.294,IDLE,180,26.44,3,3
1564772114.1880329,224,0.0001,0.24,0.294,IDLE,180,26.44,3,3
1564772114.23458,224,0.0001,0.24,0.294,IDLE,180,26.44,3,3
1564772114.2822807,224,0.0001,0.24,0.294,IDLE,180,26.44,3,3
1564772114.3318348,224,0.0001,0.24,0.294,IDLE,180,26.44,3,3
1564772114.3840797,224,0.0001,0.24,0.294,IDLE,180,26.44,3,3
1564772114.434,224,0.0001,0.24,0.294,IDLE,180,26.44,3,3
1564772114.4830441,224,0.0001,0.24,0.294,IDLE,180,26.44,3,3
1564772114.5387645,224,0.0001,0.24,0.294,IDLE,180,26.44,3,3
1564772114.5853841,224,0.0001,0.24,0.294,IDLE,180,26.44,3,3
1564772114.6382298,224,0.0001,0.24,0.294,IDLE,180,26.44,3,3
1564772114.6875737,224,0.0001,0.24,0.294,IDLE,180,26.44,3,3
1564772114.746595,224,0.0001,0.24,0.294,IDLE,180,26.44,3,3
1564772114.794997,224,0.0001,0.24,0.294,IDLE,180,26.44,3,3
1564772114.8432517,224,0.0001,0.24,0.294,IDLE,180,26.44,3,3
1564772114.8893464,224,0.0001,0.24,0.294,IDLE,180,26.44,3,3
1564772114.9414656,224,0.0001,0.24,0.294,IDLE,180,26.44,3,3
1564772114.9965413,224,0.0001,0.24,0.294,IDLE,180,26.44,3,3
1564772115.0464084,224,0.0001,0.24,0.294,IDLE,180,26.44,3,3
1564772115.0942252,224,0.0001,0.24,0.294,IDLE,180,26.44,3,3
1564772115.1428618,224,0.0001,0.24,0.294,IDLE,180,26.44,3,3
1564772115.1947854,224,0.0001,0.24,0.294,IDLE,180,26.44,3,3
1564772115.250298,224,0.0001,0.24,0.294,IDLE,180,26.44,3,3
1564772115.2970307,224,0.0001,0.24,0.294,IDLE,180,26.44,3,3
1564772115.3466244,224,0.0001,0.24,0.294,IDLE,180,26.44,3,3
1564772115.396399,224,0.0001,0.24,0.294,IDLE,180,26.44,3,3
1564772115.4558163,224,0.0001,0.24,0.294,IDLE,180,26.44,3,3
1564772115.5003424,224,0.0001,0.24,0.294,IDLE,180,26.44,3,3
1564772115.5517588,223,0.0001,0.24,0.294,IDLE,180,26.44,3,3
1564772115.600127,222,0.0001,0.24,0.294,IDLE,180,26.44,3,3
1564772115.6503675,221,0.0001,0.24,0.294,IDLE,180,26.44,3,3
1564772115.703633,218,0.0001,0.24,0.294,IDLE,180,26.44,3,3
1564772115.75455,215,0.0001,0.24,0.294,IDLE,180,26.44,3,3
1564772115.8047822,211,0.0001,0.24,0.294,IDLE,180,26.44,3,3
1564772115.8516955,206,0.0001,0.24,0.294,IDLE,180,26.44,3,3
1564772115.9035,201,0.0001,0.24,0.294,IDLE,180,26.44,3,3
1564772115.9532235,196,0.0001,0.24,0.294,IDLE,180,26.44,3,3
1564772116.0022118,191,0.0001,0.24,0.294,IDLE,180,26.44,3,3
1564772116.0608056,185,0.0001,0.24,0.294,IDLE,180,26.44,3,3
1564772116.106823,179,0.0001,0.24,0.294,IDLE,180,26.44,3,3
1564772116.1537058,173,0.0001,0.24,0.294,IDLE,180,26.44,3,3
1564772116.2045035,167,0.0001,0.24,0.294,IDLE,180,26.44,3,3
1564772116.2555666,161,0.0001,0.24,0.294,IDLE,180,26.44,3,3
1564772116.3054771,155,0.0001,0.24,0.294,IDLE,180,26.44,3,3
1564772116.3549082,149,0.0001,0.24,0.294,IDLE,180,26.44,3,3
1564772116.4159122,143,0.0001,0.24,0.294,IDLE,180,26.44,3,3
1564772116.4655135,137,0.0001,0.24,0.294,IDLE,180,26.44,3,3
1564772116.5156395,131,0.0001,0.24,0.294,IDLE,180,26.44,3,3
1564772116.5648003,124,0.0001,0.24,0.294,IDLE,180,26.44,3,3
1564772116.6122484,118,0.0001,0.24,0.294,IDLE,180,26.44,3,3
1564772116.6616004,113,0.0001,0.24,0.294,IDLE,180,26.44,3,3
1564772116.7076147,107,0.0001,0.24,0.294,IDLE,180,26.44,3,3
1564772116.760042,102,0.0001,0.24,0.294,IDLE,180,26.44,3,3
1564772116.8092787,97,0.0001,0.24,0.294,IDLE,180,26.44,3,3
1564772116.8589628,92,0.0001,0.24,0.294,IDLE,180,26.44,3,3
1564772116.918115,88,0.0001,0.24,0.294,IDLE,180,26.44,3,3
1564772116.9665885,83,0.0001,0.24,0.294,IDLE,180,26.44,3,3
1564772117.0115423,79,0.0001,0.24,0.294,IDLE,180,26.44,3,3
1564772117.060462,74,0.0001,0.24,0.294,IDLE,180,26.44,3,3
1564772117.1088192,69,0.0001,0.24,0.294,IDLE,180,26.44,3,3
1564772117.1620805,64,0.0001,0.24,0.294,IDLE,180,26.44,3,3
1564772117.2107143,60,0.0001,0.24,0.294,IDLE,180,26.44,3,3
1564772117.2708144,56,0.0001,0.24,0.294,IDLE,180,26.44,3,3
1564772117.3201723,51,0.0001,0.24,0.294,IDLE,180,26.44,3,3
1564772117.3703454,47,0.0001,0.24,0.294,IDLE,180,26.44,3,3
1564772117.418688,43,0.0001,0.24,0.294,IDLE,180,26.44,3,3
1564772117.4691665,39,0.0001,0.24,0.294,IDLE,180,26.44,3,3
1564772117.5174694,35,0.0001,0.24,0.294,IDLE,180,26.44,3,3
1564772117.5668833,31,0.0001,0.24,0.294,IDLE,180,26.44,3,3
1564772117.6155288,27,0.0001,0.24,0.294,IDLE,180,26.44,3,3
1564772117.6661136,24,0.0001,0.24,0.294,IDLE,180,26.44,3,3
1564772117.7155561,22,0.0001,0.24,0.294,IDLE,180,26.44,3,3
1564772117.7679658,19,0.0001,0.24,0.294,IDLE,180,26.44,3,3
1564772117.8173003,16,0.0001,0.24,0.294,IDLE,180,26.44,3,3
1564772117.8665159,14,0.0001,0.24,0.294,IDLE,180,26.44,3,3
1564772117.9189262,11,0.0001,0.24,0.294,IDLE,180,26.44,3,3
1564772117.9683597,9,0.0001,0.24,0.294,IDLE,180,26.44,3,3
1564772118.0312316,7,0.0001,0.24,0.294,IDLE,180,26.44,3,3
1564772118.0799627,5,0.0001,0.24,0.294,IDLE,180,26.44,3,3
1564772118.1258397,4,0.0001,0.24,0.294,IDLE,180,26.44,3,3
1564772118.1760385,2,0.0001,0.24,0.294,IDLE,180,26.44,3,3
1564772118.226447,0,0.0001,0.24,0.294,IDLE,180,26.44,3,3
1564772118.279173,0,0.0001,0.24,0.294,IDLE,180,26.44,3,3
1564772118.3287544,-1,0.0001,0.24,0.294,IDLE,180,26.44,3,3
1564772118.3784015,-1,0.0001,0.24,0.294,IDLE,180,26.44,3,3
1564772118.4386902,-1,0.0001,0.24,0.294,IDLE,180,26.44,3,3
1564772118.4873798,-2,0.0001,0.24,0.294,IDLE,180,26.44,3,3
1564772118.5341067,-2,0.0001,0.24,0.294,IDLE,180,26.44,3,3
1564772118.5844262,-3,0.0001,0.24,0.294,IDLE,180,26.44,3,3
1564772118.631531,-3,0.0001,0.24,0.294,IDLE,180,26.44,3,3
1564772118.682947,-2,0.0001,0.24,0.294,IDLE,180,26.44,3,3
1564772118.7342474,-2,0.0001,0.24,0.294,IDLE,180,26.44,3,3
1564772118.784935,-2,0.0001,0.24,0.294,IDLE,180,26.44,3,3
1564772118.8410678,-2,0.0001,0.24,0.294,IDLE,180,26.44,3,3
1564772118.8894691,-2,0.0001,0.24,0.294,IDLE,180,26.44,3,3
1564772118.9367008,-1,0.0001,0.24,0.294,IDLE,180,26.44,3,3
1564772118.9884014,-1,0.0001,0.24,0.294,IDLE,180,26.44,3,3
1564772119.037441,-1,0.0001,0.24,0.294,IDLE,180,26.44,3,3
1564772119.09007,-1,0.0001,0.24,0.294,IDLE,180,26.44,3,3
1564772119.1399822,-1,0.0001,0.24,0.294,IDLE,180,26.44,3,3
1564772119.189045,-1,0.0001,0.24,0.294,IDLE,180,26.44,3,3
1564772119.2480736,-1,0.0001,0.24,0.294,IDLE,180,26.44,3,3
1564772119.2953925,-1,0.0001,0.24,0.294,IDLE,180,26.44,3,3
1564772119.3461838,0,0.0001,0.24,0.294,IDLE,180,26.44,3,3
1564772119.3991766,0,0.0001,0.24,0.294,IDLE,180,26.44,3,3
1564772119.4509525,0,0.0001,0.24,0.294,IDLE,180,26.44,3,3
1564772119.5031617,0,0.0001,0.24,0.294,IDLE,180,26.44,3,3
1564772119.5524473,0,0.0001,0.24,0.294,IDLE,180,26.44,3,3
1564772119.601254,0,0.0001,0.24,0.294,IDLE,180,26.44,3,3
1564772119.6506722,0,0.0001,0.24,0.294,IDLE,180,26.44,3,3
1564772119.701432,0,0.0001,0.24,0.294,IDLE,180,26.44,3,3
1564772119.748517,0,0.0001,0.24,0.294,IDLE,180,26.44,3,3
1564772119.7954848,0,0.0001,0.24,0.294,IDLE,180,26.44,3,3
1564772119.8478572,0,0.0001,0.24,0.294,IDLE,180,26.44,3,3
1564772119.8977363,0,0.0001,0.24,0.294,IDLE,180,26.44,3,3
1564772119.9472966,0,0.0001,0.24,0.294,IDLE,180,26.44,3,3
1564772119.9998116,0,0.0001,0.24,0.294,IDLE,180,26.44,3,3
1564772120.0490742,0,0.0001,0.24,0.294,IDLE,180,26.44,3,3
1564772120.0987394,0,0.0001,0.24,0.294,IDLE,180,26.44,3,3
1564772120.1514165,0,0.0001,0.24,0.294,IDLE,180,26.44,3,3
1564772120.2099535,0,0.0001,0.24,0.294,IDLE,180,26.44,3,3
1564772120.258702,0,0.0001,0.24,0.294,IDLE,180,26.44,3,3
1564772120.306905,0,0.0001,0.24,0.294,IDLE,180,26.44,3,3
1564772120.354799,0,0.0001,0.24,0.294,IDLE,180,26.44,3,3
1564772120.4065933,0,0.0001,0.24,0.294,IDLE,180,26.44,3,3
1564772120.4634783,0,0.0001,0.24,0.294,IDLE,180,26.44,3,3
1564772120.5149372,0,0.0001,0.24,0.294,IDLE,180,26.44,3,3
1564772120.5677953,0,0.0001,0.24,0.294,IDLE,180,26.44,3,3
1564772120.6057374,0,0.0001,0.24,0.294,IDLE,180,26.44,3,3
1564772120.65556,0,0.0001,0.24,0.294,IDLE,180,26.44,3,3
1564772120.7084248,0,0.0001,0.24,0.294,IDLE,180,26.44,3,3
1564772120.758337,0,0.0001,0.24,0.294,IDLE,180,26.44,3,3
1564772120.8101938,0,0.0001,0.24,0.294,IDLE,180,26.44,3,3
1564772120.8600612,0,0.0001,0.24,0.294,IDLE,180,26.44,3,3
1564772120.9192905,0,0.0001,0.24,0.294,IDLE,180,26.44,3,3
1564772120.9657247,0,0.0001,0.24,0.294,IDLE,180,26.44,3,3
1564772121.0148194,0,0.0001,0.24,0.294,IDLE,180,26.44,3,3
1564772121.066949,0,0.0001,0.24,0.294,IDLE,180,26.44,3,3
1564772121.1151912,0,0.0001,0.24,0.294,IDLE,180,26.44,3,3
1564772121.1678853,0,0.0001,0.24,0.294,IDLE,180,26.44,3,3
1564772121.218435,0,0.0001,0.24,0.294,IDLE,180,26.44,3,3
1564772121.2765217,0,0.0001,0.24,0.294,IDLE,180,26.44,3,3
1564772121.3146782,0,0.0001,0.24,0.294,IDLE,180,26.44,3,3
1564772121.363508,0,0.0001,0.24,0.294,IDLE,180,26.44,3,3
1564772121.4133797,0,0.0001,0.24,0.294,IDLE,180,26.44,3,3
1564772121.465237,0,0.0001,0.24,0.294,IDLE,180,26.44,3,3
1564772121.5154278,0,0.0001,0.24,0.294,IDLE,180,26.44,3,3
1564772121.5644917,0,0.0001,0.24,0.294,IDLE,180,26.44,3,3
1564772121.6302884,0,0.0001,0.24,0.294,IDLE,180,26.44,3,3
1564772121.6673424,0,0.0001,0.24,0.294,IDLE,180,26.44,3,3
1564772121.7290034,0,0.0001,0.24,0.294,IDLE,180,26.44,3,3
1564772121.779194,0,0.0001,0.24,0.294,IDLE,180,26.44,3,3
1564772121.828575,0,0.0001,0.24,0.294,IDLE,180,26.44,3,3
1564772121.879427,0,0.0001,0.24,0.294,IDLE,180,26.44,3,3
1564772121.916814,0,0.0001,0.24,0.294,IDLE,180,26.44,3,3
1564772121.978989,0,0.0001,0.24,0.294,IDLE,180,26.44,3,3
1564772122.018792,0,0.0001,0.24,0.294,IDLE,180,26.44,3,3
1564772122.0790138,0,0.0001,0.24,0.294,IDLE,180,26.44,3,3
1564772122.1273587,0,0.0001,0.24,0.294,IDLE,180,26.44,3,3
1564772122.1768703,0,0.0001,0.24,0.294,IDLE,180,26.44,3,3
1564772122.2263918,0,0.0001,0.24,0.294,IDLE,180,26.44,3,3
1564772122.2773416,0,0.0001,0.24,0.294,IDLE,180,26.44,3,3
1564772122.3270795,0,0.0001,0.24,0.294,IDLE,180,26.44,3,3
1564772122.3773391,0,0.0001,0.24,0.294,IDLE,180,26.44,3,3
1564772122.4301517,0,0.0001,0.24,0.294,IDLE,180,26.44,3,3
1564772122.4742768,0,0.0001,0.24,0.294,IDLE,180,26.44,3,3
1564772122.5261633,0,0.0001,0.24,0.294,IDLE,180,26.44,3,3
1564772122.5758889,0,0.0001,0.24,0.294,IDLE,180,26.44,3,3
1564772122.626292,0,0.0001,0.24,0.294,IDLE,180,26.44,3,3
1564772122.6784391,0,0.0001,0.24,0.294,IDLE,180,26.44,3,3
1564772122.7273116,0,0.0001,0.24,0.294,IDLE,180,26.44,3,3
1564772122.7798712,0,0.0001,0.24,0.294,IDLE,180,26.44,3,3
1564772122.830152,0,0.0001,0.24,0.294,IDLE,180,26.44,3,3
1564772122.8801484,0,0.0001,0.24,0.294,IDLE,180,26.44,3,3
1564772122.9323404,0,0.0001,0.24,0.294,IDLE,180,26.44,3,3
1564772122.981635,0,0.0001,0.24,0.294,IDLE,180,26.44,3,3
1564772123.0308661,0,0.0001,0.24,0.294,IDLE,180,26.44,3,3
1564772123.0841372,0,0.0001,0.24,0.294,IDLE,180,26.44,3,3
1564772123.1331627,0,0.0001,0.24,0.294,IDLE,180,26.44,3,3
1564772123.1843057,0,0.0001,0.24,0.294,IDLE,180,26.44,3,3
1564772123.2353628,0,0.0001,0.24,0.294,IDLE,180,26.44,3,3
1564772123.285674,0,0.0001,0.24,0.294,IDLE,180,26.44,3,3
1564772123.3398361,0,0.0001,0.24,0.294,IDLE,180,26.44,3,3
1564772123.3868349,0,0.0001,0.24,0.294,IDLE,180,26.44,3,3
1564772123.4374282,0,0.0001,0.24,0.294,IDLE,180,26.44,3,3
1564772123.4887917,0,0.0001,0.24,0.294,IDLE,180,26.44,3,3
1564772123.5393462,0,0.0001,0.24,0.294,IDLE,180,26.44,3,3
1564772123.5895872,0,0.0001,0.24,0.294,IDLE,180,26.44,3,3
1564772123.640923,0,0.0001,0.24,0.294,IDLE,180,26.44,3,3
1564772123.6919296,0,0.0001,0.24,0.294,IDLE,180,26.44,3,3
1564772123.7441194,0,0.0001,0.24,0.294,IDLE,180,26.44,3,3
1564772123.7956178,0,0.0001,0.24,0.294,IDLE,180,26.44,3,3
1564772123.8436887,0,0.0001,0.24,0.294,IDLE,180,26.44,3,3
1564772123.893938,0,0.0001,0.24,0.294,IDLE,180,26.44,3,3
1564772123.9463477,0,0.0001,0.24,0.294,IDLE,180,26.44,3,3
1564772123.9991913,0,0.0001,0.24,0.294,IDLE,180,26.44,3,3
1564772124.0532968,0,0.0001,0.24,0.294,IDLE,180,26.44,3,3
1564772124.105436,0,0.0001,0.24,0.294,IDLE,180,26.44,3,3
1564772124.1588416,0,0.0001,0.24,0.294,IDLE,180,26.44,3,3
1564772124.2092311,0,0.0001,0.24,0.294,IDLE,180,26.44,3,3
1564772124.2469435,0,0.0001,0.24,0.294,IDLE,180,26.44,3,3
1564772124.2969294,0,0.0001,0.24,0.294,IDLE,180,26.44,3,3
1564772124.3492472,0,0.0001,0.24,0.294,IDLE,180,26.44,3,3
1564772124.3985703,0,0.0001,0.24,0.294,IDLE,180,26.44,3,3
1564772124.4516277,0,0.0001,0.24,0.294,IDLE,180,26.44,3,3
1564772124.5006442,0,0.0001,0.24,0.294,IDLE,180,26.44,3,3
1564772124.5507176,0,0.0001,0.24,0.294,IDLE,180,26.44,3,3
1564772124.6033478,0,0.0001,0.24,0.294,IDLE,180,26.44,3,3
1564772124.6540897,0,0.0001,0.24,0.294,IDLE,180,26.44,3,3
1564772124.7022114,0,0.0001,0.24,0.294,IDLE,180,26.44,3,3
1564772124.7546382,0,0.0001,0.24,0.294,IDLE,180,26.44,3,3
1564772124.8053133,0,0.0001,0.24,0.294,IDLE,180,26.44,3,3
1564772124.856073,0,0.0001,0.24,0.294,IDLE,180,26.44,3,3
1564772124.9063375,0,0.0001,0.24,0.294,IDLE,180,26.44,3,3
1564772124.9552653,0,0.0001,0.24,0.294,IDLE,180,26.44,3,3
1564772125.004715,0,0.0001,0.24,0.294,IDLE,180,26.44,3,3
1564772125.0542889,0,0.0001,0.24,0.294,IDLE,180,26.44,3,3
1564772125.1072202,0,0.0001,0.24,0.294,IDLE,180,26.44,3,3
1564772125.1601021,0,0.0001,0.24,0.294,IDLE,180,26.44,3,3
1564772125.2095256,0,0.0001,0.24,0.294,IDLE,180,26.44,3,3
1564772125.2565017,0,0.0001,0.24,0.294,IDLE,180,26.44,3,3
1564772125.3083944,0,0.0001,0.24,0.294,IDLE,180,26.44,3,3
1564772125.362308,0,0.0001,0.24,0.294,IDLE,180,26.44,3,3
1564772125.407425,0,0.0001,0.24,0.294,IDLE,180,26.44,3,3
1564772125.4629924,0,0.0001,0.24,0.294,IDLE,180,26.44,3,3
1564772125.5152354,0,0.0001,0.24,0.294,IDLE,180,26.44,3,3
1564772125.5641692,0,0.0001,0.24,0.294,IDLE,180,26.44,3,3
1564772125.6131005,0,0.0001,0.24,0.294,IDLE,180,26.44,3,3
1564772125.662031,0,0.0001,0.24,0.294,IDLE,180,26.44,3,3
1564772125.7088578,0,0.0001,0.24,0.294,IDLE,180,26.44,3,3
1564772125.7586262,0,0.0001,0.24,0.294,IDLE,180,26.44,3,3
1564772125.812025,0,0.0001,0.24,0.294,IDLE,180,26.44,3,3
1564772125.8612888,0,0.0001,0.24,0.294,IDLE,180,26.44,3,3
1564772125.9191265,0,0.0001,0.24,0.294,IDLE,180,26.44,3,3
1564772125.9683013,0,0.0001,0.24,0.294,IDLE,180,26.44,3,3
1564772126.0151114,0,0.0001,0.24,0.294,IDLE,180,26.44,3,3
1564772126.0620704,0,0.0001,0.24,0.294,IDLE,180,26.44,3,3
1564772126.1147988,0,0.0001,0.24,0.294,IDLE,180,26.44,3,3
1564772126.1659746,0,0.0001,0.24,0.294,IDLE,180,26.44,3,3
1564772126.2227113,0,0.0001,0.24,0.294,IDLE,180,26.44,3,3
1564772126.2671547,0,0.0001,0.24,0.294,IDLE,180,26.44,3,3
1564772126.3250666,0,0.0001,0.24,0.294,IDLE,180,26.44,3,3
1564772126.372939,0,0.0001,0.24,0.294,IDLE,180,26.44,3,3
1564772126.4217293,0,0.0001,0.24,0.294,IDLE,180,26.44,3,3
1564772126.4782345,0,0.0001,0.24,0.294,IDLE,180,26.44,3,3
1564772126.5221338,0,0.0001,0.24,0.294,IDLE,180,26.44,3,3
1564772126.569241,0,0.0001,0.24,0.294,IDLE,180,26.44,3,3
1564772126.619872,0,0.0001,0.24,0.294,IDLE,180,26.44,3,3
1564772126.671797,0,0.0001,0.24,0.294,IDLE,180,26.44,3,3
1564772126.7279136,0,0.0001,0.24,0.294,IDLE,180,26.44,3,3
1564772126.7747872,0,0.0001,0.24,0.294,IDLE,180,26.44,3,3
1564772126.8225951,0,0.0001,0.24,0.294,IDLE,180,26.44,3,3
1564772126.8770635,0,0.0001,0.24,0.294,IDLE,180,26.44,3,3
1564772126.9251966,0,0.0001,0.24,0.294,IDLE,180,26.44,3,3
1564772126.9760878,0,0.0001,0.24,0.294,IDLE,180,26.44,3,3
1564772127.0323155,0,0.0001,0.24,0.294,IDLE,180,26.44,3,3
1564772127.076485,0,0.0001,0.24,0.294,IDLE,180,26.44,3,3
1564772127.1274078,0,0.0001,0.24,0.294,IDLE,180,26.44,3,3
1564772127.1795292,0,0.0001,0.24,0.294,IDLE,180,26.44,3,3
1564772127.2314477,0,0.0001,0.24,0.294,IDLE,180,26.44,3,3
1564772127.2792118,0,0.0001,0.24,0.294,IDLE,180,26.44,3,3
1564772127.3383892,0,0.0001,0.24,0.294,IDLE,180,26.44,3,3
1564772127.3854265,0,0.0001,0.24,0.294,IDLE,180,26.44,3,3
1564772127.4313395,0,0.0001,0.24,0.294,IDLE,180,26.44,3,3
1564772127.4927812,0,0.0001,0.24,0.294,IDLE,180,26.44,3,3
1564772127.5375865,0,0.0001,0.24,0.294,IDLE,180,26.44,3,3
1564772127.5824952,0,0.0001,0.24,0.294,IDLE,180,26.44,3,3
1564772127.6393015,0,0.0001,0.24,0.294,IDLE,180,26.44,3,3
1564772127.6881719,0,0.0001,0.24,0.294,IDLE,180,26.44,3,3
1564772127.7442794,0,0.0001,0.24,0.294,IDLE,180,26.44,3,3
1564772127.7930403,0,0.0001,0.24,0.294,IDLE,180,26.44,3,3
1564772127.848898,0,0.0001,0.24,0.294,IDLE,180,26.44,3,3
1564772127.9057355,0,0.0001,0.24,0.294,IDLE,180,26.44,3,3
1564772127.9396453,0,0.0001,0.24,0.294,IDLE,180,26.44,3,3
1564772127.9935033,0,0.0001,0.24,0.294,IDLE,180,26.44,3,3
1564772128.050362,0,0.0001,0.24,0.294,IDLE,180,26.44,3,3
1564772128.0996063,0,0.0001,0.24,0.294,IDLE,180,26.44,3,3
1564772128.1524649,0,0.0001,0.24,0.294,IDLE,180,26.44,3,3
1564772128.195351,0,0.0001,0.24,0.294,IDLE,180,26.44,3,3
1564772128.2412279,0,0.0001,0.24,0.294,IDLE,180,26.44,3,3
1564772128.2961009,0,0.0001,0.24,0.294,IDLE,180,26.44,3,3
1564772128.345543,0,0.0001,0.24,0.294,IDLE,180,26.44,3,3
1564772128.392025,0,0.0001,0.24,0.294,IDLE,180,26.44,3,3
1564772128.4516804,0,0.0001,0.24,0.294,IDLE,180,26.44,3,3
1564772128.502978,0,0.0001,0.24,0.294,IDLE,180,26.44,3,3
1564772128.546822,0,0.0001,0.24,0.294,IDLE,180,26.44,3,3
1564772128.5996754,0,0.0001,0.24,0.294,IDLE,180,26.44,3,3
1564772128.6455529,0,0.0001,0.24,0.294,IDLE,180,26.44,3,3
1564772128.7021248,0,0.0001,0.24,0.294,IDLE,180,26.44,3,3
1564772128.7440133,0,0.0001,0.24,0.294,IDLE,180,26.44,3,3
1564772128.7978687,0,0.0001,0.24,0.294,IDLE,180,26.44,3,3
1564772128.8455868,0,0.0001,0.24,0.294,IDLE,180,26.44,3,3
1564772128.9063878,0,0.0001,0.24,0.294,IDLE,180,26.44,3,3
1564772128.9499874,0,0.0001,0.24,0.294,IDLE,180,26.44,3,3
1564772128.996897,0,0.0001,0.24,0.294,IDLE,180,26.44,3,3
1564772129.0517497,0,0.0001,0.24,0.294,IDLE,180,26.44,3,3
1564772129.100619,0,0.0001,0.24,0.294,IDLE,180,26.44,3,3
1564772129.1564708,0,0.0001,0.24,0.294,IDLE,180,26.44,3,3
1564772129.1986735,0,0.0001,0.24,0.294,IDLE,180,26.44,3,3
1564772129.2521288,0,0.0001,0.24,0.294,IDLE,180,26.44,3,3
1564772129.3019733,0,0.0001,0.24,0.294,IDLE,180,26.44,3,3
1564772129.3472242,0,0.0001,0.24,0.294,IDLE,180,26.44,3,3
1564772129.4050388,0,0.0001,0.24,0.294,IDLE,180,26.44,3,3
1564772129.4639904,0,0.0001,0.24,0.294,IDLE,180,26.44,3,3
1564772129.5008914,0,0.0001,0.24,0.294,IDLE,180,26.44,3,3
1564772129.556742,0,0.0001,0.24,0.294,IDLE,180,26.44,3,3
1564772129.6076071,0,0.0001,0.24,0.294,IDLE,180,26.44,3,3
1564772129.666451,0,0.0001,0.24,0.294,IDLE,180,26.44,3,3
1564772129.720305,0,0.0001,0.24,0.294,IDLE,180,26.44,3,3
1564772129.7532163,0,0.0001,0.24,0.294,IDLE,180,26.44,3,3
1564772129.8084874,0,0.0001,0.24,0.294,IDLE,180,26.44,3,3
1564772129.8572323,0,0.0001,0.24,0.294,IDLE,180,26.44,3,3
1564772129.9150438,0,0.0001,0.24,0.294,IDLE,180,26.44,3,3
1564772129.9569714,0,0.0001,0.24,0.294,IDLE,180,26.44,3,3
1564772130.0078387,0,0.0001,0.24,0.294,IDLE,180,26.44,3,3
1564772130.0666382,0,0.0001,0.24,0.294,IDLE,180,26.44,3,3
1564772130.1129968,0,0.0001,0.24,0.294,IDLE,180,26.44,3,3
1564772130.162406,0,0.0001,0.24,0.294,IDLE,180,26.44,3,3
1564772130.2182462,0,0.0001,0.24,0.294,IDLE,180,26.44,3,3
1564772130.2671168,0,0.0001,0.24,0.294,IDLE,180,26.44,3,3
1564772130.3239648,0,0.0001,0.24,0.294,IDLE,180,26.44,3,3
1564772130.3728325,0,0.0001,0.24,0.294,IDLE,180,26.44,3,3
1564772130.4187095,0,0.0001,0.24,0.294,IDLE,180,26.44,3,3
1564772130.4616377,0,0.0001,0.24,0.294,IDLE,180,26.44,3,3
1564772130.5237455,0,0.0001,0.24,0.294,IDLE,180,26.44,3,3
1564772130.5702121,0,0.0001,0.24,0.294,IDLE,180,26.44,3,3
1564772130.6149046,0,0.0001,0.24,0.294,IDLE,180,26.44,3,3
1564772130.6780653,0,0.0001,0.24,0.294,IDLE,180,26.44,3,3
1564772130.726944,0,0.0001,0.24,0.294,IDLE,180,26.44,3,3
1564772130.7719538,0,0.0001,0.24,0.294,IDLE,180,26.44,3,3
1564772130.8217626,0,0.0001,0.24,0.294,IDLE,180,26.44,3,3
1564772130.865646,0,0.0001,0.24,0.294,IDLE,180,26.44,3,3
1564772130.9214325,0,0.0001,0.24,0.294,IDLE,180,26.44,3,3
1564772130.9732747,0,0.0001,0.24,0.294,IDLE,180,26.44,3,3
1564772131.0261347,0,0.0001,0.24,0.294,IDLE,180,26.44,3,3
1564772131.0750043,0,0.0001,0.24,0.294,IDLE,180,26.44,3,3
1564772131.1338456,0,0.0001,0.24,0.294,IDLE,180,26.44,3,3
1564772131.1750271,0,0.0001,0.24,0.294,IDLE,180,26.44,3,3
1564772131.2260938,0,0.0001,0.24,0.294,IDLE,180,26.44,3,3
1564772131.2829692,0,0.0001,0.24,0.294,IDLE,180,26.44,3,3
1564772131.322866,0,0.0001,0.24,0.294,IDLE,180,26.44,3,3
1564772131.3787134,0,0.0001,0.24,0.294,IDLE,180,26.44,3,3
1564772131.4275863,0,0.0001,0.24,0.294,IDLE,180,26.44,3,3
1564772131.4754572,0,0.0001,0.24,0.294,IDLE,180,26.44,3,3
1564772131.5271714,0,0.0001,0.24,0.294,IDLE,180,26.44,3,3
1564772131.5823736,0,0.0001,0.24,0.294,IDLE,180,26.44,3,3
1564772131.6275084,0,0.0001,0.24,0.294,IDLE,180,26.44,3,3
1564772131.6801596,0,0.0001,0.24,0.294,IDLE,180,26.44,3,3
1564772131.7273219,0,0.0001,0.24,0.294,IDLE,180,26.44,3,3
1564772131.7791896,0,0.0001,0.24,0.294,IDLE,180,26.44,3,3
1564772131.8310444,0,0.0001,0.24,0.294,IDLE,180,26.44,3,3
1564772131.8789172,0,0.0001,0.24,0.294,IDLE,180,26.44,3,3
1564772131.9427943,0,0.0001,0.24,0.294,IDLE,180,26.44,3,3
1564772131.988392,0,0.0001,0.24,0.294,IDLE,180,26.44,3,3
1564772132.032681,0,0.0001,0.24,0.294,IDLE,180,26.44,3,3
1564772132.0821908,0,0.0001,0.24,0.294,IDLE,180,26.44,3,3
1564772132.1499565,0,0.0001,0.24,0.294,IDLE,180,26.44,3,3
1564772132.1958337,0,0.0001,0.24,0.294,IDLE,180,26.44,3,3
1564772132.2456992,0,0.0001,0.24,0.294,IDLE,180,26.44,3,3
1564772132.2905793,0,0.0001,0.24,0.294,IDLE,180,26.44,3,3
1564772132.3484251,0,0.0001,0.24,0.294,IDLE,180,26.44,3,3
1564772132.39131,0,0.0001,0.24,0.294,IDLE,180,26.44,3,3
1564772132.4344244,0,0.0001,0.24,0.294,IDLE,180,26.44,3,3
1564772132.4840617,0,0.0001,0.24,0.294,IDLE,180,26.44,3,3
1564772132.5369205,0,0.0001,0.24,0.294,IDLE,180,26.44,3,3
1564772132.5948007,0,0.0001,0.24,0.294,IDLE,180,26.44,3,3
1564772132.6447046,0,0.0001,0.24,0.294,IDLE,180,26.44,3,3
1564772132.6925776,0,0.0001,0.24,0.294,IDLE,180,26.44,3,3
1564772132.7384527,0,0.0001,0.24,0.294,IDLE,180,26.44,3,3
1564772132.7883582,0,0.0001,0.24,0.294,IDLE,180,26.44,3,3
1564772132.8452098,0,0.0001,0.24,0.294,IDLE,180,26.44,3,3
1564772132.8952594,0,0.0001,0.24,0.294,IDLE,180,26.44,3,3
1564772132.9391537,0,0.0001,0.24,0.294,IDLE,180,26.44,3,3
1564772132.9892807,0,0.0001,0.24,0.294,IDLE,180,26.44,3,3
1564772133.0491393,0,0.0001,0.24,0.294,IDLE,180,26.44,3,3
1564772133.0990465,0,0.0001,0.24,0.294,IDLE,180,26.44,3,3
1564772133.1492252,0,0.0001,0.24,0.294,IDLE,180,26.44,3,3
1564772133.2000806,0,0.0001,0.24,0.294,IDLE,180,26.44,3,3
1564772133.2419696,0,0.0001,0.24,0.294,IDLE,180,26.44,3,3
1564772133.2974086,0,0.0001,0.24,0.294,IDLE,180,26.44,3,3
1564772133.3452783,0,0.0001,0.24,0.294,IDLE,180,26.44,3,3
1564772133.396393,0,0.0001,0.24,0.294,IDLE,180,26.44,3,3
1564772133.4535568,0,0.0001,0.24,0.294,IDLE,180,26.44,3,3
1564772133.500422,0,0.0001,0.24,0.294,IDLE,180,26.44,3,3
1564772133.546607,0,0.0001,0.24,0.294,IDLE,180,26.44,3,3
1564772133.5997534,0,0.0001,0.24,0.294,IDLE,180,26.44,3,3
1564772133.6584594,0,0.0001,0.24,0.294,IDLE,180,26.44,3,3
1564772133.7048264,0,0.0001,0.24,0.294,IDLE,180,26.44,3,3
1564772133.7507057,0,0.0001,0.24,0.294,IDLE,180,26.44,3,3
1564772133.80285,0,0.0001,0.24,0.294,IDLE,180,26.44,3,3
1564772133.8607442,0,0.0001,0.24,0.294,IDLE,180,26.44,3,3
1564772133.9041836,0,0.0001,0.24,0.294,IDLE,180,26.44,3,3
1564772133.9551964,0,0.0001,0.24,0.294,IDLE,180,26.44,3,3
1564772134.002494,0,0.0001,0.24,0.294,IDLE,180,26.44,3,3
1564772134.0613196,0,0.0001,0.24,0.294,IDLE,180,26.44,3,3
1564772134.1076422,0,0.0001,0.24,0.294,IDLE,180,26.44,3,3
1564772134.1583803,0,0.0001,0.24,0.294,IDLE,180,26.44,3,3
1564772134.2068188,0,0.0001,0.24,0.294,IDLE,180,26.44,3,3
1564772134.2660809,0,0.0001,0.24,0.294,IDLE,180,26.44,3,3
1564772134.3111005,0,0.0001,0.24,0.294,IDLE,180,26.44,3,3
1564772134.3620038,0,0.0001,0.24,0.294,IDLE,180,26.44,3,3
1564772134.4061491,0,0.0001,0.24,0.294,IDLE,180,26.44,3,3
1564772134.4649553,0,0.0001,0.24,0.294,IDLE,180,26.44,3,3
1564772134.5088668,0,0.0001,0.24,0.294,IDLE,180,26.44,3,3
1564772134.5627978,0,0.0001,0.24,0.294,IDLE,180,26.44,3,3
1564772134.6221423,0,0.0001,0.24,0.294,IDLE,180,26.44,3,3
1564772134.6670203,0,0.0001,0.24,0.294,IDLE,180,26.44,3,3
1564772134.7118628,0,0.0001,0.24,0.294,IDLE,180,26.44,3,3
1564772134.7627585,0,0.0001,0.24,0.294,IDLE,180,26.44,3,3
1564772134.8225992,0,0.0001,0.24,0.294,IDLE,180,26.44,3,3
1564772134.8717544,0,0.0001,0.24,0.294,IDLE,180,26.44,3,3
1564772134.9219882,0,0.0001,0.24,0.294,IDLE,180,26.44,3,3
1564772134.971854,0,0.0001,0.24,0.294,IDLE,180,26.44,3,3
1564772135.0200517,0,0.0001,0.24,0.294,IDLE,180,26.44,3,3
1564772135.0651417,0,0.0001,0.24,0.294,IDLE,180,26.44,3,3
1564772135.11961,0,0.0001,0.24,0.294,IDLE,180,26.44,3,3
1564772135.1794138,0,0.0001,0.24,0.294,IDLE,180,26.44,3,3
1564772135.2280726,0,0.0001,0.24,0.294,IDLE,180,26.44,3,3
1564772135.2729561,0,0.0001,0.24,0.294,IDLE,180,26.44,3,3
1564772135.3344145,0,0.0001,0.24,0.294,IDLE,180,26.44,3,3
1564772135.3692932,0,0.0001,0.24,0.294,IDLE,180,26.44,3,3
1564772135.430132,0,0.0001,0.24,0.294,IDLE,180,26.44,3,3
1564772135.4770114,0,0.0001,0.24,0.294,IDLE,180,26.44,3,3
1564772135.5263827,0,0.0001,0.24,0.294,IDLE,180,26.44,3,3
1564772135.572257,0,0.0001,0.24,0.294,IDLE,180,26.44,3,3
1564772135.6251316,0,0.0001,0.24,0.294,IDLE,180,26.44,3,3
1564772135.671043,0,0.0001,0.24,0.294,IDLE,180,26.44,3,3
1564772135.7258613,0,0.0001,0.24,0.294,IDLE,180,26.44,3,3
1564772135.7753506,0,0.0001,0.24,0.294,IDLE,180,26.44,3,3
1564772135.8381326,0,0.0001,0.24,0.294,IDLE,180,26.44,3,3
1564772135.8750446,0,0.0001,0.24,0.294,IDLE,180,26.44,3,3
1564772135.924901,0,0.0001,0.24,0.294,IDLE,180,26.44,3,3
1564772135.9792318,0,0.0001,0.24,0.294,IDLE,180,26.44,3,3
1564772136.022561,0,0.0001,0.24,0.294,IDLE,180,26.44,3,3
1564772136.0855038,0,0.0001,0.24,0.294,IDLE,180,26.44,3,3
1564772136.1326768,0,0.0001,0.24,0.294,IDLE,180,26.44,3,3
1564772136.1775606,0,0.0001,0.24,0.294,IDLE,180,26.44,3,3
1564772136.2349956,0,0.0001,0.24,0.294,IDLE,180,26.44,3,3
1564772136.286825,0,0.0001,0.24,0.294,IDLE,180,26.44,3,3
1564772136.341352,0,0.0001,0.24,0.294,IDLE,180,26.44,3,3
1564772136.3846416,0,0.0001,0.24,0.294,IDLE,180,26.44,3,3
1564772136.4335425,0,0.0001,0.24,0.294,IDLE,180,26.44,3,3
1564772136.4803784,0,0.0001,0.24,0.294,IDLE,180,26.44,3,3
1564772136.5307534,0,0.0001,0.24,0.294,IDLE,180,26.44,3,3
1564772136.577631,0,0.0001,0.24,0.294,IDLE,180,26.44,3,3
1564772136.6334813,0,0.0001,0.24,0.294,IDLE,180,26.44,3,3
1564772136.679643,0,0.0001,0.24,0.294,IDLE,180,26.44,3,3
1564772136.726806,0,0.0001,0.24,0.294,IDLE,180,26.44,3,3
1564772136.7806363,0,0.0001,0.24,0.294,IDLE,180,26.44,3,3
1564772136.8454626,0,0.0001,0.24,0.294,IDLE,180,26.44,3,3
1564772136.8932605,0,0.0001,0.24,0.294,IDLE,180,26.44,3,3
1564772136.9389641,0,0.0001,0.24,0.294,IDLE,180,26.44,3,3
1564772136.985151,0,0.0001,0.24,0.294,IDLE,180,26.44,3,3
1564772137.0400438,0,0.0001,0.24,0.294,IDLE,180,26.44,3,3
1564772137.0864396,0,0.0001,0.24,0.294,IDLE,180,26.44,3,3
1564772137.1373942,0,0.0001,0.24,0.294,IDLE,180,26.44,3,3
1564772137.189837,0,0.0001,0.24,0.294,IDLE,180,26.44,3,3
1564772137.2367396,0,0.0001,0.24,0.294,IDLE,180,26.44,3,3
1564772137.2846296,0,0.0001,0.24,0.294,IDLE,180,26.44,3,3
1564772137.3373353,0,0.0001,0.24,0.294,IDLE,180,26.44,3,3
1564772137.3973393,0,0.0001,0.24,0.294,IDLE,180,26.44,3,3
1564772137.4444764,0,0.0001,0.24,0.294,IDLE,180,26.44,3,3
1564772137.491443,0,0.0001,0.24,0.294,IDLE,180,26.44,3,3
1564772137.5393143,0,0.0001,0.24,0.294,IDLE,180,26.44,3,3
1564772137.5924218,0,0.0001,0.24,0.294,IDLE,180,26.44,3,3
1564772137.6450331,0,0.0001,0.24,0.294,IDLE,180,26.44,3,3
1564772137.6964486,0,0.0001,0.24,0.294,IDLE,180,26.44,3,3
1564772137.7540562,0,0.0001,0.24,0.294,IDLE,180,26.44,3,3
1564772137.8138916,0,0.0001,0.24,0.294,IDLE,180,26.44,3,3
1564772137.8467982,0,0.0001,0.24,0.294,IDLE,180,26.44,3,3
1564772137.8932655,0,0.0001,0.24,0.294,IDLE,180,26.44,3,3
1564772137.9491193,0,0.0001,0.24,0.294,IDLE,180,26.44,3,3
1564772137.9977894,0,0.0001,0.24,0.294,IDLE,180,26.44,3,3
1564772138.0609398,0,0.0001,0.24,0.294,IDLE,180,26.44,3,3
1564772138.1097724,0,0.0001,0.24,0.294,IDLE,180,26.44,3,3
1564772138.1626282,0,0.0001,0.24,0.294,IDLE,180,26.44,3,3
1564772138.197721,0,0.0001,0.24,0.294,IDLE,180,26.44,3,3
1564772138.2465963,0,0.0001,0.24,0.294,IDLE,180,26.44,3,3
1564772138.3125014,0,0.0001,0.24,0.294,IDLE,180,26.44,3,3
1564772138.3493614,0,0.0001,0.24,0.294,IDLE,180,26.44,3,3
1564772138.399228,0,0.0001,0.24,0.294,IDLE,180,26.44,3,3
1564772138.4562845,0,0.0001,0.24,0.294,IDLE,180,26.44,3,3
1564772138.502198,0,0.0001,0.24,0.294,IDLE,180,26.44,3,3
1564772138.5530436,0,0.0001,0.24,0.294,IDLE,180,26.44,3,3
1564772138.6026158,0,0.0001,0.24,0.294,IDLE,180,26.44,3,3
1564772138.6578763,0,0.0001,0.24,0.294,IDLE,180,26.44,3,3
1564772138.7129095,0,0.0001,0.24,0.294,IDLE,180,26.44,3,3
1564772138.7608216,0,0.0001,0.24,0.294,IDLE,180,26.44,3,3
1564772138.8160868,0,0.0001,0.24,0.294,IDLE,180,26.44,3,3
1564772138.8650494,0,0.0001,0.24,0.294,IDLE,180,26.44,3,3
1564772138.908401,0,0.0001,0.24,0.294,IDLE,180,26.44,3,3
1564772138.9642532,0,0.0001,0.24,0.294,IDLE,180,26.44,3,3
1564772139.012123,0,0.0001,0.24,0.294,IDLE,180,26.44,3,3
1564772139.0610075,0,0.0001,0.24,0.294,IDLE,180,26.44,3,3
1564772139.1101487,0,0.0001,0.24,0.294,IDLE,180,26.44,3,3
1564772139.1611218,0,0.0001,0.24,0.294,IDLE,180,26.44,3,3
1564772139.2100015,0,0.0001,0.24,0.294,IDLE,180,26.44,3,3
1564772139.2639823,0,0.0001,0.24,0.294,IDLE,180,26.44,3,3
1564772139.3120227,0,0.0001,0.24,0.294,IDLE,180,26.44,3,3
1564772139.3608584,0,0.0001,0.24,0.294,IDLE,180,26.44,3,3
1564772139.4187043,0,0.0001,0.24,0.294,IDLE,180,26.44,3,3
1564772139.4693577,0,0.0001,0.24,0.294,IDLE,180,26.44,3,3
1564772139.512242,0,0.0001,0.24,0.294,IDLE,180,26.44,3,3
1564772139.5621269,0,0.0001,0.24,0.294,IDLE,180,26.44,3,3
1564772139.6191685,0,0.0001,0.24,0.294,IDLE,180,26.44,3,3
1564772139.6680634,0,0.0001,0.24,0.294,IDLE,180,26.44,3,3
1564772139.7180777,0,0.0001,0.24,0.294,IDLE,180,26.44,3,3
1564772139.7669466,0,0.0001,0.24,0.294,IDLE,180,26.44,3,3
1564772139.8178496,0,0.0001,0.24,0.294,IDLE,180,26.44,3,3
1564772139.8697143,0,0.0001,0.24,0.294,IDLE,180,26.44,3,3
1564772139.9186652,0,0.0001,0.24,0.294,IDLE,180,26.44,3,3
1564772139.9672117,0,0.0001,0.24,0.294,IDLE,180,26.44,3,3
1564772140.0188854,0,0.0001,0.24,0.294,IDLE,180,26.44,3,3
1564772140.0682583,0,0.0001,0.24,0.294,IDLE,180,26.44,3,3
1564772140.1191232,0,0.0001,0.24,0.294,IDLE,180,26.44,3,3
1564772140.17654,0,0.0001,0.24,0.294,IDLE,180,26.44,3,3
1564772140.2261522,0,0.0001,0.24,0.294,IDLE,180,26.44,3,3
1564772140.274159,0,0.0001,0.24,0.294,IDLE,180,26.44,3,3
1564772140.3220851,0,0.0001,0.24,0.294,IDLE,180,26.44,3,3
1564772140.3709545,0,0.0001,0.24,0.294,IDLE,180,26.44,3,3
1564772140.422816,0,0.0001,0.24,0.294,IDLE,180,26.44,3,3
1564772140.474726,0,0.0001,0.24,0.294,IDLE,180,26.44,3,3
1564772140.5281312,0,0.0001,0.24,0.294,IDLE,180,26.44,3,3
1564772140.5779636,0,0.0001,0.24,0.294,IDLE,180,26.44,3,3
1564772140.630105,0,0.0001,0.24,0.294,IDLE,180,26.44,3,3
1564772140.6751347,0,0.0001,0.24,0.294,IDLE,180,26.44,3,3
1564772140.7282934,0,0.0001,0.24,0.294,IDLE,180,26.44,3,3
1564772140.7798743,0,0.0001,0.24,0.294,IDLE,180,26.44,3,3
1564772140.8309183,0,0.0001,0.24,0.294,IDLE,180,26.44,3,3
1564772140.880786,0,0.0001,0.24,0.294,IDLE,180,26.44,3,3
1564772140.9316509,0,0.0001,0.24,0.294,IDLE,180,26.44,3,3
1564772140.9885435,0,0.0001,0.24,0.294,IDLE,180,26.44,3,3
1564772141.0379934,0,0.0001,0.24,0.294,IDLE,180,26.44,3,3
1564772141.091998,0,0.0001,0.24,0.294,IDLE,180,26.44,3,3
1564772141.1423123,0,0.0001,0.24,0.294,IDLE,180,26.44,3,3
1564772141.1946588,0,0.0001,0.24,0.294,IDLE,180,26.44,3,3
1564772141.245158,0,0.0001,0.24,0.294,IDLE,180,26.44,3,3
1564772141.2829971,0,0.0001,0.24,0.294,IDLE,180,26.44,3,3
1564772141.3353436,0,0.0001,0.24,0.294,IDLE,180,26.44,3,3
1564772141.387291,0,0.0001,0.24,0.294,IDLE,180,26.44,3,3
1564772141.4332666,0,0.0001,0.24,0.294,IDLE,180,26.44,3,3
1564772141.4840877,0,0.0001,0.24,0.294,IDLE,180,26.44,3,3
1564772141.535948,0,0.0001,0.24,0.294,IDLE,180,26.44,3,3
1564772141.589969,0,0.0001,0.24,0.294,IDLE,180,26.44,3,3
1564772141.640798,0,0.0001,0.24,0.294,IDLE,180,26.44,3,3
1564772141.6936545,0,0.0001,0.24,0.294,IDLE,180,26.44,3,3
1564772141.74591,0,0.0001,0.24,0.294,IDLE,180,26.44,3,3
1564772141.7977707,0,0.0001,0.24,0.294,IDLE,180,26.44,3,3
1564772141.8486876,0,0.0001,0.24,0.294,IDLE,180,26.44,3,3
1564772141.8982751,0,0.0001,0.24,0.294,IDLE,180,26.44,3,3
1564772141.9571216,0,0.0001,0.24,0.294,IDLE,180,26.44,3,3
1564772141.9930227,0,0.0001,0.24,0.294,IDLE,180,26.44,3,3
1564772142.0468779,0,0.0001,0.24,0.294,IDLE,180,26.44,3,3
1564772142.0917594,0,0.0001,0.24,0.294,IDLE,180,26.44,3,3
1564772142.1508656,0,0.0001,0.24,0.294,IDLE,180,26.44,3,3
1564772142.209673,0,0.0001,0.24,0.294,IDLE,180,26.44,3,3
1564772142.244589,0,0.0001,0.24,0.294,IDLE,180,26.44,3,3
1564772142.2966504,0,0.0001,0.24,0.294,IDLE,180,26.44,3,3
1564772142.345711,0,0.0001,0.24,0.294,IDLE,180,26.44,3,3
1564772142.3960924,0,0.0001,0.24,0.294,IDLE,180,26.44,3,3
1564772142.4519439,0,0.0001,0.24,0.294,IDLE,180,26.44,3,3
1564772142.5041387,0,0.0001,0.24,0.294,IDLE,180,26.44,3,3
1564772142.564022,0,0.0001,0.24,0.294,IDLE,180,26.44,3,3
1564772142.599882,0,0.0001,0.24,0.294,IDLE,180,26.44,3,3
1564772142.6527407,0,0.0001,0.24,0.294,IDLE,180,26.44,3,3
1564772142.698619,0,0.0001,0.24,0.294,IDLE,180,26.44,3,3
1564772142.7538898,0,0.0001,0.24,0.294,IDLE,180,26.44,3,3
1564772142.8060224,0,0.0001,0.24,0.294,IDLE,180,26.44,3,3
1564772142.8608766,0,0.0001,0.24,0.294,IDLE,180,26.44,3,3
1564772142.9127228,0,0.0001,0.24,0.294,IDLE,180,26.44,3,3
1564772142.9483194,0,0.0001,0.24,0.294,IDLE,180,26.44,3,3
1564772143.0041687,0,0.0001,0.24,0.294,IDLE,180,26.44,3,3
1564772143.052041,0,0.0001,0.24,0.294,IDLE,180,26.44,3,3
1564772143.100402,0,0.0001,0.24,0.294,IDLE,180,26.44,3,3
1564772143.1617138,0,0.0001,0.24,0.294,IDLE,180,26.44,3,3
1564772143.2160678,0,0.0001,0.24,0.294,IDLE,180,26.44,3,3
1564772143.2662244,0,0.0001,0.24,0.294,IDLE,180,26.44,3,3
1564772143.303141,0,0.0001,0.24,0.294,IDLE,180,26.44,3,3
1564772143.3559995,0,0.0001,0.24,0.294,IDLE,180,26.44,3,3
1564772143.4088635,0,0.0001,0.24,0.294,IDLE,180,26.44,3,3
1564772143.4531891,0,0.0001,0.24,0.294,IDLE,180,26.44,3,3
1564772143.5060802,0,0.0001,0.24,0.294,IDLE,180,26.44,3,3
1564772143.5593615,0,0.0001,0.24,0.294,IDLE,180,26.44,3,3
1564772143.6102254,0,0.0001,0.24,0.294,IDLE,180,26.44,3,3
1564772143.6620858,0,0.0001,0.24,0.294,IDLE,180,26.44,3,3
1564772143.7219267,0,0.0001,0.24,0.294,IDLE,180,26.44,3,3
1564772143.762965,0,0.0001,0.24,0.294,IDLE,180,26.44,3,3
1564772143.813887,0,0.0001,0.24,0.294,IDLE,180,26.44,3,3
1564772143.8667493,0,0.0001,0.24,0.294,IDLE,180,26.44,3,3
1564772143.9249363,0,0.0001,0.24,0.294,IDLE,180,26.44,3,3
1564772143.9641733,0,0.0001,0.24,0.294,IDLE,180,26.44,3,3
1564772144.0191867,0,0.0001,0.24,0.294,IDLE,180,26.44,3,3
1564772144.0600655,0,0.0001,0.24,0.294,IDLE,180,26.44,3,3
1564772144.1119177,0,0.0001,0.24,0.294,IDLE,180,26.44,3,3
1564772144.1648915,0,0.0001,0.24,0.294,IDLE,180,26.44,3,3
1564772144.2277527,0,0.0001,0.24,0.294,IDLE,180,26.44,3,3
1564772144.2697575,0,0.0001,0.24,0.294,IDLE,180,26.44,3,3
1564772144.3186235,0,0.0001,0.24,0.294,IDLE,180,26.44,3,3
1564772144.3714447,0,0.0001,0.24,0.294,IDLE,180,26.44,3,3
1564772144.4258463,0,0.0001,0.24,0.294,IDLE,180,26.44,3,3
1564772144.4697733,0,0.0001,0.24,0.294,IDLE,180,26.44,3,3
1564772144.5161736,0,0.0001,0.24,0.294,IDLE,180,26.44,3,3
1564772144.5670886,0,0.0001,0.24,0.294,IDLE,180,26.44,3,3
1564772144.6259043,0,0.0001,0.24,0.294,IDLE,180,26.44,3,3
1564772144.6879206,0,0.0001,0.24,0.294,IDLE,180,26.44,3,3
1564772144.721995,0,0.0001,0.24,0.294,IDLE,180,26.44,3,3
1564772144.7666216,0,0.0001,0.24,0.294,IDLE,180,26.44,3,3
1564772144.820478,0,0.0001,0.24,0.294,IDLE,180,26.44,3,3
1564772144.8713417,0,0.0001,0.24,0.294,IDLE,180,26.44,3,3
1564772144.929235,0,0.0001,0.24,0.294,IDLE,180,26.44,3,3
1564772144.9810848,0,0.0001,0.24,0.294,IDLE,180,26.44,3,3
1564772145.0354104,0,0.0001,0.24,0.294,IDLE,180,26.44,3,3
1564772145.0705402,0,0.0001,0.24,0.294,IDLE,180,26.44,3,3
1564772145.1232047,0,0.0001,0.24,0.294,IDLE,180,26.44,3,3
1564772145.1783717,0,0.0001,0.24,0.294,IDLE,180,26.44,3,3
1564772145.228238,0,0.0001,0.24,0.294,IDLE,180,26.44,3,3
1564772145.2750537,0,0.0001,0.24,0.294,IDLE,180,26.44,3,3
1564772145.3272693,0,0.0001,0.24,0.294,IDLE,180,26.44,3,3
1564772145.3791714,0,0.0001,0.24,0.294,IDLE,180,26.44,3,3
1564772145.4311662,0,0.0001,0.24,0.294,IDLE,180,26.44,3,3
1564772145.4851925,0,0.0001,0.24,0.294,IDLE,180,26.44,3,3
1564772145.5379903,0,0.0001,0.24,0.294,IDLE,180,26.44,3,3
1564772145.5928092,0,0.0001,0.24,0.294,IDLE,180,26.44,3,3
1564772145.6268501,0,0.0001,0.24,0.294,IDLE,180,26.44,3,3
1564772145.6807442,0,0.0001,0.24,0.294,IDLE,180,26.44,3,3
1564772145.7347426,0,0.0001,0.24,0.294,IDLE,180,26.44,3,3
1564772145.7866642,0,0.0001,0.24,0.294,IDLE,180,26.44,3,3
1564772145.837997,0,0.0001,0.24,0.294,IDLE,180,26.44,3,3
1564772145.893172,0,0.0001,0.24,0.294,IDLE,180,26.44,3,3
1564772145.9459205,0,0.0001,0.24,0.294,IDLE,180,26.44,3,3
1564772145.9828029,0,0.0001,0.24,0.294,IDLE,180,26.44,3,3
1564772146.034439,0,0.0001,0.24,0.294,IDLE,180,26.44,3,3
1564772146.0863063,0,0.0001,0.24,0.294,IDLE,180,26.44,3,3
1564772146.1401231,0,0.0001,0.24,0.294,IDLE,180,26.44,3,3
1564772146.1861858,0,0.0001,0.24,0.294,IDLE,180,26.44,3,3
1564772146.2421315,0,0.0001,0.24,0.294,IDLE,180,26.44,3,3
1564772146.2971852,0,0.0001,0.24,0.294,IDLE,180,26.44,3,3
1564772146.339954,0,0.0001,0.24,0.294,IDLE,180,26.44,3,3
1564772146.384827,0,0.0001,0.24,0.294,IDLE,180,26.44,3,3
1564772146.4406786,0,0.0001,0.24,0.294,IDLE,180,26.44,3,3
1564772146.495562,0,0.0001,0.24,0.294,IDLE,180,26.44,3,3
1564772146.5494654,0,0.0001,0.24,0.294,IDLE,180,26.44,3,3
1564772146.5943475,0,0.0001,0.24,0.294,IDLE,180,26.44,3,3
1564772146.6491997,0,0.0001,0.24,0.294,IDLE,180,26.44,3,3
1564772146.6961231,0,0.0001,0.24,0.294,IDLE,180,26.44,3,3
1564772146.7429945,0,0.0001,0.24,0.294,IDLE,180,26.44,3,3
1564772146.797952,0,0.0001,0.24,0.294,IDLE,180,26.44,3,3
1564772146.8498206,0,0.0001,0.24,0.294,IDLE,180,26.44,3,3
1564772146.904102,0,0.0001,0.24,0.294,IDLE,180,26.44,3,3
1564772146.9602525,0,0.0001,0.24,0.294,IDLE,180,26.44,3,3
1564772146.9975622,0,0.0001,0.24,0.294,IDLE,180,26.44,3,3
1564772147.0454214,0,0.0001,0.24,0.294,IDLE,180,26.44,3,3
1564772147.1035943,0,0.0001,0.24,0.294,IDLE,180,26.44,3,3
1564772147.147416,0,0.0001,0.24,0.294,IDLE,180,26.44,3,3
1564772147.196356,0,0.0001,0.24,0.294,IDLE,180,26.44,3,3
1564772147.2492979,0,0.0001,0.24,0.294,IDLE,180,26.44,3,3
1564772147.3041463,0,0.0001,0.24,0.294,IDLE,180,26.44,3,3
1564772147.3432055,0,0.0001,0.24,0.294,IDLE,180,26.44,3,3
1564772147.3938112,0,0.0001,0.24,0.294,IDLE,180,26.44,3,3
1564772147.4500883,0,0.0001,0.24,0.294,IDLE,180,26.44,3,3
1564772147.503447,0,0.0001,0.24,0.294,IDLE,180,26.44,3,3
1564772147.5601575,0,0.0001,0.24,0.294,IDLE,180,26.44,3,3
1564772147.5980926,0,0.0001,0.24,0.294,IDLE,180,26.44,3,3
1564772147.6509714,0,0.0001,0.24,0.294,IDLE,180,26.44,3,3
1564772147.7068217,0,0.0001,0.24,0.294,IDLE,180,26.44,3,3
1564772147.761674,0,0.0001,0.24,0.294,IDLE,180,26.44,3,3
1564772147.7995734,0,0.0001,0.24,0.294,IDLE,180,26.44,3,3
1564772147.8537023,0,0.0001,0.24,0.294,IDLE,180,26.44,3,3
1564772147.9055672,0,0.0001,0.24,0.294,IDLE,180,26.44,3,3
1564772147.9544911,0,0.0001,0.24,0.294,IDLE,180,26.44,3,3
1564772148.012332,0,0.0001,0.24,0.294,IDLE,180,26.44,3,3
1564772148.0655549,0,0.0001,0.24,0.294,IDLE,180,26.44,3,3
1564772148.1204383,0,0.0001,0.24,0.294,IDLE,180,26.44,3,3
1564772148.1563084,0,0.0001,0.24,0.294,IDLE,180,26.44,3,3
1564772148.2045527,0,0.0001,0.24,0.294,IDLE,180,26.44,3,3
1564772148.2644022,0,0.0001,0.24,0.294,IDLE,180,26.44,3,3
1564772148.3092742,0,0.0001,0.24,0.294,IDLE,180,26.44,3,3
1564772148.365153,0,0.0001,0.24,0.294,IDLE,180,26.44,3,3
1564772148.419206,0,0.0001,0.24,0.294,IDLE,180,26.44,3,3
1564772148.4661207,0,0.0001,0.24,0.294,IDLE,180,26.44,3,3
1564772148.5120814,0,0.0001,0.24,0.294,IDLE,180,26.44,3,3
1564772148.5659432,0,0.0001,0.24,0.294,IDLE,180,26.44,3,3
1564772148.6197586,0,0.0001,0.24,0.294,IDLE,180,26.44,3,3
1564772148.6746132,0,0.0001,0.24,0.294,IDLE,180,26.44,3,3
1564772148.7117038,0,0.0001,0.24,0.294,IDLE,180,26.44,3,3
1564772148.7606192,0,0.0001,0.24,0.294,IDLE,180,26.44,3,3
1564772148.81607,0,0.0001,0.24,0.294,IDLE,180,26.44,3,3
1564772148.8717685,0,0.0001,0.24,0.294,IDLE,180,26.44,3,3
1564772148.926914,0,0.0001,0.24,0.294,IDLE,180,26.44,3,3
1564772148.965148,0,0.0001,0.24,0.294,IDLE,180,26.44,3,3
1564772149.019127,0,0.0001,0.24,0.294,IDLE,180,26.44,3,3
1564772149.065071,0,0.0001,0.24,0.294,IDLE,180,26.44,3,3
1564772149.1189091,0,0.0001,0.24,0.294,IDLE,180,26.44,3,3
1564772149.1739886,0,0.0001,0.24,0.294,IDLE,180,26.44,3,3
1564772149.21612,0,0.0001,0.24,0.294,IDLE,180,26.44,3,3
1564772149.280002,0,0.0001,0.24,0.294,IDLE,180,26.44,3,3
1564772149.3198996,0,0.0001,0.24,0.294,IDLE,180,26.44,3,3
1564772149.3837252,0,0.0001,0.24,0.294,IDLE,180,26.44,3,3
1564772149.426674,0,0.0001,0.24,0.294,IDLE,180,26.44,3,3
1564772149.481616,0,0.0001,0.24,0.294,IDLE,180,26.44,3,3
1564772149.5354207,0,0.0001,0.24,0.294,IDLE,180,26.44,3,3
1564772149.5719273,0,0.0001,0.24,0.294,IDLE,180,26.44,3,3
1564772149.6287758,0,0.0001,0.24,0.294,IDLE,180,26.44,3,3
1564772149.6866214,0,0.0001,0.24,0.294,IDLE,180,26.44,3,3
1564772149.7265143,0,0.0001,0.24,0.294,IDLE,180,26.44,3,3
1564772149.7784884,0,0.0001,0.24,0.294,IDLE,180,26.44,3,3
1564772149.8333404,0,0.0001,0.24,0.294,IDLE,180,26.44,3,3
1564772149.886307,0,0.0001,0.24,0.294,IDLE,180,26.44,3,3
1564772149.94216,0,0.0001,0.24,0.294,IDLE,180,26.44,3,3
1564772149.9790592,0,0.0001,0.24,0.294,IDLE,180,26.44,3,3
1564772150.0281377,0,0.0001,0.24,0.294,IDLE,180,26.44,3,3
1564772150.0829916,0,0.0001,0.24,0.294,IDLE,180,26.44,3,3
1564772150.1418262,0,0.0001,0.24,0.294,IDLE,180,26.44,3,3
1564772150.1797247,0,0.0001,0.24,0.294,IDLE,180,26.44,3,3
1564772150.2295916,0,0.0001,0.24,0.294,IDLE,180,26.44,3,3
1564772150.2847862,0,0.0001,0.24,0.294,IDLE,180,26.44,3,3
1564772150.342672,0,0.0001,0.24,0.294,IDLE,180,26.44,3,3
1564772150.3791337,0,0.0001,0.24,0.294,IDLE,180,26.44,3,3
1564772150.4300349,0,0.0001,0.24,0.294,IDLE,180,26.44,3,3
1564772150.489347,0,0.0001,0.24,0.294,IDLE,180,26.44,3,3
1564772150.5476868,0,0.0001,0.24,0.294,IDLE,180,26.44,3,3
1564772150.5855885,0,0.0001,0.24,0.294,IDLE,180,26.44,3,3
1564772150.6354983,0,0.0001,0.24,0.294,IDLE,180,26.44,3,3
1564772150.6913667,0,0.0001,0.24,0.294,IDLE,180,26.44,3,3
1564772150.7482407,0,0.0001,0.24,0.294,IDLE,180,26.44,3,3
1564772150.7852106,0,0.0001,0.24,0.294,IDLE,180,26.44,3,3
1564772150.833111,0,0.0001,0.24,0.294,IDLE,180,26.44,3,3
1564772150.8901792,0,0.0001,0.24,0.294,IDLE,180,26.44,3,3
1564772150.9451907,0,0.0001,0.24,0.294,IDLE,180,26.44,3,3
1564772151.000147,0,0.0001,0.24,0.294,IDLE,180,26.44,3,3
1564772151.0351095,0,0.0001,0.24,0.294,IDLE,180,26.44,3,3
1564772151.0909355,0,0.0001,0.24,0.294,IDLE,180,26.44,3,3
1564772151.1507604,0,0.0001,0.24,0.294,IDLE,180,26.44,3,3
1564772151.1926901,0,0.0001,0.24,0.294,IDLE,180,26.44,3,3
1564772151.2516422,0,0.0001,0.24,0.294,IDLE,180,26.44,3,3
1564772151.2878463,0,0.0001,0.24,0.294,IDLE,180,26.44,3,3
1564772151.350039,0,0.0001,0.24,0.294,IDLE,180,26.44,3,3
1564772151.4029586,0,0.0001,0.24,0.294,IDLE,180,26.44,3,3
1564772151.4398582,0,0.0001,0.24,0.294,IDLE,180,26.44,3,3
1564772151.495761,0,0.0001,0.24,0.294,IDLE,180,26.44,3,3
1564772151.5446901,0,0.0001,0.24,0.294,IDLE,180,26.44,3,3
1564772151.6006956,0,0.0001,0.24,0.294,IDLE,180,26.44,3,3
1564772151.6466136,0,0.0001,0.24,0.294,IDLE,180,26.44,3,3
1564772151.6955917,0,0.0001,0.24,0.294,IDLE,180,26.44,3,3
1564772151.7514122,0,0.0001,0.24,0.294,IDLE,180,26.44,3,3
1564772151.805848,0,0.0001,0.24,0.294,IDLE,180,26.44,3,3
1564772151.860701,0,0.0001,0.24,0.294,IDLE,180,26.44,3,3
1564772151.8986232,0,0.0001,0.24,0.294,IDLE,180,26.44,3,3
1564772151.9504905,0,0.0001,0.24,0.294,IDLE,180,26.44,3,3
1564772151.9974122,0,0.0001,0.24,0.294,IDLE,180,26.44,3,3
1564772152.0453808,0,0.0001,0.24,0.294,IDLE,180,26.44,3,3
1564772152.1061509,0,0.0001,0.24,0.294,IDLE,180,26.44,3,3
1564772152.1495228,0,0.0001,0.24,0.294,IDLE,180,26.44,3,3
1564772152.2060363,0,0.0001,0.24,0.294,IDLE,180,26.44,3,3
1564772152.2609885,0,0.0001,0.24,0.294,IDLE,180,26.44,3,3
1564772152.3154788,0,0.0001,0.24,0.294,IDLE,180,26.44,3,3
1564772152.3530903,0,0.0001,0.24,0.294,IDLE,180,26.44,3,3
1564772152.4149938,0,0.0001,0.24,0.294,IDLE,180,26.44,3,3
1564772152.453065,0,0.0001,0.24,0.296,IDLE,180,26.44,3,3
1564772152.499942,0,0.0001,0.24,0.296,IDLE,180,26.44,3,3
1564772152.556107,0,0.0001,0.24,0.296,IDLE,180,26.44,3,3
1564772152.6119688,0,0.0001,0.24,0.296,IDLE,180,26.44,3,3
1564772152.6672034,0,0.0001,0.24,0.296,IDLE,180,26.44,3,3
1564772152.704103,0,0.0001,0.24,0.296,IDLE,180,26.44,3,3
1564772152.7581067,0,0.0001,0.24,0.296,IDLE,180,26.44,3,3
1564772152.8179345,0,0.0001,0.24,0.296,IDLE,180,26.44,3,3
1564772152.8847136,0,0.0001,0.24,0.296,IDLE,180,26.44,3,3
1564772152.921012,0,0.0001,0.24,0.296,IDLE,180,26.44,3,3
1564772152.9622123,0,0.0001,0.24,0.296,IDLE,180,26.44,3,3
1564772153.0106223,0,0.0001,0.24,0.296,IDLE,180,26.44,3,3
1564772153.0664942,0,0.0001,0.24,0.296,IDLE,180,26.44,3,3
1564772153.1243405,0,0.0001,0.24,0.296,IDLE,180,26.44,3,3
1564772153.1612413,0,0.0001,0.24,0.296,IDLE,180,26.44,3,3
1564772153.2114072,0,0.0001,0.24,0.296,IDLE,180,26.44,3,3
1564772153.2675018,0,0.0001,0.24,0.296,IDLE,180,26.44,3,3
1564772153.325393,0,0.0001,0.24,0.296,IDLE,180,26.44,3,3
1564772153.3631656,0,0.0001,0.24,0.296,IDLE,180,26.44,3,3
1564772153.4130297,0,0.0001,0.24,0.296,IDLE,180,26.44,3,3
1564772153.4688787,0,0.0001,0.24,0.296,IDLE,180,26.44,3,3
1564772153.5277364,0,0.0001,0.24,0.296,IDLE,180,26.44,3,3
1564772153.5646281,0,0.0001,0.24,0.296,IDLE,180,26.44,3,3
1564772153.621712,0,0.0001,0.24,0.296,IDLE,180,26.44,3,3
1564772153.6621578,0,0.0001,0.24,0.296,IDLE,180,26.44,3,3
1564772153.7125795,0,0.0001,0.24,0.296,IDLE,180,26.44,3,3
1564772153.768463,0,0.0001,0.24,0.296,IDLE,180,26.44,3,3
1564772153.8282712,0,0.0001,0.24,0.296,IDLE,180,26.44,3,3
1564772153.8671672,0,0.0001,0.24,0.296,IDLE,180,26.44,3,3
1564772153.9164658,0,0.0001,0.24,0.296,IDLE,180,26.44,3,3
1564772153.977479,0,0.0001,0.24,0.296,IDLE,180,26.44,3,3
1564772154.014416,0,0.0001,0.24,0.296,IDLE,180,26.44,3,3
1564772154.0643282,0,0.0001,0.24,0.296,IDLE,180,26.44,3,3
1564772154.1181533,0,0.0001,0.24,0.296,IDLE,180,26.44,3,3
1564772154.1743057,0,0.0001,0.24,0.296,IDLE,180,26.44,3,3
1564772154.2315857,0,0.0001,0.24,0.296,IDLE,180,26.44,3,3
1564772154.2684557,0,0.0001,0.24,0.296,IDLE,180,26.44,3,3
1564772154.3223248,0,0.0001,0.24,0.296,IDLE,180,26.44,3,3
1564772154.3772001,3,0.0001,0.24,0.296,MOVETO_PICKUP,180,100.0,3,3
1564772154.435043,11,0.0001,0.24,0.296,MOVETO_PICKUP,180,100.0,3,3
1564772154.4724743,23,0.0001,0.24,0.296,MOVETO_PICKUP,180,-6.67,3,3
1564772154.5248535,41,0.0001,0.24,0.296,MOVETO_PICKUP,180,-6.67,3,3
1564772154.5847478,62,0.0001,0.24,0.296,MOVETO_PICKUP,180,-59.72,3,3
1564772154.6256459,85,0.0001,0.24,0.296,MOVETO_PICKUP,180,-59.72,3,3
1564772154.6784978,106,0.0001,0.24,0.296,MOVETO_PICKUP,180,-87.17,3,3
1564772154.7244918,129,0.0001,0.24,0.296,MOVETO_PICKUP,180,-87.17,3,3
1564772154.7753549,151,0.0001,0.24,0.296,MOVETO_PICKUP,180,-86.04,3,3
1564772154.8351955,172,0.0001,0.24,0.296,MOVETO_PICKUP,180,-86.04,3,3
1564772154.875088,193,0.0001,0.24,0.296,MOVETO_PICKUP,180,-85.95,3,3
1564772154.9260702,214,0.0001,0.24,0.296,MOVETO_PICKUP,180,-85.95,3,3
1564772154.9935443,233,0.0001,0.24,0.296,MOVETO_PICKUP,180,-80.92,3,3
1564772155.030487,252,0.0001,0.24,0.296,MOVETO_PICKUP,180,-80.92,3,3
1564772155.081186,269,0.0001,0.24,0.296,MOVETO_PICKUP,180,-73.85,3,3
1564772155.1459858,286,0.0001,0.24,0.296,MOVETO_PICKUP,180,-73.85,3,3
1564772155.1860178,302,0.0001,0.24,0.296,MOVETO_PICKUP,180,-61.64,3,3
1564772155.2351394,316,0.0001,0.24,0.296,MOVETO_PICKUP,180,-61.64,3,3
1564772155.2830124,330,0.0001,0.24,0.296,MOVETO_PICKUP,180,-56.08,3,3
1564772155.3400037,343,0.0001,0.24,0.296,MOVETO_PICKUP,180,-56.08,3,3
1564772155.3982368,354,0.0001,0.24,0.296,MOVETO_PICKUP,180,-48.18,3,3
1564772155.4361362,366,0.0001,0.24,0.296,MOVETO_PICKUP,180,-48.18,3,3
1564772155.4840086,376,0.0001,0.24,0.296,MOVETO_PICKUP,180,-43.79,3,3
1564772155.5490549,386,0.0001,0.24,0.296,MOVETO_PICKUP,180,-43.79,3,3
1564772155.586955,395,0.0001,0.24,0.296,MOVETO_PICKUP,180,-39.88,3,3
1564772155.6349742,403,0.0001,0.24,0.296,MOVETO_PICKUP,180,-39.88,3,3
1564772155.693817,410,0.0001,0.24,0.296,MOVETO_PICKUP,180,-36.37,3,3
1564772155.751908,416,0.0001,0.24,0.296,MOVETO_PICKUP,180,-36.37,3,3
1564772155.8059206,421,0.0001,0.24,0.296,IDLE,180,-30.22,3,3
1564772155.8527977,426,0.0001,0.24,0.296,IDLE,180,-30.22,3,3
1564772155.8922334,429,0.0001,0.24,0.296,IDLE,180,-30.22,3,3
1564772155.9408283,432,0.0001,0.24,0.296,IDLE,180,-30.22,3,3
1564772155.9987595,433,0.0001,0.24,0.296,IDLE,180,-30.22,3,3
1564772156.0567365,434,0.0001,0.24,0.296,IDLE,180,-30.22,3,3
1564772156.0937355,434,0.0001,0.24,0.296,IDLE,180,-30.22,3,3
1564772156.1422231,434,0.0001,0.24,0.296,IDLE,180,-30.22,3,3
1564772156.209044,433,0.0001,0.24,0.296,IDLE,180,-30.22,3,3
1564772156.2590094,432,0.0001,0.24,0.296,IDLE,180,-30.22,3,3
1564772156.2959008,430,0.0001,0.24,0.296,IDLE,180,-30.22,3,3
1564772156.344748,429,0.0001,0.24,0.296,IDLE,180,-30.22,3,3
1564772156.403,427,0.0001,0.24,0.296,IDLE,180,-30.22,3,3
1564772156.469805,425,0.0001,0.24,0.296,IDLE,180,-30.22,3,3
1564772156.5058107,424,0.0001,0.24,0.296,IDLE,180,-30.22,3,3
1564772156.5577328,422,0.0001,0.24,0.296,IDLE,180,-30.22,3,3
1564772156.6221154,420,0.0001,0.24,0.296,IDLE,180,-30.22,3,3
1564772156.660014,419,0.0001,0.24,0.296,IDLE,180,-30.22,3,3
1564772156.7150578,418,0.0001,0.24,0.296,IDLE,180,-30.22,3,3
1564772156.7749126,416,0.0001,0.24,0.296,IDLE,180,-30.22,3,3
1564772156.8118143,415,0.0001,0.24,0.296,IDLE,180,-30.22,3,3
1564772156.8620434,414,0.0001,0.24,0.296,IDLE,180,-30.22,3,3
1564772156.920559,413,0.0001,0.24,0.296,IDLE,180,-30.22,3,3
1564772156.979665,412,0.0001,0.24,0.296,IDLE,180,-30.22,3,3
1564772157.0176947,411,0.0001,0.24,0.296,IDLE,180,-30.22,3,3
1564772157.068546,411,0.0001,0.24,0.296,IDLE,180,-30.22,3,3
1564772157.1334925,410,0.0001,0.24,0.296,IDLE,180,-30.22,3,3
1564772157.1703951,409,0.0001,0.24,0.296,IDLE,180,-30.22,3,3
1564772157.2176814,409,0.0001,0.24,0.296,IDLE,180,-30.22,3,3
1564772157.2674522,409,0.0001,0.24,0.296,IDLE,180,-30.22,3,3
1564772157.329823,408,0.0001,0.24,0.296,IDLE,180,-30.22,3,3
1564772157.3711784,408,0.0001,0.24,0.296,IDLE,180,-30.22,3,3
1564772157.4409788,408,0.0001,0.24,0.296,IDLE,180,-30.22,3,3
1564772157.4699597,408,0.0001,0.24,0.296,IDLE,180,-30.22,3,3
1564772157.5307853,408,0.0001,0.24,0.296,IDLE,180,-30.22,3,3
1564772157.5715191,408,0.0001,0.24,0.296,IDLE,180,-30.22,3,3
1564772157.6294584,408,0.0001,0.24,0.296,IDLE,180,-30.22,3,3
1564772157.6685934,408,0.0001,0.24,0.296,IDLE,180,-30.22,3,3
1564772157.7274992,408,0.0001,0.24,0.296,IDLE,180,-30.22,3,3
1564772157.786905,408,0.0001,0.24,0.296,IDLE,180,-30.22,3,3
1564772157.830785,408,0.0001,0.24,0.296,IDLE,180,-30.22,3,3
1564772157.8896215,408,0.0001,0.24,0.296,IDLE,180,-30.22,3,3
1564772157.9275248,408,0.0001,0.24,0.296,IDLE,180,-30.22,3,3
1564772157.982942,408,0.0001,0.24,0.296,IDLE,180,-30.22,3,3
1564772158.0407872,408,0.0001,0.24,0.296,IDLE,180,-30.22,3,3
1564772158.080975,408,0.0001,0.24,0.296,IDLE,180,-30.22,3,3
1564772158.1378171,408,0.0001,0.24,0.296,IDLE,180,-30.22,3,3
1564772158.2049375,408,0.0001,0.24,0.296,IDLE,180,-30.22,3,3
1564772158.2338853,408,0.0001,0.24,0.296,IDLE,180,-30.22,3,3
1564772158.291743,408,0.0001,0.24,0.296,IDLE,180,-30.22,3,3
1564772158.3319647,408,0.0001,0.24,0.296,IDLE,180,-30.22,3,3
1564772158.390204,408,0.0001,0.24,0.296,IDLE,180,-30.22,3,3
1564772158.4472423,408,0.0001,0.24,0.296,IDLE,180,-30.22,3,3
1564772158.4857109,408,0.0001,0.24,0.296,IDLE,180,-30.22,3,3
1564772158.5380049,408,0.0001,0.24,0.296,IDLE,180,-30.22,3,3
1564772158.5971284,408,0.0001,0.24,0.296,IDLE,180,-30.22,3,3
1564772158.6362114,408,0.0001,0.24,0.296,IDLE,180,-30.22,3,3
1564772158.692169,408,0.0001,0.24,0.296,IDLE,180,-30.22,3,3
1564772158.7440221,408,0.0001,0.24,0.296,IDLE,180,-30.22,3,3
1564772158.8022459,408,0.0001,0.24,0.296,IDLE,180,-30.22,3,3
1564772158.8413358,408,0.0001,0.24,0.296,IDLE,180,-30.22,3,3
1564772158.8904705,408,0.0001,0.24,0.296,IDLE,180,-30.22,3,3
1564772158.9482977,408,0.0001,0.24,0.296,IDLE,180,-30.22,3,3
1564772159.0144532,407,0.0001,0.24,0.296,IDLE,180,-30.22,3,3
1564772159.0443778,403,0.0001,0.24,0.296,IDLE,180,-30.22,3,3
1564772159.102487,396,0.0001,0.24,0.296,IDLE,180,-30.22,3,3
1564772159.1616492,389,0.0001,0.24,0.296,IDLE,180,-30.22,3,3
1564772159.1996741,381,0.0001,0.24,0.296,IDLE,180,-30.22,3,3
1564772159.258081,373,0.0001,0.24,0.296,IDLE,180,-30.22,3,3
1564772159.3171096,365,0.0001,0.24,0.296,IDLE,180,-30.22,3,3
1564772159.3484192,357,0.0001,0.24,0.296,IDLE,180,-30.22,3,3
1564772159.4074085,348,0.0001,0.24,0.296,IDLE,180,-30.22,3,3
1564772159.4690733,338,0.0001,0.24,0.296,IDLE,180,-30.22,3,3
1564772159.5002475,329,0.0001,0.24,0.296,IDLE,180,-30.22,3,3
1564772159.5585146,319,0.0001,0.24,0.296,IDLE,180,-30.22,3,3
1564772159.604345,310,0.0001,0.24,0.296,IDLE,180,-30.22,3,3
1564772159.6582034,301,0.0001,0.24,0.296,IDLE,180,-30.22,3,3
1564772159.7041123,293,0.0001,0.24,0.296,IDLE,180,-30.22,3,3
1564772159.7629597,285,0.0001,0.24,0.296,IDLE,180,-30.22,3,3
1564772159.8099983,278,0.0001,0.24,0.296,IDLE,180,-30.22,3,3
1564772159.8631752,271,0.0001,0.24,0.296,IDLE,180,-30.22,3,3
1564772159.908683,264,0.0001,0.24,0.296,IDLE,180,-30.22,3,3
1564772159.9590967,257,0.0001,0.24,0.296,IDLE,180,-30.22,3,3
1564772160.0279124,250,0.0001,0.24,0.296,IDLE,180,-30.22,3,3
1564772160.0658119,244,0.0001,0.24,0.296,IDLE,180,-30.22,3,3
1564772160.1197028,238,0.0001,0.24,0.296,IDLE,180,-30.22,3,3
1564772160.159125,233,0.0001,0.24,0.296,IDLE,180,-30.22,3,3
1564772160.2099824,228,0.0001,0.24,0.296,IDLE,180,-30.22,3,3
1564772160.268235,225,0.0001,0.24,0.296,IDLE,180,-30.22,3,3
1564772160.3290977,222,0.0001,0.24,0.296,IDLE,180,-30.22,3,3
1564772160.367013,222,0.0001,0.24,0.296,IDLE,180,-30.22,3,3
1564772160.4188566,222,0.0001,0.24,0.296,IDLE,180,-30.22,3,3
1564772160.4896765,224,0.0001,0.24,0.296,IDLE,180,-30.22,3,3
1564772160.5265763,227,0.0001,0.24,0.296,IDLE,180,-30.22,3,3
1564772160.5714853,229,0.0001,0.24,0.296,IDLE,180,-30.22,3,3
1564772160.6312957,231,0.0001,0.24,0.296,IDLE,180,-30.22,3,3
1564772160.668229,232,0.0001,0.24,0.296,IDLE,180,-30.22,3,3
1564772160.7308874,231,0.0001,0.24,0.296,IDLE,180,-30.22,3,3
1564772160.7707663,231,0.0001,0.24,0.296,IDLE,180,-30.22,3,3
1564772160.8219502,230,0.0001,0.24,0.296,IDLE,180,-30.22,3,3
1564772160.8810852,229,0.0001,0.24,0.296,IDLE,180,-30.22,3,3
1564772160.9219205,227,0.0001,0.24,0.296,IDLE,180,-30.22,3,3
1564772160.9748173,224,0.0001,0.24,0.296,IDLE,180,-30.22,3,3
1564772161.0336514,220,0.0001,0.24,0.296,IDLE,180,-30.22,3,3
1564772161.0736167,214,0.0001,0.24,0.296,IDLE,180,-30.22,3,3
1564772161.1254768,208,0.0001,0.24,0.296,IDLE,180,-30.22,3,3
1564772161.195037,201,0.0001,0.24,0.296,IDLE,180,-30.22,3,3
1564772161.231974,193,0.0001,0.24,0.296,IDLE,180,-30.22,3,3
1564772161.292965,185,0.0001,0.24,0.296,IDLE,180,-30.22,3,3
1564772161.3310518,178,0.0001,0.24,0.296,IDLE,180,-30.22,3,3
1564772161.3898478,171,0.0001,0.24,0.296,IDLE,180,-30.22,3,3
1564772161.448896,164,0.0001,0.24,0.296,IDLE,180,-30.22,3,3
1564772161.4897604,156,0.0001,0.24,0.296,IDLE,180,-30.22,3,3
1564772161.5418925,149,0.0001,0.24,0.296,IDLE,180,-30.22,3,3
1564772161.60176,141,0.0001,0.24,0.296,IDLE,180,-30.22,3,3
1564772161.6417189,133,0.0001,0.24,0.296,IDLE,180,-30.22,3,3
1564772161.6875966,126,0.0001,0.24,0.296,IDLE,180,-30.22,3,3
1564772161.7550404,119,0.0001,0.24,0.296,IDLE,180,-30.22,3,3
1564772161.7949505,112,0.0001,0.24,0.296,IDLE,180,-30.22,3,3
1564772161.8461516,105,0.0001,0.24,0.296,IDLE,180,-30.22,3,3
1564772161.9096243,99,0.0001,0.24,0.296,IDLE,180,-30.22,3,3
1564772161.9508908,92,0.0001,0.24,0.296,IDLE,180,-30.22,3,3
1564772162.003744,86,0.0001,0.24,0.296,IDLE,180,-30.22,3,3
1564772162.0578945,80,0.0001,0.24,0.296,IDLE,180,-30.22,3,3
1564772162.0969338,74,0.0001,0.24,0.296,IDLE,180,-30.22,3,3
1564772162.150031,67,0.0001,0.24,0.296,IDLE,180,-30.22,3,3
1564772162.1979218,60,0.0001,0.24,0.296,IDLE,180,-30.22,3,3
1564772162.2487767,53,0.0001,0.24,0.296,IDLE,180,-30.22,3,3
1564772162.3098142,46,0.0001,0.24,0.296,IDLE,180,-30.22,3,3
1564772162.3546665,40,0.0001,0.24,0.296,IDLE,180,-30.22,3,3
1564772162.4166906,33,0.0001,0.24,0.296,IDLE,180,-30.22,3,3
1564772162.4563084,27,0.0001,0.24,0.296,IDLE,180,-30.22,3,3
1564772162.5115917,21,0.0001,0.24,0.296,IDLE,180,-30.22,3,3
1564772162.550449,15,0.0001,0.24,0.296,IDLE,180,-30.22,3,3
1564772162.6134348,10,0.0001,0.24,0.296,IDLE,180,-30.22,3,3
1564772162.6533608,6,0.0001,0.24,0.296,IDLE,180,-30.22,3,3
1564772162.7072058,3,0.0001,0.24,0.296,IDLE,180,-30.22,3,3
1564772162.7679296,1,0.0001,0.24,0.296,IDLE,180,-30.22,3,3
1564772162.8077784,0,0.0001,0.24,0.296,IDLE,180,-30.22,3,3
1564772162.8606646,-1,0.0001,0.24,0.296,IDLE,180,-30.22,3,3
1564772162.9225655,-2,0.0001,0.24,0.296,IDLE,180,-30.22,3,3
1564772162.9622998,-2,0.0001,0.24,0.296,IDLE,180,-30.22,3,3
1564772163.0228786,-2,0.0001,0.24,0.296,IDLE,180,-30.22,3,3
1564772163.0627716,-2,0.0001,0.24,0.296,IDLE,180,-30.22,3,3
1564772163.1156306,-2,0.0001,0.24,0.296,IDLE,180,-30.22,3,3
1564772163.163186,-2,0.0001,0.24,0.296,IDLE,180,-30.22,3,3
1564772163.21804,-2,0.0001,0.24,0.296,IDLE,180,-30.22,3,3
1564772163.2812037,-1,0.0001,0.24,0.296,IDLE,180,-30.22,3,3
1564772163.319717,0,0.0001,0.24,0.296,IDLE,180,-30.22,3,3
1564772163.3742878,0,0.0001,0.24,0.296,IDLE,180,-30.22,3,3
1564772163.4141784,0,0.0001,0.24,0.296,IDLE,180,-30.22,3,3
1564772163.4670646,0,0.0001,0.24,0.296,IDLE,180,-30.22,3,3
1564772163.5139549,0,0.0001,0.24,0.296,IDLE,180,-30.22,3,3
1564772163.576785,0,0.0001,0.24,0.296,IDLE,180,-30.22,3,3
1564772163.6156938,0,0.0001,0.24,0.296,IDLE,180,-30.22,3,3
1564772163.6780663,0,0.0001,0.24,0.296,IDLE,180,-30.22,3,3
1564772163.7171779,0,0.0001,0.24,0.296,IDLE,180,-30.22,3,3
1564772163.7682226,0,0.0001,0.24,0.296,IDLE,180,-30.22,3,3
1564772163.831328,0,0.0001,0.24,0.296,IDLE,180,-30.22,3,3
1564772163.8721879,0,0.0001,0.24,0.296,IDLE,180,-30.22,3,3
1564772163.9250915,0,0.0001,0.24,0.296,IDLE,180,-30.22,3,3
1564772163.9890997,0,0.0001,0.24,0.296,IDLE,180,-30.22,3,3
1564772164.0349422,0,0.0001,0.24,0.296,IDLE,180,-30.22,3,3
1564772164.0900986,0,0.0001,0.24,0.296,IDLE,180,-30.22,3,3
1564772164.1341207,0,0.0001,0.24,0.296,IDLE,180,-30.22,3,3
1564772164.1807995,0,0.0001,0.24,0.296,IDLE,180,-30.22,3,3
1564772164.2346437,0,0.0001,0.24,0.296,IDLE,180,-30.22,3,3
1564772164.280641,0,0.0001,0.24,0.296,IDLE,180,-30.22,3,3
1564772164.3337295,0,0.0001,0.24,0.296,IDLE,180,-30.22,3,3
1564772164.3941655,0,0.0001,0.24,0.296,IDLE,180,-30.22,3,3
1564772164.426215,0,0.0001,0.24,0.296,IDLE,180,-30.22,3,3
1564772164.4979334,0,0.0001,0.24,0.296,IDLE,180,-30.22,3,3
1564772164.5288315,0,0.0001,0.24,0.296,IDLE,180,-30.22,3,3
1564772164.5896704,0,0.0001,0.24,0.296,IDLE,180,-30.22,3,3
1564772164.6286922,0,0.0001,0.24,0.296,IDLE,180,-30.22,3,3
1564772164.6805553,0,0.0001,0.24,0.296,IDLE,180,-30.22,3,3
1564772164.7503457,0,0.0001,0.24,0.296,IDLE,180,-30.22,3,3
1564772164.7832768,0,0.0001,0.24,0.296,IDLE,180,-30.22,3,3
1564772164.8321476,0,0.0001,0.24,0.296,IDLE,180,-30.22,3,3
1564772164.8939908,0,0.0001,0.24,0.296,IDLE,180,-30.22,3,3
1564772164.9368663,0,0.0001,0.24,0.296,IDLE,180,-30.22,3,3
1564772164.9947503,0,0.0001,0.24,0.296,IDLE,180,-30.22,3,3
1564772165.039592,0,0.0001,0.24,0.296,IDLE,180,-30.22,3,3
1564772165.0964382,0,0.0001,0.24,0.296,IDLE,180,-30.22,3,3
1564772165.138329,0,0.0001,0.24,0.296,IDLE,180,-30.22,3,3
1564772165.1931803,0,0.0001,0.24,0.296,IDLE,180,-30.22,3,3
1564772165.2560124,0,0.0001,0.24,0.296,IDLE,180,-30.22,3,3
1564772165.2870862,0,0.0001,0.24,0.296,IDLE,180,-30.22,3,3
1564772165.3418949,0,0.0001,0.24,0.296,IDLE,180,-30.22,3,3
1564772165.3942232,0,0.0001,0.24,0.296,IDLE,180,-30.22,3,3
1564772165.4590886,0,0.0001,0.24,0.296,IDLE,180,-30.22,3,3
1564772165.4909694,0,0.0001,0.24,0.296,IDLE,180,-30.22,3,3
1564772165.5568204,0,0.0001,0.24,0.296,IDLE,180,-30.22,3,3
1564772165.598709,0,0.0001,0.24,0.296,IDLE,180,-30.22,3,3
1564772165.6595871,0,0.0001,0.24,0.296,IDLE,180,-30.22,3,3
1564772165.707755,0,0.0001,0.24,0.296,IDLE,180,-30.22,3,3
1564772165.7486918,0,0.0001,0.24,0.296,IDLE,180,-30.22,3,3
1564772165.8015053,0,0.0001,0.24,0.296,IDLE,180,-30.22,3,3
1564772165.853246,0,0.0001,0.24,0.296,IDLE,180,-30.22,3,3
1564772165.8970995,0,0.0001,0.24,0.296,IDLE,180,-30.22,3,3
1564772165.9624925,0,0.0001,0.24,0.296,IDLE,180,-30.22,3,3
1564772166.0033817,0,0.0001,0.24,0.296,IDLE,180,-30.22,3,3
1564772166.057031,0,0.0001,0.24,0.296,IDLE,180,-30.22,3,3
1564772166.0979207,0,0.0001,0.24,0.296,IDLE,180,-30.22,3,3
1564772166.151886,0,0.0001,0.24,0.296,IDLE,180,-30.22,3,3
1564772166.2167714,0,0.0001,0.24,0.296,IDLE,180,-30.22,3,3
1564772166.255723,0,0.0001,0.24,0.296,IDLE,180,-30.22,3,3
1564772166.3129816,0,0.0001,0.24,0.296,IDLE,180,-30.22,3,3
1564772166.3529184,0,0.0001,0.24,0.296,IDLE,180,-30.22,3,3
1564772166.419735,0,0.0001,0.24,0.296,IDLE,180,-30.22,3,3
1564772166.4595866,0,0.0001,0.24,0.296,IDLE,180,-30.22,3,3
1564772166.5136032,0,0.0001,0.24,0.296,IDLE,180,-30.22,3,3
1564772166.5604668,0,0.0001,0.24,0.296,IDLE,180,-30.22,3,3
1564772166.6153886,0,0.0001,0.24,0.296,IDLE,180,-30.22,3,3
1564772166.656022,0,0.0001,0.24,0.296,IDLE,180,-30.22,3,3
1564772166.7249715,0,0.0001,0.24,0.296,IDLE,180,-30.22,3,3
1564772166.7640233,0,0.0001,0.24,0.296,IDLE,180,-30.22,3,3
1564772166.8228347,0,0.0001,0.24,0.296,IDLE,180,-30.22,3,3
1564772166.862747,0,0.0001,0.24,0.296,IDLE,180,-30.22,3,3
1564772166.9246063,0,0.0001,0.24,0.296,IDLE,180,-30.22,3,3
1564772166.9654534,0,0.0001,0.24,0.296,IDLE,180,-30.22,3,3
1564772167.0190182,0,0.0001,0.24,0.296,IDLE,180,-30.22,3,3
1564772167.0659037,0,0.0001,0.24,0.296,IDLE,180,-30.22,3,3
1564772167.1207178,0,0.0001,0.24,0.296,IDLE,180,-30.22,3,3
1564772167.1696327,0,0.0001,0.24,0.296,IDLE,180,-30.22,3,3
1564772167.2325962,0,0.0001,0.24,0.296,IDLE,180,-30.22,3,3
1564772167.2655163,0,0.0001,0.24,0.296,IDLE,180,-30.22,3,3
1564772167.3321278,0,0.0001,0.24,0.296,IDLE,180,-30.22,3,3
1564772167.372145,0,0.0001,0.24,0.296,IDLE,180,-30.22,3,3
1564772167.4270098,0,0.0001,0.24,0.296,IDLE,180,-30.22,3,3
1564772167.466904,0,0.0001,0.24,0.296,IDLE,180,-30.22,3,3
1564772167.530983,0,0.0001,0.24,0.296,IDLE,180,-30.22,3,3
1564772167.5708754,0,0.0001,0.24,0.296,IDLE,180,-30.22,3,3
1564772167.6278808,0,0.0001,0.24,0.296,IDLE,180,-30.22,3,3
1564772167.6906679,0,0.0001,0.24,0.296,IDLE,180,-30.22,3,3
1564772167.7345786,0,0.0001,0.24,0.296,IDLE,180,-30.22,3,3
1564772167.7807071,0,0.0001,0.24,0.296,IDLE,180,-30.22,3,3
1564772167.8355584,0,0.0001,0.24,0.296,IDLE,180,-30.22,3,3
1564772167.8764493,0,0.0001,0.24,0.296,IDLE,180,-30.22,3,3
1564772167.947677,0,0.0001,0.24,0.296,IDLE,180,-30.22,3,3
1564772167.979592,0,0.0001,0.24,0.296,IDLE,180,-30.22,3,3
1564772168.0434644,0,0.0001,0.24,0.296,IDLE,180,-30.22,3,3
1564772168.0823152,0,0.0001,0.24,0.296,IDLE,180,-30.22,3,3
1564772168.1248426,0,0.0001,0.24,0.296,IDLE,180,-30.22,3,3
1564772168.1797352,0,0.0001,0.24,0.296,IDLE,180,-30.22,3,3
1564772168.2445827,0,0.0001,0.24,0.296,IDLE,180,-30.22,3,3
1564772168.2794797,0,0.0001,0.24,0.296,IDLE,180,-30.22,3,3
1564772168.3469608,0,0.0001,0.24,0.296,IDLE,180,-30.22,3,3
1564772168.378875,0,0.0001,0.24,0.296,IDLE,180,-30.22,3,3
1564772168.446694,0,0.0001,0.24,0.296,IDLE,180,-30.22,3,3
1564772168.4806027,0,0.0001,0.24,0.296,IDLE,180,-30.22,3,3
1564772168.5475967,0,0.0001,0.24,0.296,IDLE,180,-30.22,3,3
1564772168.581559,0,0.0001,0.24,0.296,IDLE,180,-30.22,3,3
1564772168.6314619,0,0.0001,0.24,0.296,IDLE,180,-30.22,3,3
1564772168.6982746,0,0.0001,0.24,0.296,IDLE,180,-30.22,3,3
1564772168.7302127,0,0.0001,0.24,0.296,IDLE,180,-30.22,3,3
1564772168.796212,0,0.0001,0.24,0.296,IDLE,180,-30.22,3,3
1564772168.8347857,0,0.0001,0.24,0.296,IDLE,180,-30.22,3,3
1564772168.8886497,0,0.0001,0.24,0.296,IDLE,180,-30.22,3,3
1564772168.932232,0,0.0001,0.24,0.296,IDLE,180,-30.22,3,3
1564772168.9890416,0,0.0001,0.24,0.296,IDLE,180,-30.22,3,3
1564772169.0628433,0,0.0001,0.24,0.296,IDLE,180,-30.22,3,3
1564772169.0967863,0,0.0001,0.24,0.296,IDLE,180,-30.22,3,3
1564772169.1379845,0,0.0001,0.24,0.296,IDLE,180,-30.22,3,3
1564772169.196085,0,0.0001,0.24,0.296,IDLE,180,-30.22,3,3
1564772169.2369297,0,0.0001,0.24,0.296,IDLE,180,-30.22,3,3
1564772169.2984416,0,0.0001,0.24,0.296,IDLE,180,-30.22,3,3
1564772169.3433175,0,0.0001,0.24,0.296,IDLE,180,-30.22,3,3
1564772169.4083252,0,0.0001,0.24,0.296,IDLE,180,-30.22,3,3
1564772169.4393258,0,0.0001,0.24,0.296,IDLE,180,-30.22,3,3
1564772169.501963,0,0.0001,0.24,0.296,IDLE,180,-30.22,3,3
1564772169.543869,0,0.0001,0.24,0.294,IDLE,180,-30.22,3,3
1564772169.5987167,0,0.0001,0.24,0.294,IDLE,180,-30.22,3,3
1564772169.6418157,0,0.0001,0.24,0.294,IDLE,180,-30.22,3,3
1564772169.6936815,0,0.0001,0.24,0.294,IDLE,180,-30.22,3,3
1564772169.7474985,0,0.0001,0.24,0.294,IDLE,180,-30.22,3,3
1564772169.808463,0,0.0001,0.24,0.294,IDLE,180,-30.22,3,3
1564772169.8503277,0,0.0001,0.24,0.294,IDLE,180,-30.22,3,3
1564772169.9191449,0,0.0001,0.24,0.294,IDLE,180,-30.22,3,3
1564772169.954053,0,0.0001,0.24,0.294,IDLE,180,-30.22,3,3
1564772169.997062,0,0.0001,0.24,0.294,IDLE,180,-30.22,3,3
1564772170.062838,0,0.0001,0.24,0.294,IDLE,180,-30.22,3,3
1564772170.1057239,0,0.0001,0.24,0.294,IDLE,180,-30.22,3,3
1564772170.1735675,0,0.0001,0.24,0.294,IDLE,180,-30.22,3,3
1564772170.2072134,0,0.0001,0.24,0.294,IDLE,180,-30.22,3,3
1564772170.251312,0,0.0001,0.24,0.294,IDLE,180,-30.22,3,3
1564772170.3062503,0,0.0001,0.24,0.294,IDLE,180,-30.22,3,3
1564772170.3721116,0,0.0001,0.24,0.294,IDLE,180,-30.22,3,3
1564772170.4069638,0,0.0001,0.24,0.294,IDLE,180,-30.22,3,3
1564772170.451979,0,0.0001,0.24,0.294,IDLE,180,-30.22,3,3
1564772170.5088246,0,0.0001,0.24,0.294,IDLE,180,-30.22,3,3
1564772170.5600314,0,0.0001,0.24,0.294,IDLE,180,-30.22,3,3
1564772170.6388736,0,0.0001,0.24,0.294,IDLE,180,-30.22,3,3
1564772170.6767702,0,0.0001,0.24,0.294,IDLE,180,-30.22,3,3
1564772170.710714,0,0.0001,0.24,0.294,IDLE,180,-30.22,3,3
1564772170.7800715,0,0.0001,0.24,0.294,IDLE,180,-30.22,3,3
1564772170.8143816,0,0.0001,0.24,0.294,IDLE,180,-30.22,3,3
1564772170.8742652,0,0.0001,0.24,0.294,IDLE,180,-30.22,3,3
1564772170.9142528,0,0.0001,0.24,0.294,IDLE,180,-30.22,3,3
1564772170.9808693,0,0.0001,0.24,0.294,IDLE,180,-30.22,3,3
1564772171.014892,0,0.0001,0.24,0.294,IDLE,180,-30.22,3,3
1564772171.0667548,0,0.0001,0.24,0.294,IDLE,180,-30.22,3,3
1564772171.127572,0,0.0001,0.24,0.294,IDLE,180,-30.22,3,3
1564772171.1715684,0,0.0001,0.24,0.294,IDLE,180,-30.22,3,3
1564772171.2290025,0,0.0001,0.24,0.294,IDLE,180,-30.22,3,3
1564772171.262912,0,0.0001,0.24,0.294,IDLE,180,-30.22,3,3
1564772171.336724,0,0.0001,0.24,0.294,IDLE,180,-30.22,3,3
1564772171.3687642,0,0.0001,0.24,0.294,IDLE,180,-30.22,3,3
1564772171.4357107,0,0.0001,0.24,0.294,IDLE,180,-30.22,3,3
1564772171.4686234,0,0.0001,0.24,0.294,IDLE,180,-30.22,3,3
1564772171.5162296,0,0.0001,0.24,0.294,IDLE,180,-30.22,3,3
1564772171.573205,0,0.0001,0.24,0.294,IDLE,180,-30.22,3,3
1564772171.6380336,0,0.0001,0.24,0.294,IDLE,180,-30.22,3,3
1564772171.669906,0,0.0001,0.24,0.294,IDLE,180,-30.22,3,3
1564772171.7357588,0,0.0001,0.24,0.294,IDLE,180,-30.22,3,3
1564772171.7766578,0,0.0001,0.24,0.294,IDLE,180,-30.22,3,3
1564772171.8345702,0,0.0001,0.24,0.294,IDLE,180,-30.22,3,3
1564772171.876431,0,0.0001,0.24,0.294,IDLE,180,-30.22,3,3
1564772171.9303477,0,0.0001,0.24,0.294,IDLE,180,-30.22,3,3
1564772171.9941823,0,0.0001,0.24,0.294,IDLE,180,-30.22,3,3
1564772172.0355742,0,0.0001,0.24,0.294,IDLE,180,-30.22,3,3
1564772172.0770285,0,0.0001,0.24,0.294,IDLE,180,-30.22,3,3
1564772172.1438272,0,0.0001,0.24,0.294,IDLE,180,-30.22,3,3
1564772172.177738,0,0.0001,0.24,0.294,IDLE,180,-30.22,3,3
1564772172.2452106,0,0.0001,0.24,0.294,IDLE,180,-30.22,3,3
1564772172.278122,0,0.0001,0.24,0.294,IDLE,180,-30.22,3,3
1564772172.3439746,0,0.0001,0.24,0.294,IDLE,180,-30.22,3,3
1564772172.3848648,0,0.0001,0.24,0.294,IDLE,180,-30.22,3,3
1564772172.4257386,0,0.0001,0.24,0.294,IDLE,180,-30.22,3,3
1564772172.4856076,0,0.0001,0.24,0.294,IDLE,180,-30.22,3,3
1564772172.5290527,0,0.0001,0.24,0.294,IDLE,180,-30.22,3,3
1564772172.5871456,3,0.0001,0.24,0.294,MOVETO_PICKUP,180,100.0,3,3
1564772172.6298368,11,0.0001,0.24,0.294,MOVETO_PICKUP,180,100.0,3,3
1564772172.6862414,23,0.0001,0.24,0.294,MOVETO_PICKUP,180,-21.6,3,3
1564772172.7520375,39,0.0001,0.24,0.294,MOVETO_PICKUP,180,-21.6,3,3
1564772172.7889662,56,0.0001,0.24,0.294,MOVETO_PICKUP,180,-65.33,3,3
1564772172.8328648,75,0.0001,0.24,0.294,MOVETO_PICKUP,180,-65.33,3,3
1564772172.8907223,93,0.0001,0.24,0.294,MOVETO_PICKUP,180,-83.46,3,3
1564772172.933589,112,0.0001,0.24,0.294,MOVETO_PICKUP,180,-83.46,3,3
1564772173.0059333,129,0.0001,0.24,0.294,MOVETO_PICKUP,180,-84.85,3,3
1564772173.0418386,148,0.0001,0.24,0.294,MOVETO_PICKUP,180,-84.85,3,3
1564772173.091815,167,0.0001,0.24,0.294,MOVETO_PICKUP,180,-81.21,3,3
1564772173.1616786,184,0.0001,0.24,0.294,MOVETO_PICKUP,180,-81.21,3,3
1564772173.1955702,200,0.0001,0.24,0.294,MOVETO_PICKUP,180,-75.46,3,3
1564772173.240444,216,0.0001,0.24,0.294,MOVETO_PICKUP,180,-75.46,3,3
1564772173.299302,232,0.0001,0.24,0.294,MOVETO_PICKUP,180,-73.43,3,3
1564772173.3434422,247,0.0001,0.24,0.294,MOVETO_PICKUP,180,-73.43,3,3
1564772173.4070482,261,0.0001,0.24,0.294,MOVETO_PICKUP,180,-69.21,3,3
1564772173.4489079,275,0.0001,0.24,0.294,MOVETO_PICKUP,180,-69.21,3,3
1564772173.507778,288,0.0001,0.24,0.294,MOVETO_PICKUP,180,-59.76,3,3
1564772173.5508616,300,0.0001,0.24,0.294,MOVETO_PICKUP,180,-59.76,3,3
1564772173.6096706,310,0.0001,0.24,0.294,MOVETO_PICKUP,180,-56.78,3,3
1564772173.6545835,320,0.0001,0.24,0.294,MOVETO_PICKUP,180,-56.78,3,3
1564772173.6994631,329,0.0001,0.24,0.294,MOVETO_PICKUP,180,-45.47,3,3
1564772173.756396,338,0.0001,0.24,0.294,MOVETO_PICKUP,180,-45.47,3,3
1564772173.822259,346,0.0001,0.24,0.294,MOVETO_PICKUP,180,-43.41,3,3
1564772173.8571565,353,0.0001,0.24,0.294,MOVETO_PICKUP,180,-43.41,3,3
1564772173.900667,359,0.0001,0.24,0.294,MOVETO_PICKUP,180,-38.77,3,3
1564772173.9585104,365,0.0001,0.24,0.294,IDLE,180,-38.77,3,3
1564772174.0093746,369,0.0001,0.24,0.294,IDLE,180,-38.77,3,3
1564772174.0682428,372,0.0001,0.24,0.294,IDLE,180,-38.77,3,3
1564772174.105173,374,0.0001,0.24,0.294,IDLE,180,-38.77,3,3
1564772174.1723504,374,0.0001,0.24,0.294,IDLE,180,-38.77,3,3
1564772174.2066834,374,0.0001,0.24,0.294,IDLE,180,-38.77,3,3
1564772174.2804668,374,0.0001,0.24,0.294,IDLE,180,-38.77,3,3
1564772174.3236814,372,0.0001,0.24,0.294,IDLE,180,-38.77,3,3
1564772174.3655777,370,0.0001,0.24,0.294,IDLE,180,-38.77,3,3
1564772174.4234858,367,0.0001,0.24,0.294,IDLE,180,-38.77,3,3
1564772174.4672275,364,0.0001,0.24,0.294,IDLE,180,-38.77,3,3
1564772174.5250704,361,0.0001,0.24,0.294,IDLE,180,-38.77,3,3
1564772174.5659454,358,0.0001,0.24,0.294,IDLE,180,-38.77,3,3
1564772174.6338153,355,0.0001,0.24,0.294,IDLE,180,-38.77,3,3
1564772174.6767006,353,0.0001,0.24,0.294,IDLE,180,-38.77,3,3
1564772174.720622,350,0.0001,0.24,0.294,IDLE,180,-38.77,3,3
1564772174.7778423,348,0.0001,0.24,0.294,IDLE,180,-38.77,3,3
1564772174.8267207,345,0.0001,0.24,0.294,IDLE,180,-38.77,3,3
1564772174.8845952,343,0.0001,0.24,0.294,IDLE,180,-38.77,3,3
1564772174.9304533,341,0.0001,0.24,0.294,IDLE,180,-38.77,3,3
1564772174.9733348,340,0.0001,0.24,0.294,IDLE,180,-38.77,3,3
1564772175.032375,338,0.0001,0.24,0.294,IDLE,180,-38.77,3,3
1564772175.0820532,337,0.0001,0.24,0.294,IDLE,180,-38.77,3,3
1564772175.1506422,335,0.0001,0.24,0.294,IDLE,180,-38.77,3,3
1564772175.1935048,334,0.0001,0.24,0.294,IDLE,180,-38.77,3,3
1564772175.2280545,334,0.0001,0.24,0.294,IDLE,180,-38.77,3,3
1564772175.2960021,333,0.0001,0.24,0.294,IDLE,180,-38.77,3,3
1564772175.3309057,333,0.0001,0.24,0.294,IDLE,180,-38.77,3,3
1564772175.3826783,333,0.0001,0.24,0.294,IDLE,180,-38.77,3,3
1564772175.4485223,332,0.0001,0.24,0.294,IDLE,180,-38.77,3,3
1564772175.481515,328,0.0001,0.24,0.294,IDLE,180,-38.77,3,3
1564772175.5493338,322,0.0001,0.24,0.294,IDLE,180,-38.77,3,3
1564772175.5922585,316,0.0001,0.24,0.294,IDLE,180,-38.77,3,3
1564772175.6331098,310,0.0001,0.24,0.294,IDLE,180,-38.77,3,3
1564772175.6971552,304,0.0001,0.24,0.294,IDLE,180,-38.77,3,3
1564772175.738046,297,0.0001,0.24,0.294,IDLE,180,-38.77,3,3
1564772175.788001,289,0.0001,0.24,0.294,IDLE,180,-38.77,3,3
1564772175.8471005,280,0.0001,0.24,0.294,IDLE,180,-38.77,3,3
1564772175.888999,271,0.0001,0.24,0.294,IDLE,180,-38.77,3,3
1564772175.956817,263,0.0001,0.24,0.294,IDLE,180,-38.77,3,3
1564772175.9908185,255,0.0001,0.24,0.294,IDLE,180,-38.77,3,3
1564772176.0516627,247,0.0001,0.24,0.294,IDLE,180,-38.77,3,3
1564772176.110509,240,0.0001,0.24,0.294,IDLE,180,-38.77,3,3
1564772176.1462188,234,0.0001,0.24,0.294,IDLE,180,-38.77,3,3
1564772176.1910934,227,0.0001,0.24,0.294,IDLE,180,-38.77,3,3
1564772176.249936,222,0.0001,0.24,0.294,IDLE,180,-38.77,3,3
1564772176.2938402,216,0.0001,0.24,0.294,IDLE,180,-38.77,3,3
1564772176.353696,212,0.0001,0.24,0.294,IDLE,180,-38.77,3,3
1564772176.3945498,207,0.0001,0.24,0.294,IDLE,180,-38.77,3,3
1564772176.4523954,201,0.0001,0.24,0.294,IDLE,180,-38.77,3,3
1564772176.4961638,194,0.0001,0.24,0.294,IDLE,180,-38.77,3,3
1564772176.5570889,186,0.0001,0.24,0.294,IDLE,180,-38.77,3,3
1564772176.6003227,178,0.0001,0.24,0.294,IDLE,180,-38.77,3,3
1564772176.6611607,168,0.0001,0.24,0.294,IDLE,180,-38.77,3,3
1564772176.7060413,159,0.0001,0.24,0.294,IDLE,180,-38.77,3,3
1564772176.7658796,150,0.0001,0.24,0.294,IDLE,180,-38.77,3,3
1564772176.8109348,141,0.0001,0.24,0.294,IDLE,180,-38.77,3,3
1564772176.8719776,133,0.0001,0.24,0.294,IDLE,180,-38.77,3,3
1564772176.9070632,124,0.0001,0.24,0.294,IDLE,180,-38.77,3,3
1564772176.9754546,115,0.0001,0.24,0.294,IDLE,180,-38.77,3,3
1564772177.010442,106,0.0001,0.24,0.294,IDLE,180,-38.77,3,3
1564772177.0821042,97,0.0001,0.24,0.294,IDLE,180,-38.77,3,3
1564772177.1170185,88,0.0001,0.24,0.294,IDLE,180,-38.77,3,3
1564772177.161059,79,0.0001,0.24,0.294,IDLE,180,-38.77,3,3
1564772177.2281594,71,0.0001,0.24,0.294,IDLE,180,-38.77,3,3
1564772177.2720275,63,0.0001,0.24,0.294,IDLE,180,-38.77,3,3
1564772177.3153355,56,0.0001,0.24,0.294,IDLE,180,-38.77,3,3
1564772177.3853066,49,0.0001,0.24,0.294,IDLE,180,-38.77,3,3
1564772177.4182177,43,0.0001,0.24,0.294,IDLE,180,-38.77,3,3
1564772177.487129,37,0.0001,0.24,0.294,IDLE,180,-38.77,3,3
1564772177.5210247,31,0.0001,0.24,0.294,IDLE,180,-38.77,3,3
1564772177.5729382,25,0.0001,0.24,0.294,IDLE,180,-38.77,3,3
1564772177.6303885,20,0.0001,0.24,0.294,IDLE,180,-38.77,3,3
1564772177.6736038,15,0.0001,0.24,0.294,IDLE,180,-38.77,3,3
1564772177.7324317,10,0.0001,0.24,0.294,IDLE,180,-38.77,3,3
1564772177.7792027,6,0.0001,0.24,0.294,IDLE,180,-38.77,3,3
1564772177.836134,3,0.0001,0.24,0.294,IDLE,180,-38.77,3,3
1564772177.8730783,1,0.0001,0.24,0.294,IDLE,180,-38.77,3,3
1564772177.9478867,0,0.0001,0.24,0.294,IDLE,180,-38.77,3,3
1564772177.9830933,0,0.0001,0.24,0.294,IDLE,180,-38.77,3,3
1564772178.0399408,-1,0.0001,0.24,0.294,IDLE,180,-38.77,3,3
1564772178.086789,-2,0.0001,0.24,0.294,IDLE,180,-38.77,3,3
1564772178.1416802,-2,0.0001,0.24,0.294,IDLE,180,-38.77,3,3
1564772178.1889904,-2,0.0001,0.24,0.294,IDLE,180,-38.77,3,3
1564772178.2341585,-2,0.0001,0.24,0.294,IDLE,180,-38.77,3,3
1564772178.294956,-2,0.0001,0.24,0.294,IDLE,180,-38.77,3,3
1564772178.3398361,-2,0.0001,0.24,0.294,IDLE,180,-38.77,3,3
1564772178.4026682,-1,0.0001,0.24,0.294,IDLE,180,-38.77,3,3
1564772178.4375749,-1,0.0001,0.24,0.294,IDLE,180,-38.77,3,3
1564772178.5144277,-1,0.0001,0.24,0.294,IDLE,180,-38.77,3,3
1564772178.5473464,-1,0.0001,0.24,0.294,IDLE,180,-38.77,3,3
1564772178.5940592,-1,0.0001,0.24,0.294,IDLE,180,-38.77,3,3
1564772178.6521957,-1,0.0001,0.24,0.294,IDLE,180,-38.77,3,3
1564772178.7010756,-1,0.0001,0.24,0.294,IDLE,180,-38.77,3,3
1564772178.7399647,-1,0.0001,0.24,0.294,IDLE,180,-38.77,3,3
1564772178.8108625,-1,0.0001,0.24,0.294,IDLE,180,-38.77,3,3
1564772178.845829,-1,0.0001,0.24,0.294,IDLE,180,-38.77,3,3
1564772178.893691,-1,0.0001,0.24,0.294,IDLE,180,-38.77,3,3
1564772178.9545279,-1,0.0001,0.24,0.294,IDLE,180,-38.77,3,3
1564772178.997692,-1,0.0001,0.24,0.294,IDLE,180,-38.77,3,3
1564772179.056214,-1,0.0001,0.24,0.294,IDLE,180,-38.77,3,3
1564772179.099121,-1,0.0001,0.24,0.294,IDLE,180,-38.77,3,3
1564772179.1679347,-1,0.0001,0.24,0.294,IDLE,180,-38.77,3,3
1564772179.2042427,-1,0.0001,0.24,0.294,IDLE,180,-38.77,3,3
1564772179.246149,-1,0.0001,0.24,0.294,IDLE,180,-38.77,3,3
1564772179.316947,-1,0.0001,0.24,0.294,IDLE,180,-38.77,3,3
1564772179.361967,-1,0.0001,0.24,0.294,IDLE,180,-38.77,3,3
1564772179.4071465,-1,0.0001,0.24,0.294,IDLE,180,-38.77,3,3
1564772179.4514437,-1,0.0001,0.24,0.294,IDLE,180,-38.77,3,3
1564772179.512293,-1,0.0001,0.24,0.294,IDLE,180,-38.77,3,3
1564772179.5567596,-1,0.0001,0.24,0.294,IDLE,180,-38.77,3,3
1564772179.6198928,-1,0.0001,0.24,0.294,IDLE,180,-38.77,3,3
1564772179.655505,-1,0.0001,0.24,0.294,IDLE,180,-38.77,3,3
1564772179.7268353,0,0.0001,0.24,0.294,IDLE,180,-38.77,3,3
1564772179.7647336,0,0.0001,0.24,0.294,IDLE,180,-38.77,3,3
1564772179.809615,0,0.0001,0.24,0.294,IDLE,180,-38.77,3,3
1564772179.8704965,0,0.0001,0.24,0.294,IDLE,180,-38.77,3,3
1564772179.913297,0,0.0001,0.24,0.294,IDLE,180,-38.77,3,3
1564772179.960325,0,0.0001,0.24,0.294,IDLE,180,-38.77,3,3
1564772180.0211358,0,0.0001,0.24,0.294,IDLE,180,-38.77,3,3
1564772180.06402,0,0.0001,0.24,0.294,IDLE,180,-38.77,3,3
1564772180.1278505,0,0.0001,0.24,0.294,IDLE,180,-38.77,3,3
1564772180.1707456,0,0.0001,0.24,0.294,IDLE,180,-38.77,3,3
1564772180.2149003,0,0.0001,0.24,0.294,IDLE,180,-38.77,3,3
1564772180.2763588,0,0.0001,0.24,0.294,IDLE,180,-38.77,3,3
1564772180.3122673,0,0.0001,0.24,0.294,IDLE,180,-38.77,3,3
1564772180.3832912,0,0.0001,0.24,0.294,IDLE,180,-38.77,3,3
1564772180.4171867,0,0.0001,0.24,0.294,IDLE,180,-38.77,3,3
1564772180.4615505,0,0.0001,0.24,0.294,IDLE,180,-38.77,3,3
1564772180.5204136,0,0.0001,0.24,0.294,IDLE,180,-38.77,3,3
1564772180.564394,0,0.0001,0.24,0.294,IDLE,180,-38.77,3,3
1564772180.6231918,0,0.0001,0.24,0.294,IDLE,180,-38.77,3,3
1564772180.66612,0,0.0001,0.24,0.294,IDLE,180,-38.77,3,3
1564772180.7368863,0,0.0001,0.24,0.294,IDLE,180,-38.77,3,3
1564772180.771829,0,0.0001,0.24,0.294,IDLE,180,-38.77,3,3
1564772180.8426363,0,0.0001,0.24,0.294,IDLE,180,-38.77,3,3
1564772180.8765504,0,0.0001,0.24,0.294,IDLE,180,-38.77,3,3
1564772180.9196985,0,0.0001,0.24,0.294,IDLE,180,-38.77,3,3
1564772180.9866338,0,0.0001,0.24,0.294,IDLE,180,-38.77,3,3
1564772181.0216222,0,0.0001,0.24,0.294,IDLE,180,-38.77,3,3
1564772181.0992208,0,0.0001,0.24,0.294,IDLE,180,-38.77,3,3
1564772181.145134,0,0.0001,0.24,0.294,IDLE,180,-38.77,3,3
1564772181.1900058,0,0.0001,0.24,0.294,IDLE,180,-38.77,3,3
1564772181.240148,0,0.0001,0.24,0.294,IDLE,180,-38.77,3,3
1564772181.2770503,0,0.0001,0.24,0.294,IDLE,180,-38.77,3,3
1564772181.333897,0,0.0001,0.24,0.294,IDLE,180,-38.77,3,3
1564772181.381973,0,0.0001,0.24,0.294,IDLE,180,-38.77,3,3
1564772181.4438076,0,0.0001,0.24,0.294,IDLE,180,-38.77,3,3
1564772181.4800355,0,0.0001,0.24,0.294,IDLE,180,-38.77,3,3
1564772181.5280054,0,0.0001,0.24,0.294,IDLE,180,-38.77,3,3
1564772181.5924578,0,0.0001,0.24,0.294,IDLE,180,-38.77,3,3
1564772181.6309643,0,0.0001,0.24,0.294,IDLE,180,-38.77,3,3
1564772181.6795309,0,0.0001,0.24,0.294,IDLE,180,-38.77,3,3
1564772181.744326,0,0.0001,0.24,0.294,IDLE,180,-38.77,3,3
1564772181.7802665,0,0.0001,0.24,0.294,IDLE,180,-38.77,3,3
1564772181.8292398,0,0.0001,0.24,0.294,IDLE,180,-38.77,3,3
1564772181.8969626,0,0.0001,0.24,0.294,IDLE,180,-38.77,3,3
1564772181.9326184,0,0.0001,0.24,0.294,IDLE,180,-38.77,3,3
1564772182.0047867,0,0.0001,0.24,0.294,IDLE,180,-38.77,3,3
1564772182.043683,0,0.0001,0.24,0.294,IDLE,180,-38.77,3,3
1564772182.092588,0,0.0001,0.24,0.294,IDLE,180,-38.77,3,3
1564772182.154432,0,0.0001,0.24,0.294,IDLE,180,-38.77,3,3
1564772182.1890445,0,0.0001,0.24,0.294,IDLE,180,-38.77,3,3
1564772182.235025,0,0.0001,0.24,0.294,IDLE,180,-38.77,3,3
1564772182.2838175,0,0.0001,0.24,0.294,IDLE,180,-38.77,3,3
1564772182.337198,0,0.0001,0.24,0.294,IDLE,180,-38.77,3,3
1564772182.3875763,0,0.0001,0.24,0.294,IDLE,180,-38.77,3,3
1564772182.437749,0,0.0001,0.24,0.294,IDLE,180,-38.77,3,3
1564772182.4989574,0,0.0001,0.24,0.294,IDLE,180,-38.77,3,3
1564772182.541825,0,0.0001,0.24,0.294,IDLE,180,-38.77,3,3
1564772182.587193,0,0.0001,0.24,0.294,IDLE,180,-38.77,3,3
1564772182.640041,0,0.0001,0.24,0.294,IDLE,180,-38.77,3,3
1564772182.689213,0,0.0001,0.24,0.294,IDLE,180,-38.77,3,3
1564772182.7413788,0,0.0001,0.24,0.294,IDLE,180,-38.77,3,3
1564772182.787553,0,0.0001,0.24,0.294,IDLE,180,-38.77,3,3
1564772182.840501,0,0.0001,0.24,0.294,IDLE,180,-38.77,3,3
1564772182.8920867,0,0.0001,0.24,0.294,IDLE,180,-38.77,3,3
1564772182.9435098,0,0.0001,0.24,0.294,IDLE,180,-38.77,3,3
1564772182.9936435,0,0.0001,0.24,0.294,IDLE,180,-38.77,3,3
1564772183.0436945,0,0.0001,0.24,0.294,IDLE,180,-38.77,3,3
1564772183.0944264,0,0.0001,0.24,0.294,IDLE,180,-38.77,3,3
1564772183.1442342,0,0.0001,0.24,0.294,IDLE,180,-38.77,3,3
1564772183.1938436,0,0.0001,0.24,0.294,IDLE,180,-38.77,3,3
1564772183.2463162,0,0.0001,0.24,0.294,IDLE,180,-38.77,3,3
1564772183.295935,0,0.0001,0.24,0.294,IDLE,180,-38.77,3,3
1564772183.3473802,0,0.0001,0.24,0.294,IDLE,180,-38.77,3,3
1564772183.3984072,0,0.0001,0.24,0.294,IDLE,180,-38.77,3,3
1564772183.4487908,0,0.0001,0.24,0.294,IDLE,180,-38.77,3,3
1564772183.5001426,0,0.0001,0.24,0.294,IDLE,180,-38.77,3,3
1564772183.549449,0,0.0001,0.24,0.294,IDLE,180,-38.77,3,3
1564772183.5995085,0,0.0001,0.24,0.294,IDLE,180,-38.77,3,3
1564772183.6518693,0,0.0001,0.24,0.294,IDLE,180,-38.77,3,3
1564772183.703031,0,0.0001,0.24,0.294,IDLE,180,-38.77,3,3
1564772183.750928,0,0.0001,0.24,0.294,IDLE,180,-38.77,3,3
1564772183.8035877,0,0.0001,0.24,0.294,IDLE,180,-38.77,3,3
1564772183.8554049,0,0.0001,0.24,0.294,IDLE,180,-38.77,3,3
1564772183.9026933,0,0.0001,0.24,0.294,IDLE,180,-38.77,3,3
1564772183.9537277,0,0.0001,0.24,0.294,IDLE,180,-38.77,3,3
1564772184.0042143,0,0.0001,0.24,0.294,IDLE,180,-38.77,3,3
1564772184.0556562,0,0.0001,0.24,0.294,IDLE,180,-38.77,3,3
1564772184.1025214,0,0.0001,0.24,0.294,IDLE,180,-38.77,3,3
1564772184.1515694,0,0.0001,0.24,0.294,IDLE,180,-38.77,3,3
1564772184.204678,0,0.0001,0.24,0.294,IDLE,180,-38.77,3,3
1564772184.2544415,0,0.0001,0.24,0.294,IDLE,180,-38.77,3,3
1564772184.303505,0,0.0001,0.24,0.294,IDLE,180,-38.77,3,3
1564772184.3569338,0,0.0001,0.24,0.294,IDLE,180,-38.77,3,3
1564772184.4078805,0,0.0001,0.24,0.294,IDLE,180,-38.77,3,3
1564772184.457869,0,0.0001,0.24,0.294,IDLE,180,-38.77,3,3
1564772184.5080378,0,0.0001,0.24,0.294,IDLE,180,-38.77,3,3
