1564772519.8285856,0,0.0001,0.24,0.294,IDLE,0,0.0,3,3
1564772519.882181,0,0.0001,0.24,0.294,IDLE,0,0.0,3,3
1564772519.9302306,0,0.0001,0.24,0.294,IDLE,0,0.0,3,3
1564772519.9858248,0,0.0001,0.24,0.294,IDLE,0,0.0,3,3
1564772520.0324383,0,0.0001,0.24,0.294,IDLE,0,0.0,3,3
1564772520.0810945,0,0.0001,0.24,0.294,IDLE,0,0.0,3,3
1564772520.130548,0,0.0001,0.24,0.294,IDLE,0,0.0,3,3
1564772520.1833553,0,0.0001,0.24,0.294,IDLE,0,0.0,3,3
1564772520.2366235,0,0.0001,0.24,0.294,IDLE,0,0.0,3,3
1564772520.2863362,0,0.0001,0.24,0.294,IDLE,0,0.0,3,3
1564772520.3393157,0,0.0001,0.24,0.294,IDLE,0,0.0,3,3
1564772520.3951807,0,0.0001,0.24,0.294,MOVETO_PICKUP,180,4.34,3,3
1564772520.435028,0,0.0001,0.24,0.294,MOVETO_PICKUP,180,4.34,3,3
1564772520.4861546,0,0.0001,0.24,0.294,MOVETO_PICKUP,180,8.66,3,3
1564772520.5366845,0,0.0001,0.24,0.294,MOVETO_PICKUP,180,8.66,3,3
1564772520.5853975,0,0.0001,0.24,0.294,MOVETO_PICKUP,180,12.98,3,3
1564772520.638483,0,0.0001,0.24,0.294,MOVETO_PICKUP,180,12.98,3,3
1564772520.6874082,1,0.0001,0.24,0.294,MOVETO_PICKUP,180,17.3,3,3
1564772520.7396502,1,0.0001,0.24,0.294,MOVETO_PICKUP,180,17.3,3,3
1564772520.7863936,2,0.0001,0.24,0.294,MOVETO_PICKUP,180,18.65,3,3
1564772520.8417645,3,0.0001,0.24,0.294,MOVETO_PICKUP,180,18.65,3,3
1564772520.8886201,4,0.0001,0.24,0.294,MOVETO_PICKUP,180,19.96,3,3
1564772520.9387934,5,0.0001,0.24,0.294,MOVETO_PICKUP,180,19.96,3,3
1564772520.995096,6,0.0001,0.24,0.294,MOVETO_PICKUP,180,24.16,3,3
1564772521.039786,8,0.0001,0.24,0.294,MOVETO_PICKUP,180,24.16,3,3
1564772521.0930314,11,0.0001,0.24,0.294,MOVETO_PICKUP,180,22.39,3,3
1564772521.1458902,13,0.0001,0.24,0.294,MOVETO_PICKUP,180,22.39,3,3
1564772521.1947596,16,0.0001,0.24,0.294,MOVETO_PICKUP,180,23.43,3,3
1564772521.2485616,19,0.0001,0.24,0.294,MOVETO_PICKUP,180,23.43,3,3
1564772521.2946851,23,0.0001,0.24,0.294,MOVETO_PICKUP,180,24.33,3,3
1564772521.3469663,27,0.0001,0.24,0.294,MOVETO_PICKUP,180,24.33,3,3
1564772521.3961246,31,0.0001,0.24,0.294,MOVETO_PICKUP,180,22.1,3,3
1564772521.4489832,35,0.0001,0.24,0.294,MOVETO_PICKUP,180,22.1,3,3
1564772521.4948597,40,0.0001,0.24,0.294,MOVETO_PICKUP,180,25.55,3,3
1564772521.5437284,45,0.0001,0.24,0.294,MOVETO_PICKUP,180,25.55,3,3
1564772521.5969563,51,0.0001,0.24,0.294,MOVETO_PICKUP,180,22.89,3,3
1564772521.6507194,56,0.0001,0.24,0.294,MOVETO_PICKUP,180,22.89,3,3
1564772521.6950424,62,0.0001,0.24,0.294,MOVETO_PICKUP,180,22.9,3,3
1564772521.7499151,68,0.0001,0.24,0.294,MOVETO_PICKUP,180,22.9,3,3
1564772521.7972584,74,0.0001,0.24,0.294,MOVETO_PICKUP,180,22.62,3,3
1564772521.846855,80,0.0001,0.24,0.294,MOVETO_PICKUP,180,22.62,3,3
1564772521.8967307,87,0.0001,0.24,0.294,MOVETO_PICKUP,180,22.03,3,3
1564772521.9485834,93,0.0001,0.24,0.294,MOVETO_PICKUP,180,22.03,3,3
1564772521.9991732,100,0.0001,0.24,0.294,MOVETO_PICKUP,180,24.07,3,3
1564772522.0477345,107,0.0001,0.24,0.294,MOVETO_PICKUP,180,24.07,3,3
1564772522.1008143,114,0.0001,0.24,0.294,MOVETO_PICKUP,180,22.83,3,3
1564772522.1499863,121,0.0001,0.24,0.294,MOVETO_PICKUP,180,22.83,3,3
1564772522.2032177,128,0.0001,0.24,0.294,MOVETO_PICKUP,180,24.2,3,3
1564772522.2584288,135,0.0001,0.24,0.294,MOVETO_PICKUP,180,24.2,3,3
1564772522.3043504,143,0.0001,0.24,0.294,MOVETO_PICKUP,180,25.23,3,3
1564772522.3522208,150,0.0001,0.24,0.294,MOVETO_PICKUP,180,25.23,3,3
1564772522.403085,158,0.0001,0.24,0.294,MOVETO_PICKUP,180,22.96,3,3
1564772522.4579382,165,0.0001,0.24,0.294,MOVETO_PICKUP,180,22.96,3,3
1564772522.5062764,173,0.0001,0.24,0.294,MOVETO_PICKUP,180,23.27,3,3
1564772522.55722,180,0.0001,0.24,0.294,MOVETO_PICKUP,180,23.27,3,3
1564772522.6121953,186,0.0001,0.24,0.294,MOVETO_PICKUP,180,23.22,3,3
1564772522.6582136,193,0.0001,0.24,0.294,MOVETO_PICKUP,180,23.22,3,3
1564772522.7156763,200,0.0001,0.24,0.294,MOVETO_PICKUP,180,31.7,3,3
1564772522.7608805,205,0.0001,0.24,0.294,MOVETO_PICKUP,180,31.7,3,3
1564772522.816083,210,0.0001,0.24,0.294,MOVETO_PICKUP,180,31.08,3,3
1564772522.8626356,215,0.0001,0.24,0.294,MOVETO_PICKUP,180,31.08,3,3
1564772522.9213095,219,0.0001,0.24,0.294,MOVETO_PICKUP,180,39.06,3,3
1564772522.965194,222,0.0001,0.24,0.294,MOVETO_PICKUP,180,39.06,3,3
1564772523.0180519,225,0.0001,0.24,0.294,MOVETO_PICKUP,180,43.93,3,3
1564772523.0714548,227,0.0001,0.24,0.294,MOVETO_PICKUP,180,43.93,3,3
1564772523.117366,228,0.0001,0.24,0.294,MOVETO_PICKUP,180,48.68,3,3
1564772523.1749394,229,0.0001,0.24,0.294,MOVETO_PICKUP,180,48.68,3,3
1564772523.2191455,229,0.0001,0.24,0.294,MOVETO_PICKUP,180,56.32,3,3
1564772523.2678628,229,0.0001,0.24,0.294,MOVETO_PICKUP,180,56.32,3,3
1564772523.3204782,229,0.0001,0.24,0.294,MOVETO_PICKUP,180,61.03,3,3
1564772523.3727438,229,0.0001,0.24,0.294,MOVETO_PICKUP,180,61.03,3,3
1564772523.4196126,228,0.0001,0.24,0.294,MOVETO_PICKUP,180,59.85,3,3
1564772523.4719284,228,0.0001,0.24,0.294,MOVETO_PICKUP,180,59.85,3,3
1564772523.5223753,227,0.0001,0.24,0.294,MOVETO_PICKUP,180,61.64,3,3
1564772523.5712981,226,0.0001,0.24,0.294,MOVETO_PICKUP,180,61.64,3,3
1564772523.6207342,226,0.0001,0.24,0.294,MOVETO_PICKUP,180,63.48,3,3
1564772523.6755872,225,0.0001,0.24,0.294,MOVETO_PICKUP,180,63.48,3,3
1564772523.722461,225,0.0001,0.24,0.294,MOVETO_PICKUP,180,59.46,3,3
1564772523.7713306,225,0.0001,0.24,0.294,MOVETO_PICKUP,180,59.46,3,3
1564772523.8225622,225,0.0001,0.24,0.294,MOVETO_PICKUP,180,55.44,3,3
1564772523.8707995,225,0.0001,0.24,0.294,MOVETO_PICKUP,180,55.44,3,3
1564772523.9236934,225,0.0001,0.24,0.294,MOVETO_PICKUP,180,54.36,3,3
1564772523.9725885,225,0.0001,0.24,0.294,MOVETO_PICKUP,180,54.36,3,3
1564772524.0234125,225,0.0001,0.24,0.294,MOVETO_PICKUP,180,53.28,3,3
1564772524.074574,225,0.0001,0.24,0.294,MOVETO_PICKUP,180,53.28,3,3
1564772524.1251159,225,0.0001,0.24,0.294,MOVETO_PICKUP,180,52.2,3,3
1564772524.1820054,225,0.0001,0.24,0.294,MOVETO_PICKUP,180,52.2,3,3
1564772524.2278662,225,0.0001,0.24,0.294,MOVETO_PICKUP,180,51.12,3,3
1564772524.275713,225,0.0001,0.24,0.294,MOVETO_PICKUP,180,51.12,3,3
1564772524.3285706,225,0.0001,0.24,0.294,MOVETO_PICKUP,180,50.04,3,3
1564772524.3777084,225,0.0001,0.24,0.294,MOVETO_PICKUP,180,50.04,3,3
1564772524.4293294,225,0.0001,0.24,0.294,MOVETO_PICKUP,180,48.96,3,3
1564772524.4761772,225,0.0001,0.24,0.294,MOVETO_PICKUP,180,48.96,3,3
1564772524.5320284,225,0.0001,0.24,0.294,MOVETO_PICKUP,180,47.88,3,3
1564772524.5779035,225,0.0001,0.24,0.294,MOVETO_PICKUP,180,47.88,3,3
1564772524.6278422,225,0.0001,0.24,0.294,MOVETO_PICKUP,180,46.8,3,3
1564772524.6836553,225,0.0001,0.24,0.294,MOVETO_PICKUP,180,46.8,3,3
1564772524.734224,225,0.0001,0.24,0.294,MOVETO_PICKUP,180,45.72,3,3
1564772524.7858496,225,0.0001,0.24,0.294,MOVETO_PICKUP,180,45.72,3,3
1564772524.836677,225,0.0001,0.24,0.294,MOVETO_PICKUP,180,44.64,3,3
1564772524.88885,225,0.0001,0.24,0.294,MOVETO_PICKUP,180,44.64,3,3
1564772524.9390357,225,0.0001,0.24,0.294,MOVETO_PICKUP,180,43.56,3,3
1564772524.992573,225,0.0001,0.24,0.294,MOVETO_PICKUP,180,43.56,3,3
1564772525.0414243,225,0.0001,0.24,0.294,MOVETO_PICKUP,180,42.48,3,3
1564772525.0927844,225,0.0001,0.24,0.294,MOVETO_PICKUP,180,42.48,3,3
1564772525.1440089,225,0.0001,0.24,0.294,MOVETO_PICKUP,180,41.4,3,3
1564772525.1963112,225,0.0001,0.24,0.294,MOVETO_PICKUP,180,41.4,3,3
1564772525.247175,225,0.0001,0.24,0.294,MOVETO_PICKUP,180,40.32,3,3
1564772525.2998838,225,0.0001,0.24,0.294,MOVETO_PICKUP,180,39.24,3,3
1564772525.3486972,225,0.0001,0.24,0.294,MOVETO_PICKUP,180,39.24,3,3
1564772525.4015565,225,0.0001,0.24,0.294,MOVETO_PICKUP,180,38.16,3,3
1564772525.4544144,225,0.0001,0.24,0.294,MOVETO_PICKUP,180,38.16,3,3
1564772525.505279,225,0.0001,0.24,0.294,MOVETO_PICKUP,180,37.08,3,3
1564772525.5574048,225,0.0001,0.24,0.294,MOVETO_PICKUP,180,37.08,3,3
1564772525.6111307,225,0.0001,0.24,0.294,MOVETO_PICKUP,180,36.0,3,3
1564772525.6596744,225,0.0001,0.24,0.294,MOVETO_PICKUP,180,36.0,3,3
1564772525.7148871,225,0.0001,0.24,0.294,MOVETO_PICKUP,180,34.92,3,3
1564772525.7596962,225,0.0001,0.24,0.294,MOVETO_PICKUP,180,34.92,3,3
1564772525.81686,225,0.0001,0.24,0.294,MOVETO_PICKUP,180,33.84,3,3
1564772525.8610806,225,0.0001,0.24,0.294,MOVETO_PICKUP,180,33.84,3,3
1564772525.9102316,225,0.0001,0.24,0.294,MOVETO_PICKUP,180,32.76,3,3
1564772525.9633613,225,0.0001,0.24,0.294,MOVETO_PICKUP,180,32.76,3,3
1564772526.0116892,225,0.0001,0.24,0.294,MOVETO_PICKUP,180,31.68,3,3
1564772526.065553,225,0.0001,0.24,0.294,MOVETO_PICKUP,180,31.68,3,3
1564772526.1108806,225,0.0001,0.24,0.294,MOVETO_PICKUP,180,30.6,3,3
1564772526.1697197,225,0.0001,0.24,0.294,MOVETO_PICKUP,180,30.6,3,3
1564772526.2126527,225,0.0001,0.24,0.294,MOVETO_PICKUP,180,29.52,3,3
1564772526.266148,225,0.0001,0.24,0.294,MOVETO_PICKUP,180,29.52,3,3
1564772526.3159223,225,0.0001,0.24,0.294,MOVETO_PICKUP,180,28.44,3,3
1564772526.3648505,225,0.0001,0.24,0.294,MOVETO_PICKUP,180,28.44,3,3
1564772526.4204013,225,0.0001,0.24,0.294,MOVETO_PICKUP,180,27.36,3,3
1564772526.4669676,225,0.0001,0.24,0.294,MOVETO_PICKUP,180,27.36,3,3
1564772526.5158503,225,0.0001,0.24,0.294,MOVETO_PICKUP,180,26.28,3,3
1564772526.5685954,225,0.0001,0.24,0.294,MOVETO_PICKUP,180,26.28,3,3
1564772526.6222734,225,0.0001,0.24,0.294,MOVETO_PICKUP,180,25.2,3,3
1564772526.6672158,225,0.0001,0.24,0.294,MOVETO_PICKUP,180,25.2,3,3
1564772526.7175078,225,0.0001,0.24,0.294,MOVETO_PICKUP,180,24.12,3,3
1564772526.7704418,225,0.0001,0.24,0.294,MOVETO_PICKUP,180,24.12,3,3
1564772526.8196888,225,0.0001,0.24,0.294,MOVETO_PICKUP,180,23.04,3,3
1564772526.8742936,225,0.0001,0.24,0.294,MOVETO_PICKUP,180,23.04,3,3
1564772526.9275787,225,0.0001,0.24,0.294,MOVETO_PICKUP,180,21.96,3,3
1564772526.9713798,225,0.0001,0.24,0.294,MOVETO_PICKUP,180,21.96,3,3
1564772527.0198424,225,0.0001,0.24,0.294,MOVETO_PICKUP,180,20.88,3,3
1564772527.0728116,225,0.0001,0.24,0.294,MOVETO_PICKUP,180,20.88,3,3
1564772527.1222568,225,0.0001,0.24,0.294,MOVETO_PICKUP,180,19.8,3,3
1564772527.1716037,225,0.0001,0.24,0.294,MOVETO_PICKUP,180,19.8,3,3
1564772527.2232678,225,0.0001,0.24,0.294,MOVETO_PICKUP,180,18.72,3,3
1564772527.2737744,225,0.0001,0.24,0.294,MOVETO_PICKUP,180,18.72,3,3
1564772527.3230875,225,0.0001,0.24,0.294,MOVETO_PICKUP,180,17.64,3,3
1564772527.375808,225,0.0001,0.24,0.294,MOVETO_PICKUP,180,17.64,3,3
1564772527.4252746,225,0.0001,0.24,0.294,MOVETO_PICKUP,180,16.56,3,3
1564772527.4836302,225,0.0001,0.24,0.294,MOVETO_PICKUP,180,16.56,3,3
1564772527.528929,225,0.0001,0.24,0.294,MOVETO_PICKUP,180,15.48,3,3
1564772527.5812266,225,0.0001,0.24,0.294,MOVETO_PICKUP,180,15.48,3,3
1564772527.6352594,225,0.0001,0.24,0.294,MOVETO_PICKUP,180,14.4,3,3
1564772527.6832204,225,0.0001,0.24,0.294,MOVETO_PICKUP,180,14.4,3,3
1564772527.7325711,225,0.0001,0.24,0.294,MOVETO_PICKUP,180,13.32,3,3
1564772527.7867332,225,0.0001,0.24,0.294,MOVETO_PICKUP,180,13.32,3,3
1564772527.8316033,225,0.0001,0.24,0.294,MOVETO_PICKUP,180,12.24,3,3
1564772527.8838587,225,0.0001,0.24,0.294,MOVETO_PICKUP,180,12.24,3,3
1564772527.9385,225,0.0001,0.24,0.294,MOVETO_PICKUP,180,11.16,3,3
1564772527.9823318,225,0.0001,0.24,0.294,MOVETO_PICKUP,180,11.16,3,3
1564772528.031602,225,0.0001,0.24,0.294,MOVETO_PICKUP,180,10.08,3,3
1564772528.0902388,225,0.0001,0.24,0.294,MOVETO_PICKUP,180,10.08,3,3
1564772528.1333463,225,0.0001,0.24,0.294,MOVETO_PICKUP,180,9.0,3,3
1564772528.186795,225,0.0001,0.24,0.294,MOVETO_PICKUP,180,9.0,3,3
1564772528.2408683,225,0.0001,0.24,0.294,MOVETO_PICKUP,180,7.92,3,3
1564772528.2893133,225,0.0001,0.24,0.294,MOVETO_PICKUP,180,7.92,3,3
1564772528.3493612,225,0.0001,0.24,0.294,MOVETO_PICKUP,180,6.84,3,3
1564772528.3959358,225,0.0001,0.24,0.294,MOVETO_PICKUP,180,6.84,3,3
1564772528.445952,225,0.0001,0.24,0.294,MOVETO_PICKUP,180,5.76,3,3
1564772528.498168,225,0.0001,0.24,0.294,MOVETO_PICKUP,180,5.76,3,3
1564772528.5475445,225,0.0001,0.24,0.294,MOVETO_PICKUP,180,4.68,3,3
1564772528.6044664,225,0.0001,0.24,0.294,MOVETO_PICKUP,180,4.68,3,3
1564772528.6496503,225,0.0001,0.24,0.294,MOVETO_PICKUP,180,3.6,3,3
1564772528.6988163,225,0.0001,0.24,0.294,MOVETO_PICKUP,180,3.6,3,3
1564772528.7551446,225,0.0001,0.24,0.294,MOVETO_PICKUP,180,2.52,3,3
1564772528.8001962,225,0.0001,0.24,0.294,MOVETO_PICKUP,180,2.52,3,3
1564772528.8506613,225,0.0001,0.24,0.294,MOVETO_PICKUP,180,1.44,3,3
1564772528.8992176,225,0.0001,0.24,0.294,MOVETO_PICKUP,180,1.44,3,3
1564772528.952926,225,0.0001,0.24,0.294,MOVETO_PICKUP,180,0.36,3,3
1564772529.0059566,225,0.0001,0.24,0.294,MOVETO_PICKUP,180,0.36,3,3
1564772529.0595326,225,0.0001,0.24,0.294,MOVETO_PICKUP,180,-0.72,3,3
1564772529.108289,225,0.0001,0.24,0.294,MOVETO_PICKUP,180,-0.72,3,3
1564772529.158162,225,0.0001,0.24,0.294,MOVETO_PICKUP,180,-1.8,3,3
1564772529.215405,225,0.0001,0.24,0.294,MOVETO_PICKUP,180,-1.8,3,3
1564772529.2611544,225,0.0001,0.24,0.294,MOVETO_PICKUP,180,-2.88,3,3
1564772529.3136818,225,0.0001,0.24,0.294,MOVETO_PICKUP,180,-2.88,3,3
1564772529.3701737,225,0.0001,0.24,0.294,MOVETO_PICKUP,180,-3.96,3,3
1564772529.4167585,225,0.0001,0.24,0.294,MOVETO_PICKUP,180,-3.96,3,3
1564772529.4692466,225,0.0001,0.24,0.294,MOVETO_PICKUP,180,-5.04,3,3
1564772529.5262632,225,0.0001,0.24,0.294,MOVETO_PICKUP,180,-5.04,3,3
1564772529.570618,225,0.0001,0.24,0.294,MOVETO_PICKUP,180,-6.12,3,3
1564772529.6204748,225,0.0001,0.24,0.294,MOVETO_PICKUP,180,-6.12,3,3
1564772529.675931,225,0.0001,0.24,0.294,MOVETO_PICKUP,180,-7.2,3,3
1564772529.7225115,225,0.0001,0.24,0.294,MOVETO_PICKUP,180,-7.2,3,3
1564772529.7692144,225,0.0001,0.24,0.294,MOVETO_PICKUP,180,-8.28,3,3
1564772529.820479,225,0.0001,0.24,0.294,MOVETO_PICKUP,180,-8.28,3,3
1564772529.876093,225,0.0001,0.24,0.294,MOVETO_PICKUP,180,-9.36,3,3
1564772529.9235597,225,0.0001,0.24,0.294,MOVETO_PICKUP,180,-9.36,3,3
1564772529.974088,225,0.0001,0.24,0.294,MOVETO_PICKUP,180,-10.44,3,3
1564772530.033527,225,0.0001,0.24,0.294,MOVETO_PICKUP,180,-10.44,3,3
1564772530.0781524,225,0.0001,0.24,0.294,MOVETO_PICKUP,180,-11.52,3,3
1564772530.1283844,225,0.0001,0.24,0.294,MOVETO_PICKUP,180,-11.52,3,3
1564772530.1776469,225,0.0001,0.24,0.294,MOVETO_PICKUP,180,-12.6,3,3
1564772530.2316253,225,0.0001,0.24,0.294,MOVETO_PICKUP,180,-12.6,3,3
1564772530.2800436,225,0.0001,0.24,0.294,MOVETO_PICKUP,180,-13.68,3,3
1564772530.3292654,225,0.0001,0.24,0.294,MOVETO_PICKUP,180,-13.68,3,3
1564772530.386262,225,0.0001,0.24,0.294,MOVETO_PICKUP,180,-14.76,3,3
1564772530.431821,225,0.0001,0.24,0.294,MOVETO_PICKUP,180,-14.76,3,3
1564772530.4813018,225,0.0001,0.24,0.294,MOVETO_PICKUP,180,-15.84,3,3
1564772530.5305367,225,0.0001,0.24,0.294,MOVETO_PICKUP,180,-15.84,3,3
1564772530.58761,225,0.0001,0.24,0.294,MOVETO_PICKUP,180,-16.92,3,3
1564772530.6341732,225,0.0001,0.24,0.294,MOVETO_PICKUP,180,-16.92,3,3
1564772530.6815639,225,0.0001,0.24,0.294,MOVETO_PICKUP,180,-18.0,3,3
1564772530.7311463,225,0.0001,0.24,0.294,MOVETO_PICKUP,180,-18.0,3,3
1564772530.7891881,225,0.0001,0.24,0.294,MOVETO_PICKUP,180,-19.08,3,3
1564772530.8362556,225,0.0001,0.24,0.294,MOVETO_PICKUP,180,-19.08,3,3
1564772530.8855407,225,0.0001,0.24,0.294,MOVETO_PICKUP,180,-20.16,3,3
1564772530.945759,225,0.0001,0.24,0.294,MOVETO_PICKUP,180,-20.16,3,3
1564772530.988331,225,0.0001,0.24,0.294,MOVETO_PICKUP,180,-21.24,3,3
1564772531.0334709,225,0.0001,0.24,0.294,MOVETO_PICKUP,180,-21.24,3,3
1564772531.0826209,225,0.0001,0.24,0.294,MOVETO_PICKUP,180,-22.32,3,3
1564772531.131705,225,0.0001,0.24,0.294,MOVETO_PICKUP,180,-22.32,3,3
1564772531.1863146,225,0.0001,0.24,0.294,MOVETO_PICKUP,180,-23.4,3,3
1564772531.2476692,225,0.0001,0.24,0.294,MOVETO_PICKUP,180,-23.4,3,3
1564772531.2921145,225,0.0001,0.24,0.294,MOVETO_PICKUP,180,-24.48,3,3
1564772531.337274,225,0.0001,0.24,0.294,MOVETO_PICKUP,180,-24.48,3,3
1564772531.3859882,225,0.0001,0.24,0.294,MOVETO_PICKUP,180,-25.56,3,3
1564772531.4355817,225,0.0001,0.24,0.294,MOVETO_PICKUP,180,-25.56,3,3
1564772531.4934263,225,0.0001,0.24,0.294,MOVETO_PICKUP,180,-26.64,3,3
1564772531.5381649,225,0.0001,0.24,0.294,MOVETO_PICKUP,180,-26.64,3,3
1564772531.5900655,225,0.0001,0.24,0.294,MOVETO_PICKUP,180,-27.72,3,3
1564772531.6394746,225,0.0001,0.24,0.294,MOVETO_PICKUP,180,-27.72,3,3
1564772531.6943386,225,0.0001,0.24,0.294,MOVETO_PICKUP,180,-28.8,3,3
1564772531.740863,225,0.0001,0.24,0.294,MOVETO_PICKUP,180,-28.8,3,3
1564772531.7911618,225,0.0001,0.24,0.294,MOVETO_PICKUP,180,-29.88,3,3
1564772531.8409216,225,0.0001,0.24,0.294,MOVETO_PICKUP,180,-29.88,3,3
1564772531.8989627,225,0.0001,0.24,0.294,MOVETO_PICKUP,180,-30.96,3,3
1564772531.9459088,225,0.0001,0.24,0.294,MOVETO_PICKUP,180,-30.96,3,3
1564772531.9937115,225,0.0001,0.24,0.294,MOVETO_PICKUP,180,-32.04,3,3
1564772532.0413237,225,0.0001,0.24,0.294,MOVETO_PICKUP,180,-32.04,3,3
1564772532.0902526,225,0.0001,0.24,0.294,MOVETO_PICKUP,180,-33.12,3,3
1564772532.139775,225,0.0001,0.24,0.294,MOVETO_PICKUP,180,-33.12,3,3
1564772532.1996183,225,0.0001,0.24,0.294,MOVETO_PICKUP,180,-34.2,3,3
1564772532.2476096,225,0.0001,0.24,0.294,MOVETO_PICKUP,180,-34.2,3,3
1564772532.2963965,225,0.0001,0.24,0.294,MOVETO_PICKUP,180,-35.28,3,3
1564772532.3421996,225,0.0001,0.24,0.294,MOVETO_PICKUP,180,-35.28,3,3
1564772532.3933716,225,0.0001,0.24,0.294,MOVETO_PICKUP,180,-36.36,3,3
1564772532.4427652,225,0.0001,0.24,0.294,MOVETO_PICKUP,180,-36.36,3,3
1564772532.4918854,225,0.0001,0.24,0.294,MOVETO_PICKUP,180,-37.44,3,3
1564772532.5503669,225,0.0001,0.24,0.294,MOVETO_PICKUP,180,-37.44,3,3
1564772532.597285,225,0.0001,0.24,0.294,MOVETO_PICKUP,180,-38.52,3,3
1564772532.6445568,225,0.0001,0.24,0.294,MOVETO_PICKUP,180,-38.52,3,3
1564772532.6921556,225,0.0001,0.24,0.294,MOVETO_PICKUP,180,-39.6,3,3
1564772532.7424278,225,0.0001,0.24,0.294,MOVETO_PICKUP,180,-39.6,3,3
1564772532.8015828,225,0.0001,0.24,0.294,MOVETO_PICKUP,180,-40.68,3,3
1564772532.848083,225,0.0001,0.24,0.294,MOVETO_PICKUP,180,-40.68,3,3
1564772532.8971007,225,0.0001,0.24,0.294,MOVETO_PICKUP,180,-41.76,3,3
1564772532.946493,225,0.0001,0.24,0.294,MOVETO_PICKUP,180,-41.76,3,3
1564772532.9957342,225,0.0001,0.24,0.294,MOVETO_PICKUP,180,-42.84,3,3
1564772533.0566742,225,0.0001,0.24,0.294,MOVETO_PICKUP,180,-42.84,3,3
1564772533.1050744,225,0.0001,0.24,0.294,MOVETO_PICKUP,180,-43.92,3,3
1564772533.1500561,225,0.0001,0.24,0.294,MOVETO_PICKUP,180,-43.92,3,3
1564772533.2004232,225,0.0001,0.24,0.294,MOVETO_PICKUP,180,-45.0,3,3
1564772533.260153,225,0.0001,0.24,0.294,MOVETO_PICKUP,180,-45.0,3,3
1564772533.3089893,225,0.0001,0.24,0.294,MOVETO_PICKUP,180,-46.08,3,3
1564772533.3546693,225,0.0001,0.24,0.294,MOVETO_PICKUP,180,-46.08,3,3
1564772533.4026608,225,0.0001,0.24,0.294,MOVETO_PICKUP,180,-47.16,3,3
1564772533.4541605,225,0.0001,0.24,0.294,MOVETO_PICKUP,180,-47.16,3,3
1564772533.5033123,225,0.0001,0.24,0.294,MOVETO_PICKUP,180,-48.24,3,3
1564772533.553081,225,0.0001,0.24,0.294,MOVETO_PICKUP,180,-48.24,3,3
1564772533.6116931,225,0.0001,0.24,0.294,MOVETO_PICKUP,180,-49.32,3,3
1564772533.6576295,225,0.0001,0.24,0.294,MOVETO_PICKUP,180,-49.32,3,3
1564772533.7043424,225,0.0001,0.24,0.294,MOVETO_PICKUP,180,-50.4,3,3
1564772533.7527833,225,0.0001,0.24,0.294,MOVETO_PICKUP,180,-50.4,3,3
1564772533.802651,225,0.0001,0.24,0.294,MOVETO_PICKUP,180,-51.48,3,3
1564772533.855598,225,0.0001,0.24,0.294,MOVETO_PICKUP,180,-51.48,3,3
1564772533.904456,225,0.0001,0.24,0.294,MOVETO_PICKUP,180,-52.56,3,3
1564772533.9539738,225,0.0001,0.24,0.294,MOVETO_PICKUP,180,-52.56,3,3
1564772534.0117354,225,0.0001,0.24,0.294,MOVETO_PICKUP,180,-53.64,3,3
1564772534.0570652,225,0.0001,0.24,0.294,MOVETO_PICKUP,180,-53.64,3,3
1564772534.1071415,225,0.0001,0.24,0.294,MOVETO_PICKUP,180,-54.72,3,3
1564772534.154766,225,0.0001,0.24,0.294,MOVETO_PICKUP,180,-54.72,3,3
1564772534.2041454,225,0.0001,0.24,0.294,MOVETO_PICKUP,180,-55.8,3,3
1564772534.256932,225,0.0001,0.24,0.294,MOVETO_PICKUP,180,-55.8,3,3
1564772534.3137012,225,0.0001,0.24,0.294,MOVETO_PICKUP,180,-56.88,3,3
1564772534.3604503,225,0.0001,0.24,0.294,MOVETO_PICKUP,180,-56.88,3,3
1564772534.4091032,225,0.0001,0.24,0.294,MOVETO_PICKUP,180,-57.96,3,3
1564772534.461712,225,0.0001,0.24,0.294,MOVETO_PICKUP,180,-57.96,3,3
1564772534.5109632,225,0.0001,0.24,0.294,MOVETO_PICKUP,180,-59.04,3,3
1564772534.5605104,225,0.0001,0.24,0.294,MOVETO_PICKUP,180,-59.04,3,3
1564772534.6195781,225,0.0001,0.24,0.294,MOVETO_PICKUP,180,-60.12,3,3
1564772534.667369,225,0.0001,0.24,0.294,MOVETO_PICKUP,180,-60.12,3,3
1564772534.7157538,225,0.0001,0.24,0.294,MOVETO_PICKUP,180,-61.2,3,3
1564772534.7653925,225,0.0001,0.24,0.294,MOVETO_PICKUP,180,-61.2,3,3
1564772534.8177943,225,0.0001,0.24,0.294,MOVETO_PICKUP,180,-62.28,3,3
1564772534.8673694,225,0.0001,0.24,0.294,MOVETO_PICKUP,180,-62.28,3,3
1564772534.9257216,225,0.0001,0.24,0.294,MOVETO_PICKUP,180,-63.36,3,3
1564772534.9741402,225,0.0001,0.24,0.294,MOVETO_PICKUP,180,-63.36,3,3
1564772535.0210912,225,0.0001,0.24,0.294,MOVETO_PICKUP,180,-64.44,3,3
1564772535.0721543,225,0.0001,0.24,0.294,MOVETO_PICKUP,180,-64.44,3,3
1564772535.1214697,225,0.0001,0.24,0.294,MOVETO_PICKUP,180,-65.52,3,3
1564772535.1711848,225,0.0001,0.24,0.294,MOVETO_PICKUP,180,-65.52,3,3
1564772535.223548,225,0.0001,0.24,0.294,MOVETO_PICKUP,180,-66.6,3,3
1564772535.280179,225,0.0001,0.24,0.294,MOVETO_PICKUP,180,-66.6,3,3
1564772535.3269713,225,0.0001,0.24,0.294,MOVETO_PICKUP,180,-67.68,3,3
1564772535.37491,225,0.0001,0.24,0.294,MOVETO_PICKUP,180,-67.68,3,3
1564772535.4258373,225,0.0001,0.24,0.294,MOVETO_PICKUP,180,-68.76,3,3
1564772535.4776278,225,0.0001,0.24,0.294,MOVETO_PICKUP,180,-68.76,3,3
1564772535.5271244,225,0.0001,0.24,0.294,MOVETO_PICKUP,180,-69.84,3,3
1564772535.579458,225,0.0001,0.24,0.294,MOVETO_PICKUP,180,-69.84,3,3
1564772535.6379309,225,0.0001,0.24,0.294,MOVETO_PICKUP,180,-70.92,3,3
1564772535.686716,225,0.0001,0.24,0.294,MOVETO_PICKUP,180,-70.92,3,3
1564772535.7348878,225,0.0001,0.24,0.294,MOVETO_PICKUP,180,-72.0,3,3
1564772535.7826083,225,0.0001,0.24,0.294,MOVETO_PICKUP,180,-72.0,3,3
1564772535.8347147,225,0.0001,0.24,0.294,MOVETO_PICKUP,180,-73.08,3,3
1564772535.8832543,225,0.0001,0.24,0.294,MOVETO_PICKUP,180,-73.08,3,3
1564772535.9330864,225,0.0001,0.24,0.294,MOVETO_PICKUP,180,-74.16,3,3
1564772535.9930944,225,0.0001,0.24,0.294,MOVETO_PICKUP,180,-74.16,3,3
1564772536.0428276,225,0.0001,0.24,0.294,MOVETO_PICKUP,180,-75.24,3,3
1564772536.0902128,225,0.0001,0.24,0.294,MOVETO_PICKUP,180,-75.24,3,3
1564772536.1364112,225,0.0001,0.24,0.294,MOVETO_PICKUP,180,-76.32,3,3
1564772536.1860979,225,0.0001,0.24,0.294,MOVETO_PICKUP,180,-76.32,3,3
1564772536.2390046,225,0.0001,0.24,0.294,MOVETO_PICKUP,180,-77.4,3,3
1564772536.2881253,225,0.0001,0.24,0.294,MOVETO_PICKUP,180,-77.4,3,3
1564772536.3381488,225,0.0001,0.24,0.294,MOVETO_PICKUP,180,-78.48,3,3
1564772536.3876715,225,0.0001,0.24,0.294,MOVETO_PICKUP,180,-78.48,3,3
1564772536.4471002,225,0.0001,0.24,0.294,MOVETO_PICKUP,180,-79.56,3,3
1564772536.49568,225,0.0001,0.24,0.294,MOVETO_PICKUP,180,-79.56,3,3
1564772536.5431972,225,0.0001,0.24,0.294,MOVETO_PICKUP,180,-80.64,3,3
1564772536.5934012,225,0.0001,0.24,0.294,MOVETO_PICKUP,180,-80.64,3,3
1564772536.6403825,225,0.0001,0.24,0.294,MOVETO_PICKUP,180,-81.72,3,3
1564772536.691587,225,0.0001,0.24,0.294,MOVETO_PICKUP,180,-81.72,3,3
1564772536.7388558,225,0.0001,0.24,0.294,MOVETO_PICKUP,180,-82.8,3,3
1564772536.7895436,225,0.0001,0.24,0.294,MOVETO_PICKUP,180,-82.8,3,3
1564772536.8412824,225,0.0001,0.24,0.294,MOVETO_PICKUP,180,-83.88,3,3
1564772536.8901494,225,0.0001,0.24,0.294,MOVETO_PICKUP,180,-83.88,3,3
1564772536.9398208,225,0.0001,0.24,0.294,MOVETO_PICKUP,180,-84.96,3,3
1564772536.9894214,225,0.0001,0.24,0.294,MOVETO_PICKUP,180,-84.96,3,3
1564772537.0413957,225,0.0001,0.24,0.294,MOVETO_PICKUP,180,-86.04,3,3
1564772537.0912309,225,0.0001,0.24,0.294,MOVETO_PICKUP,180,-86.04,3,3
1564772537.1488137,225,0.0001,0.24,0.294,MOVETO_PICKUP,180,-87.12,3,3
1564772537.1993759,225,0.0001,0.24,0.294,MOVETO_PICKUP,180,-87.12,3,3
1564772537.2467175,225,0.0001,0.24,0.294,MOVETO_PICKUP,180,-88.2,3,3
1564772537.2960267,225,0.0001,0.24,0.294,MOVETO_PICKUP,180,-88.2,3,3
1564772537.3473954,225,0.0001,0.24,0.294,MOVETO_PICKUP,180,-89.28,3,3
1564772537.396288,225,0.0001,0.24,0.294,MOVETO_PICKUP,180,-89.28,3,3
1564772537.4476058,225,0.0001,0.24,0.294,MOVETO_PICKUP,180,-90.36,3,3
1564772537.4965332,225,0.0001,0.24,0.294,MOVETO_PICKUP,180,-90.36,3,3
1564772537.54551,225,0.0001,0.24,0.294,MOVETO_PICKUP,180,-91.44,3,3
1564772537.6152847,225,0.0001,0.24,0.294,MOVETO_PICKUP,180,-91.44,3,3
1564772537.6518488,225,0.0001,0.24,0.294,MOVETO_PICKUP,180,-92.52,3,3
1564772537.7038844,225,0.0001,0.24,0.294,MOVETO_PICKUP,180,-92.52,3,3
1564772537.7537253,225,0.0001,0.24,0.294,MOVETO_PICKUP,180,-93.6,3,3
1564772537.804053,225,0.0001,0.24,0.294,MOVETO_PICKUP,180,-93.6,3,3
1564772537.8534782,225,0.0001,0.24,0.294,MOVETO_PICKUP,180,-94.68,3,3
1564772537.9047534,225,0.0001,0.24,0.294,MOVETO_PICKUP,180,-94.68,3,3
1564772537.9524636,225,0.0001,0.24,0.294,MOVETO_PICKUP,180,-95.76,3,3
1564772538.0024495,225,0.0001,0.24,0.294,MOVETO_PICKUP,180,-95.76,3,3
1564772538.0536578,225,0.0001,0.24,0.294,MOVETO_PICKUP,180,-96.84,3,3
1564772538.1030405,225,0.0001,0.24,0.294,MOVETO_PICKUP,180,-96.84,3,3
1564772538.1525562,225,0.0001,0.24,0.294,MOVETO_PICKUP,180,-97.92,3,3
1564772538.202806,225,0.0001,0.24,0.294,MOVETO_PICKUP,180,-97.92,3,3
1564772538.2517328,225,0.0001,0.24,0.294,MOVETO_PICKUP,180,-99.0,3,3
1564772538.3017929,225,0.0001,0.24,0.294,MOVETO_PICKUP,180,-99.0,3,3
1564772538.349395,225,0.0001,0.24,0.294,MOVETO_PICKUP,180,-100.0,3,3
1564772538.4021137,225,0.0001,0.24,0.294,MOVETO_PICKUP,180,-100.0,3,3
1564772538.4509087,225,0.0001,0.24,0.294,MOVETO_PICKUP,180,-100.0,3,3
1564772538.5019624,225,0.0001,0.24,0.294,MOVETO_PICKUP,180,-100.0,3,3
1564772538.5507464,225,0.0001,0.24,0.294,MOVETO_PICKUP,180,-100.0,3,3
1564772538.6025677,225,0.0001,0.24,0.294,MOVETO_PICKUP,180,-100.0,3,3
1564772538.6514473,225,0.0001,0.24,0.294,MOVETO_PICKUP,180,-100.0,3,3
1564772538.7012544,225,0.0001,0.24,0.294,MOVETO_PICKUP,180,-100.0,3,3
1564772538.754224,225,0.0001,0.24,0.294,MOVETO_PICKUP,180,-100.0,3,3
1564772538.8032126,225,0.0001,0.24,0.294,MOVETO_PICKUP,180,-100.0,3,3
1564772538.852609,225,0.0001,0.24,0.294,MOVETO_PICKUP,180,-100.0,3,3
1564772538.9025226,225,0.0001,0.24,0.294,MOVETO_PICKUP,180,-100.0,3,3
1564772538.9621627,225,0.0001,0.24,0.294,MOVETO_PICKUP,180,-100.0,3,3
1564772539.0130234,225,0.0001,0.24,0.294,MOVETO_PICKUP,180,-100.0,3,3
1564772539.0623639,225,0.0001,0.24,0.294,MOVETO_PICKUP,180,-100.0,3,3
1564772539.111911,225,0.0001,0.24,0.294,MOVETO_PICKUP,180,-100.0,3,3
1564772539.1623886,225,0.0001,0.24,0.294,MOVETO_PICKUP,180,-100.0,3,3
1564772539.2123005,225,0.0001,0.24,0.294,MOVETO_PICKUP,180,-100.0,3,3
1564772539.2611353,225,0.0001,0.24,0.294,MOVETO_PICKUP,180,-100.0,3,3
1564772539.3094285,225,0.0001,0.24,0.294,MOVETO_PICKUP,180,-100.0,3,3
1564772539.3589814,225,0.0001,0.24,0.294,MOVETO_PICKUP,180,-100.0,3,3
1564772539.4119813,225,0.0001,0.24,0.294,MOVETO_PICKUP,180,-100.0,3,3
1564772539.4607894,225,0.0001,0.24,0.294,MOVETO_PICKUP,180,-100.0,3,3
1564772539.5257213,225,0.0001,0.24,0.294,MOVETO_PICKUP,180,-100.0,3,3
1564772539.5573943,225,0.0001,0.24,0.294,MOVETO_PICKUP,180,-100.0,3,3
1564772539.6066751,225,0.0001,0.24,0.294,MOVETO_PICKUP,180,-100.0,3,3
1564772539.6590123,225,0.0001,0.24,0.294,MOVETO_PICKUP,180,-100.0,3,3
1564772539.7083542,225,0.0001,0.24,0.294,MOVETO_PICKUP,180,-100.0,3,3
1564772539.7580287,225,0.0001,0.24,0.294,MOVETO_PICKUP,180,-100.0,3,3
1564772539.8071132,225,0.0001,0.24,0.294,MOVETO_PICKUP,180,-100.0,3,3
1564772539.860122,225,0.0001,0.24,0.294,MOVETO_PICKUP,180,-100.0,3,3
1564772539.9093187,225,0.0001,0.24,0.294,MOVETO_PICKUP,180,-100.0,3,3
1564772539.9592307,225,0.0001,0.24,0.294,MOVETO_PICKUP,180,-100.0,3,3
1564772540.011392,225,0.0001,0.24,0.294,MOVETO_PICKUP,180,-100.0,3,3
1564772540.0610025,225,0.0001,0.24,0.294,MOVETO_PICKUP,180,-100.0,3,3
1564772540.1102111,225,0.0001,0.24,0.294,MOVETO_PICKUP,180,-100.0,3,3
1564772540.159657,225,0.0001,0.24,0.294,MOVETO_PICKUP,180,-100.0,3,3
1564772540.2122073,225,0.0001,0.24,0.294,MOVETO_PICKUP,180,-100.0,3,3
1564772540.2613595,225,0.0001,0.24,0.294,MOVETO_PICKUP,180,-100.0,3,3
1564772540.3105612,225,0.0001,0.24,0.294,MOVETO_PICKUP,180,-100.0,3,3
1564772540.3636312,225,0.0001,0.24,0.294,MOVETO_PICKUP,180,-100.0,3,3
1564772540.4129548,225,0.0001,0.24,0.294,MOVETO_PICKUP,180,-100.0,3,3
1564772540.462603,225,0.0001,0.24,0.294,MOVETO_PICKUP,180,-100.0,3,3
1564772540.5121984,225,0.0001,0.24,0.294,MOVETO_PICKUP,180,-100.0,3,3
1564772540.5639372,225,0.0001,0.24,0.294,MOVETO_PICKUP,180,-100.0,3,3
1564772540.6136947,225,0.0001,0.24,0.294,MOVETO_PICKUP,180,-100.0,3,3
1564772540.663723,225,0.0001,0.24,0.294,MOVETO_PICKUP,180,-100.0,3,3
1564772540.7256489,225,0.0001,0.24,0.294,MOVETO_PICKUP,180,-100.0,3,3
1564772540.7657814,225,0.0001,0.24,0.294,MOVETO_PICKUP,180,-100.0,3,3
1564772540.8143482,225,0.0001,0.24,0.294,MOVETO_PICKUP,180,-100.0,3,3
1564772540.8641527,225,0.0001,0.24,0.294,MOVETO_PICKUP,180,-100.0,3,3
1564772540.9166768,225,0.0001,0.24,0.294,MOVETO_PICKUP,180,-100.0,3,3
1564772540.9665883,225,0.0001,0.24,0.294,MOVETO_PICKUP,180,-100.0,3,3
1564772541.0154932,225,0.0001,0.24,0.294,MOVETO_PICKUP,180,-100.0,3,3
1564772541.0677066,225,0.0001,0.24,0.294,MOVETO_PICKUP,180,-100.0,3,3
1564772541.1179886,225,0.0001,0.24,0.294,MOVETO_PICKUP,180,-100.0,3,3
1564772541.1662965,225,0.0001,0.24,0.294,MOVETO_PICKUP,180,-100.0,3,3
1564772541.216018,225,0.0001,0.24,0.294,MOVETO_PICKUP,180,-100.0,3,3
1564772541.2688043,225,0.0001,0.24,0.294,MOVETO_PICKUP,180,-100.0,3,3
1564772541.3181126,225,0.0001,0.24,0.294,MOVETO_PICKUP,180,-100.0,3,3
1564772541.3679626,225,0.0001,0.24,0.294,MOVETO_PICKUP,180,-100.0,3,3
1564772541.4204469,225,0.0001,0.24,0.294,MOVETO_PICKUP,180,-100.0,3,3
1564772541.4692094,225,0.0001,0.24,0.294,MOVETO_PICKUP,180,-100.0,3,3
1564772541.5202665,225,0.0001,0.24,0.294,MOVETO_PICKUP,180,-100.0,3,3
1564772541.574081,225,0.0001,0.24,0.294,MOVETO_PICKUP,180,-100.0,3,3
1564772541.6275136,225,0.0001,0.24,0.294,MOVETO_PICKUP,180,-100.0,3,3
1564772541.6798522,225,0.0001,0.24,0.294,MOVETO_PICKUP,180,-100.0,3,3
1564772541.7304602,225,0.0001,0.24,0.294,MOVETO_PICKUP,180,-100.0,3,3
1564772541.7798645,225,0.0001,0.24,0.294,MOVETO_PICKUP,180,-100.0,3,3
1564772541.8309534,225,0.0001,0.24,0.294,MOVETO_PICKUP,180,-100.0,3,3
1564772541.8808603,225,0.0001,0.24,0.294,MOVETO_PICKUP,180,-100.0,3,3
1564772541.9206326,225,0.0001,0.24,0.294,MOVETO_PICKUP,180,-100.0,3,3
1564772541.9726532,225,0.0001,0.24,0.294,MOVETO_PICKUP,180,-100.0,3,3
1564772542.0226285,225,0.0001,0.24,0.294,MOVETO_PICKUP,180,-100.0,3,3
1564772542.0717745,225,0.0001,0.24,0.294,MOVETO_PICKUP,180,-100.0,3,3
1564772542.124167,225,0.0001,0.24,0.294,MOVETO_PICKUP,180,-100.0,3,3
1564772542.1734529,225,0.0001,0.24,0.294,MOVETO_PICKUP,180,-100.0,3,3
1564772542.223553,225,0.0001,0.24,0.294,MOVETO_PICKUP,180,-100.0,3,3
1564772542.2732892,225,0.0001,0.24,0.294,MOVETO_PICKUP,180,-100.0,3,3
1564772542.3250887,225,0.0001,0.24,0.294,MOVETO_PICKUP,180,-100.0,3,3
1564772542.3753266,225,0.0001,0.24,0.294,MOVETO_PICKUP,180,-100.0,3,3
1564772542.423779,225,0.0001,0.24,0.294,MOVETO_PICKUP,180,-100.0,3,3
1564772542.477821,225,0.0001,0.24,0.294,MOVETO_PICKUP,180,-100.0,3,3
1564772542.5268443,225,0.0001,0.24,0.294,MOVETO_PICKUP,180,-100.0,3,3
1564772542.5772479,225,0.0001,0.24,0.294,MOVETO_PICKUP,180,-100.0,3,3
1564772542.628763,225,0.0001,0.24,0.294,MOVETO_PICKUP,180,-100.0,3,3
1564772542.682105,225,0.0001,0.24,0.294,MOVETO_PICKUP,180,-100.0,3,3
1564772542.7335186,225,0.0001,0.24,0.294,MOVETO_PICKUP,180,-100.0,3,3
1564772542.785506,225,0.0001,0.24,0.294,MOVETO_PICKUP,180,-100.0,3,3
1564772542.8349335,225,0.0001,0.24,0.294,MOVETO_PICKUP,180,-100.0,3,3
1564772542.8786023,225,0.0001,0.24,0.294,MOVETO_PICKUP,180,-100.0,3,3
1564772542.928458,225,0.0001,0.24,0.294,MOVETO_PICKUP,180,-100.0,3,3
1564772542.977603,225,0.0001,0.24,0.294,MOVETO_PICKUP,180,-100.0,3,3
1564772543.0300276,225,0.0001,0.24,0.294,MOVETO_PICKUP,180,-100.0,3,3
1564772543.0786493,225,0.0001,0.24,0.294,MOVETO_PICKUP,180,-100.0,3,3
1564772543.1354733,225,0.0001,0.24,0.294,MOVETO_PICKUP,180,-100.0,3,3
1564772543.1865807,225,0.0001,0.24,0.294,MOVETO_PICKUP,180,-100.0,3,3
1564772543.2415512,225,0.0001,0.24,0.294,MOVETO_PICKUP,180,-100.0,3,3
1564772543.27992,225,0.0001,0.24,0.294,MOVETO_PICKUP,180,-100.0,3,3
1564772543.3298304,225,0.0001,0.24,0.294,MOVETO_PICKUP,180,-100.0,3,3
1564772543.3820777,225,0.0001,0.24,0.294,MOVETO_PICKUP,180,-100.0,3,3
1564772543.4315398,225,0.0001,0.24,0.294,MOVETO_PICKUP,180,-100.0,3,3
1564772543.4812489,225,0.0001,0.24,0.294,MOVETO_PICKUP,180,-100.0,3,3
1564772543.5396,225,0.0001,0.24,0.294,MOVETO_PICKUP,180,-100.0,3,3
1564772543.5934887,225,0.0001,0.24,0.294,MOVETO_PICKUP,180,-100.0,3,3
1564772543.6451604,225,0.0001,0.24,0.294,MOVETO_PICKUP,180,-100.0,3,3
1564772543.682255,225,0.0001,0.24,0.294,MOVETO_PICKUP,180,-100.0,3,3
1564772543.7344282,225,0.0001,0.24,0.294,MOVETO_PICKUP,180,-100.0,3,3
1564772543.783617,225,0.0001,0.24,0.294,MOVETO_PICKUP,180,-100.0,3,3
1564772543.832898,225,0.0001,0.24,0.294,MOVETO_PICKUP,180,-100.0,3,3
1564772543.8839486,225,0.0001,0.24,0.294,MOVETO_PICKUP,180,-100.0,3,3
1564772543.9367306,225,0.0001,0.24,0.294,MOVETO_PICKUP,180,-100.0,3,3
1564772543.9849994,225,0.0001,0.24,0.294,MOVETO_PICKUP,180,-100.0,3,3
1564772544.0408118,225,0.0001,0.24,0.294,MOVETO_PICKUP,180,-100.0,3,3
1564772544.095008,225,0.0001,0.24,0.294,MOVETO_PICKUP,180,-100.0,3,3
1564772544.1358473,225,0.0001,0.24,0.294,MOVETO_PICKUP,180,-100.0,3,3
1564772544.184864,225,0.0001,0.24,0.294,MOVETO_PICKUP,180,-100.0,3,3
1564772544.2355428,225,0.0001,0.24,0.294,MOVETO_PICKUP,180,-100.0,3,3
1564772544.2902277,225,0.0001,0.24,0.294,MOVETO_PICKUP,180,-100.0,3,3
1564772544.3422172,225,0.0001,0.24,0.294,MOVETO_PICKUP,180,-100.0,3,3
1564772544.3930163,225,0.0001,0.24,0.294,MOVETO_PICKUP,180,-100.0,3,3
1564772544.4488554,225,0.0001,0.24,0.294,MOVETO_PICKUP,180,-100.0,3,3
1564772544.487661,225,0.0001,0.24,0.294,MOVETO_PICKUP,180,-100.0,3,3
1564772544.5379267,225,0.0001,0.24,0.294,MOVETO_PICKUP,180,-100.0,3,3
1564772544.5875945,225,0.0001,0.24,0.294,MOVETO_PICKUP,180,-100.0,3,3
1564772544.6394565,225,0.0001,0.24,0.294,MOVETO_PICKUP,180,-100.0,3,3
1564772544.6901374,225,0.0001,0.24,0.294,MOVETO_PICKUP,180,-100.0,3,3
1564772544.7424386,225,0.0001,0.24,0.294,MOVETO_PICKUP,180,-100.0,3,3
1564772544.7935421,225,0.0001,0.24,0.294,MOVETO_PICKUP,180,-100.0,3,3
1564772544.8455563,225,0.0001,0.24,0.294,MOVETO_PICKUP,180,-100.0,3,3
1564772544.8980453,225,0.0001,0.24,0.294,MOVETO_PICKUP,180,-100.0,3,3
1564772544.954001,225,0.0001,0.24,0.294,MOVETO_PICKUP,180,-100.0,3,3
1564772544.9919562,225,0.0001,0.24,0.294,MOVETO_PICKUP,180,-100.0,3,3
1564772545.0406907,225,0.0001,0.24,0.294,MOVETO_PICKUP,180,-100.0,3,3
1564772545.0905323,225,0.0001,0.24,0.294,MOVETO_PICKUP,180,-100.0,3,3
1564772545.1434035,225,0.0001,0.24,0.294,MOVETO_PICKUP,180,-100.0,3,3
1564772545.1929774,224,0.0001,0.24,0.294,MOVETO_PICKUP,180,-100.0,3,3
1564772545.2506475,224,0.0001,0.24,0.294,MOVETO_PICKUP,180,-100.0,3,3
1564772545.3041623,224,0.0001,0.24,0.294,MOVETO_PICKUP,180,-97.06,3,3
1564772545.359302,224,0.0001,0.24,0.294,MOVETO_PICKUP,180,-97.06,3,3
1564772545.3933067,223,0.0001,0.24,0.294,MOVETO_PICKUP,180,-97.06,3,3
1564772545.4479895,223,0.0001,0.24,0.294,MOVETO_PICKUP,180,-97.06,3,3
1564772545.504456,223,0.0001,0.24,0.294,MOVETO_PICKUP,180,-100.0,3,3
1564772545.544274,223,0.0001,0.24,0.294,MOVETO_PICKUP,180,-100.0,3,3
1564772545.5942678,222,0.0001,0.24,0.294,MOVETO_PICKUP,180,-100.0,3,3
1564772545.643547,218,0.0001,0.24,0.294,MOVETO_PICKUP,180,-100.0,3,3
1564772545.6962144,210,0.0001,0.24,0.294,MOVETO_PICKUP,180,-79.42,3,3
1564772545.7469773,198,0.0001,0.24,0.294,MOVETO_PICKUP,180,-79.42,3,3
1564772545.8031375,183,0.0001,0.24,0.294,MOVETO_PICKUP,180,-38.26,3,3
1564772545.8592107,167,0.0001,0.24,0.294,MOVETO_PICKUP,180,-38.26,3,3
1564772545.8976796,155,0.0001,0.24,0.294,MOVETO_PICKUP,180,-8.47,3,3
1564772545.9504435,149,0.0001,0.24,0.294,MOVETO_PICKUP,180,-8.47,3,3
1564772546.0002487,148,0.0001,0.24,0.294,MOVETO_PICKUP,180,-54.77,3,3
1564772546.052746,150,0.0001,0.24,0.294,MOVETO_PICKUP,180,-54.77,3,3
1564772546.103413,151,0.0001,0.24,0.294,MOVETO_PICKUP,180,-100.0,3,3
1564772546.1554153,154,0.0001,0.24,0.294,MOVETO_PICKUP,180,-100.0,3,3
1564772546.2075007,156,0.0001,0.24,0.294,MOVETO_PICKUP,180,-100.0,3,3
1564772546.259661,158,0.0001,0.24,0.294,MOVETO_PICKUP,180,-100.0,3,3
1564772546.31261,160,0.0001,0.24,0.294,MOVETO_PICKUP,180,-100.0,3,3
1564772546.3667088,162,0.0001,0.24,0.294,MOVETO_PICKUP,180,-100.0,3,3
1564772546.419144,163,0.0001,0.24,0.294,MOVETO_PICKUP,180,-100.0,3,3
1564772546.4589033,164,0.0001,0.24,0.294,MOVETO_PICKUP,180,-100.0,3,3
1564772546.5082304,166,0.0001,0.24,0.294,MOVETO_PICKUP,180,-100.0,3,3
1564772546.5599818,166,0.0001,0.24,0.294,MOVETO_PICKUP,180,-100.0,3,3
1564772546.609633,166,0.0001,0.24,0.294,MOVETO_PICKUP,180,-98.81,3,3
1564772546.6621392,166,0.0001,0.24,0.294,MOVETO_PICKUP,180,-98.81,3,3
1564772546.7220101,165,0.0001,0.24,0.294,MOVETO_PICKUP,180,-95.53,3,3
1564772546.7617455,165,0.0001,0.24,0.294,MOVETO_PICKUP,180,-95.53,3,3
1564772546.8112965,164,0.0001,0.24,0.294,MOVETO_PICKUP,180,-92.23,3,3
1564772546.8606672,165,0.0001,0.24,0.294,MOVETO_PICKUP,180,-92.23,3,3
1564772546.9165528,165,0.0001,0.24,0.294,MOVETO_PICKUP,180,-94.81,3,3
1564772546.9735682,165,0.0001,0.24,0.294,MOVETO_PICKUP,180,-94.81,3,3
1564772547.0117261,164,0.0001,0.24,0.294,MOVETO_PICKUP,180,-94.45,3,3
1564772547.0655816,164,0.0001,0.24,0.294,MOVETO_PICKUP,180,-94.45,3,3
1564772547.1196363,164,0.0001,0.24,0.294,MOVETO_PICKUP,180,-91.13,3,3
1564772547.1757627,164,0.0001,0.24,0.294,MOVETO_PICKUP,180,-93.69,3,3
1564772547.2289827,164,0.0001,0.24,0.294,MOVETO_PICKUP,180,-93.69,3,3
1564772547.2829328,164,0.0001,0.24,0.294,MOVETO_PICKUP,180,-93.3,3,3
1564772547.337441,164,0.0001,0.24,0.294,MOVETO_PICKUP,180,-93.3,3,3
1564772547.375099,164,0.0001,0.24,0.294,MOVETO_PICKUP,180,-92.92,3,3
1564772547.424547,164,0.0001,0.24,0.294,MOVETO_PICKUP,180,-92.92,3,3
1564772547.4766133,164,0.0001,0.24,0.294,MOVETO_PICKUP,180,-92.53,3,3
1564772547.5384502,164,0.0001,0.24,0.294,MOVETO_PICKUP,180,-92.53,3,3
1564772547.576264,164,0.0001,0.24,0.294,MOVETO_PICKUP,180,-92.15,3,3
1564772547.625679,164,0.0001,0.24,0.294,MOVETO_PICKUP,180,-92.15,3,3
1564772547.674882,164,0.0001,0.24,0.294,MOVETO_PICKUP,180,-91.77,3,3
1564772547.7303495,164,0.0001,0.24,0.294,MOVETO_PICKUP,180,-91.77,3,3
1564772547.783824,164,0.0001,0.24,0.294,MOVETO_PICKUP,180,-91.38,3,3
1564772547.8375154,164,0.0001,0.24,0.294,MOVETO_PICKUP,180,-91.38,3,3
1564772547.8994386,164,0.0001,0.24,0.294,MOVETO_PICKUP,180,-91.0,3,3
1564772547.9363241,165,0.0001,0.24,0.294,MOVETO_PICKUP,180,-91.0,3,3
1564772547.9860873,165,0.0001,0.24,0.294,MOVETO_PICKUP,180,-93.58,3,3
1564772548.039794,165,0.0001,0.24,0.294,MOVETO_PICKUP,180,-93.58,3,3
1564772548.0949914,165,0.0001,0.24,0.294,MOVETO_PICKUP,180,-90.28,3,3
1564772548.1342635,165,0.0001,0.24,0.294,MOVETO_PICKUP,180,-90.28,3,3
1564772548.186433,165,0.0001,0.24,0.294,MOVETO_PICKUP,180,-89.92,3,3
1564772548.2445745,165,0.0001,0.24,0.294,MOVETO_PICKUP,180,-89.92,3,3
1564772548.2987473,165,0.0001,0.24,0.294,MOVETO_PICKUP,180,-89.56,3,3
1564772548.337392,165,0.0001,0.24,0.294,MOVETO_PICKUP,180,-89.56,3,3
1564772548.3876705,165,0.0001,0.24,0.294,MOVETO_PICKUP,180,-89.2,3,3
1564772548.4403565,165,0.0001,0.24,0.294,MOVETO_PICKUP,180,-89.2,3,3
1564772548.495137,165,0.0001,0.24,0.294,MOVETO_PICKUP,180,-88.84,3,3
1564772548.5514386,165,0.0001,0.24,0.294,MOVETO_PICKUP,180,-88.84,3,3
1564772548.591925,165,0.0001,0.24,0.294,MOVETO_PICKUP,180,-88.48,3,3
1564772548.6407328,165,0.0001,0.24,0.294,MOVETO_PICKUP,180,-88.48,3,3
1564772548.6905334,165,0.0001,0.24,0.294,MOVETO_PICKUP,180,-88.12,3,3
1564772548.7414076,165,0.0001,0.24,0.294,MOVETO_PICKUP,180,-88.12,3,3
1564772548.7955012,165,0.0001,0.24,0.294,MOVETO_PICKUP,180,-87.76,3,3
1564772548.850386,165,0.0001,0.24,0.294,MOVETO_PICKUP,180,-87.76,3,3
1564772548.908031,165,0.0001,0.24,0.294,MOVETO_PICKUP,180,-87.4,3,3
1564772548.9480798,165,0.0001,0.24,0.294,MOVETO_PICKUP,180,-87.4,3,3
1564772548.9974773,165,0.0001,0.24,0.294,MOVETO_PICKUP,180,-87.04,3,3
1564772549.0503736,165,0.0001,0.24,0.294,MOVETO_PICKUP,180,-87.04,3,3
1564772549.101241,165,0.0001,0.24,0.294,MOVETO_PICKUP,180,-86.68,3,3
1564772549.1580927,165,0.0001,0.24,0.294,MOVETO_PICKUP,180,-86.68,3,3
1564772549.198426,165,0.0001,0.24,0.294,MOVETO_PICKUP,180,-86.32,3,3
1564772549.2485638,165,0.0001,0.24,0.294,MOVETO_PICKUP,180,-86.32,3,3
1564772549.3002307,165,0.0001,0.24,0.294,MOVETO_PICKUP,180,-85.96,3,3
1564772549.354906,165,0.0001,0.24,0.294,MOVETO_PICKUP,180,-85.96,3,3
1564772549.4104524,165,0.0001,0.24,0.294,MOVETO_PICKUP,180,-85.6,3,3
1564772549.4521282,165,0.0001,0.24,0.294,MOVETO_PICKUP,180,-85.6,3,3
1564772549.5031633,165,0.0001,0.24,0.294,MOVETO_PICKUP,180,-85.24,3,3
1564772549.5596206,165,0.0001,0.24,0.294,MOVETO_PICKUP,180,-85.24,3,3
1564772549.6180563,165,0.0001,0.24,0.294,MOVETO_PICKUP,180,-84.88,3,3
1564772549.652431,165,0.0001,0.24,0.294,MOVETO_PICKUP,180,-84.88,3,3
1564772549.711397,165,0.0001,0.24,0.294,MOVETO_PICKUP,180,-84.52,3,3
1564772549.767125,165,0.0001,0.24,0.294,MOVETO_PICKUP,180,-84.52,3,3
1564772549.8080747,165,0.0001,0.24,0.294,MOVETO_PICKUP,180,-84.16,3,3
1564772549.8590963,165,0.0001,0.24,0.294,MOVETO_PICKUP,180,-84.16,3,3
1564772549.9093838,165,0.0001,0.24,0.294,MOVETO_PICKUP,180,-83.8,3,3
1564772549.9657009,165,0.0001,0.24,0.294,MOVETO_PICKUP,180,-83.8,3,3
1564772550.0210595,165,0.0001,0.24,0.294,MOVETO_PICKUP,180,-83.44,3,3
1564772550.058886,165,0.0001,0.24,0.294,MOVETO_PICKUP,180,-83.44,3,3
1564772550.1099207,165,0.0001,0.24,0.294,MOVETO_PICKUP,180,-83.08,3,3
1564772550.1696875,162,0.0001,0.24,0.294,MOVETO_PICKUP,180,-83.08,3,3
1564772550.2101557,158,0.0001,0.24,0.294,MOVETO_PICKUP,180,-67.9,3,3
1564772550.2597291,152,0.0001,0.24,0.294,MOVETO_PICKUP,180,-67.9,3,3
1564772550.312143,146,0.0001,0.24,0.294,MOVETO_PICKUP,180,-46.55,3,3
1564772550.3715856,142,0.0001,0.24,0.294,MOVETO_PICKUP,180,-46.55,3,3
1564772550.4105246,141,0.0001,0.24,0.294,MOVETO_PICKUP,180,-60.31,3,3
1564772550.463627,141,0.0001,0.24,0.294,MOVETO_PICKUP,180,-60.31,3,3
1564772550.5185049,143,0.0001,0.24,0.294,MOVETO_PICKUP,180,-82.92,3,3
1564772550.577274,145,0.0001,0.24,0.294,MOVETO_PICKUP,180,-82.92,3,3
1564772550.6150334,146,0.0001,0.24,0.294,MOVETO_PICKUP,180,-90.92,3,3
1564772550.6684773,147,0.0001,0.24,0.294,MOVETO_PICKUP,180,-90.92,3,3
1564772550.7184947,150,0.0001,0.24,0.294,MOVETO_PICKUP,180,-84.28,3,3
1564772550.774368,152,0.0001,0.24,0.294,MOVETO_PICKUP,180,-84.28,3,3
1564772550.8295553,153,0.0001,0.24,0.294,MOVETO_PICKUP,180,-92.45,3,3
1564772550.8695927,154,0.0001,0.24,0.294,MOVETO_PICKUP,180,-92.45,3,3
1564772550.9219594,157,0.0001,0.24,0.294,MOVETO_PICKUP,180,-83.03,3,3
1564772550.9761384,159,0.0001,0.24,0.294,MOVETO_PICKUP,180,-83.03,3,3
1564772551.0354733,160,0.0001,0.24,0.294,MOVETO_PICKUP,180,-91.37,3,3
1564772551.0737264,161,0.0001,0.24,0.294,MOVETO_PICKUP,180,-91.37,3,3
1564772551.1257305,164,0.0001,0.24,0.294,MOVETO_PICKUP,180,-82.12,3,3
1564772551.1800203,165,0.0001,0.24,0.294,MOVETO_PICKUP,180,-82.12,3,3
1564772551.2358112,165,0.0001,0.24,0.294,MOVETO_PICKUP,180,-84.7,3,3
1564772551.2755532,163,0.0001,0.24,0.294,MOVETO_PICKUP,180,-84.7,3,3
1564772551.3275595,158,0.0001,0.24,0.294,MOVETO_PICKUP,180,-60.7,3,3
1564772551.3777497,152,0.0001,0.24,0.294,MOVETO_PICKUP,180,-60.7,3,3
1564772551.4344172,145,0.0001,0.24,0.294,MOVETO_PICKUP,180,-39.35,3,3
1564772551.489606,141,0.0001,0.24,0.294,MOVETO_PICKUP,180,-39.35,3,3
1564772551.5295334,139,0.0001,0.24,0.294,MOVETO_PICKUP,180,-47.18,3,3
1564772551.5815196,139,0.0001,0.24,0.294,MOVETO_PICKUP,180,-47.18,3,3
1564772551.6343668,141,0.0001,0.24,0.294,MOVETO_PICKUP,180,-75.62,3,3
1564772551.6889894,144,0.0001,0.24,0.294,MOVETO_PICKUP,180,-75.62,3,3
1564772551.7494369,146,0.0001,0.24,0.294,MOVETO_PICKUP,180,-89.51,3,3
1564772551.7826216,149,0.0001,0.24,0.294,MOVETO_PICKUP,180,-89.51,3,3
1564772551.8388186,153,0.0001,0.24,0.294,MOVETO_PICKUP,180,-82.91,3,3
1564772551.8916905,156,0.0001,0.24,0.294,MOVETO_PICKUP,180,-82.91,3,3
1564772551.9493172,157,0.0001,0.24,0.294,MOVETO_PICKUP,180,-91.18,3,3
1564772552.0019426,160,0.0001,0.24,0.294,MOVETO_PICKUP,180,-91.18,3,3
1564772552.0403826,164,0.0001,0.24,0.294,MOVETO_PICKUP,180,-81.9,3,3
1564772552.0928564,166,0.0001,0.24,0.294,MOVETO_PICKUP,180,-81.9,3,3
1564772552.149546,169,0.0001,0.24,0.294,MOVETO_PICKUP,180,-87.47,3,3
1564772552.2057128,170,0.0001,0.24,0.294,MOVETO_PICKUP,180,-87.47,3,3
1564772552.2453394,172,0.0001,0.24,0.294,MOVETO_PICKUP,180,-78.41,3,3
1564772552.2943237,173,0.0001,0.24,0.294,MOVETO_PICKUP,180,-78.41,3,3
1564772552.347789,174,0.0001,0.24,0.294,MOVETO_PICKUP,180,-78.24,3,3
1564772552.407031,174,0.0001,0.24,0.294,MOVETO_PICKUP,180,-78.24,3,3
1564772552.464693,174,0.0001,0.24,0.294,MOVETO_PICKUP,180,-72.22,3,3
1564772552.499634,174,0.0001,0.24,0.294,MOVETO_PICKUP,180,-72.22,3,3
1564772552.553118,174,0.0001,0.24,0.294,MOVETO_PICKUP,180,-69.14,3,3
1564772552.6242878,175,0.0001,0.24,0.294,MOVETO_PICKUP,180,-69.14,3,3
1564772552.655238,176,0.0001,0.24,0.294,MOVETO_PICKUP,180,-71.96,3,3
1564772552.7116659,178,0.0001,0.24,0.294,MOVETO_PICKUP,180,-71.96,3,3
1564772552.7705512,180,0.0001,0.24,0.294,MOVETO_PICKUP,180,-77.79,3,3
1564772552.8064804,181,0.0001,0.24,0.294,MOVETO_PICKUP,180,-77.79,3,3
1564772552.8558366,182,0.0001,0.24,0.294,MOVETO_PICKUP,180,-77.81,3,3
1564772552.911718,184,0.0001,0.24,0.294,MOVETO_PICKUP,180,-77.81,3,3
1564772552.969093,185,0.0001,0.24,0.294,MOVETO_PICKUP,180,-77.91,3,3
1564772553.0114088,186,0.0001,0.24,0.294,MOVETO_PICKUP,180,-77.91,3,3
1564772553.061858,186,0.0001,0.24,0.294,MOVETO_PICKUP,180,-75.11,3,3
1564772553.123559,186,0.0001,0.24,0.294,MOVETO_PICKUP,180,-75.11,3,3
1564772553.1597211,186,0.0001,0.24,0.294,MOVETO_PICKUP,180,-69.38,3,3
1564772553.2117515,186,0.0001,0.24,0.294,MOVETO_PICKUP,180,-69.38,3,3
1564772553.272419,186,0.0001,0.24,0.294,MOVETO_PICKUP,180,-69.52,3,3
1564772553.3146133,186,0.0001,0.24,0.294,MOVETO_PICKUP,180,-69.52,3,3
1564772553.3653724,186,0.0001,0.24,0.294,MOVETO_PICKUP,180,-69.66,3,3
1564772553.4179351,186,0.0001,0.24,0.294,MOVETO_PICKUP,180,-69.66,3,3
1564772553.4749873,186,0.0001,0.24,0.294,MOVETO_PICKUP,180,-69.81,3,3
1564772553.5156677,184,0.0001,0.24,0.294,MOVETO_PICKUP,180,-69.81,3,3
1564772553.5683627,183,0.0001,0.24,0.294,MOVETO_PICKUP,180,-64.02,3,3
1564772553.6201448,180,0.0001,0.24,0.294,MOVETO_PICKUP,180,-64.02,3,3
1564772553.6769676,178,0.0001,0.24,0.294,MOVETO_PICKUP,180,-55.18,3,3
1564772553.7370033,177,0.0001,0.24,0.294,MOVETO_PICKUP,180,-55.18,3,3
1564772553.7727187,176,0.0001,0.24,0.294,MOVETO_PICKUP,180,-63.93,3,3
1564772553.8227067,175,0.0001,0.24,0.294,MOVETO_PICKUP,180,-63.93,3,3
1564772553.88031,175,0.0001,0.24,0.294,MOVETO_PICKUP,180,-63.81,3,3
1564772553.9397292,178,0.0001,0.24,0.294,MOVETO_PICKUP,180,-63.81,3,3
1564772553.9779637,181,0.0001,0.24,0.294,MOVETO_PICKUP,180,-81.42,3,3
1564772554.0275586,185,0.0001,0.24,0.294,MOVETO_PICKUP,180,-81.42,3,3
1564772554.0882502,190,0.0001,0.24,0.294,MOVETO_PICKUP,180,-93.35,3,3
1564772554.1260781,194,0.0001,0.24,0.294,MOVETO_PICKUP,180,-93.35,3,3
1564772554.1793144,196,0.0001,0.24,0.294,MOVETO_PICKUP,180,-93.71,3,3
1564772554.2362154,198,0.0001,0.24,0.294,MOVETO_PICKUP,180,-93.71,3,3
1564772554.284219,198,0.0001,0.24,0.294,MOVETO_PICKUP,180,-79.45,3,3
1564772554.3300762,198,0.0001,0.24,0.294,MOVETO_PICKUP,180,-79.45,3,3
1564772554.3794193,198,0.0001,0.24,0.294,MOVETO_PICKUP,180,-71.06,3,3
1564772554.4363475,198,0.0001,0.24,0.294,MOVETO_PICKUP,180,-71.06,3,3
1564772554.492884,198,0.0001,0.24,0.294,MOVETO_PICKUP,180,-71.49,3,3
1564772554.5328145,197,0.0001,0.24,0.294,MOVETO_PICKUP,180,-71.49,3,3
1564772554.5854323,194,0.0001,0.24,0.294,MOVETO_PICKUP,180,-65.99,3,3
1564772554.6437097,191,0.0001,0.24,0.294,MOVETO_PICKUP,180,-65.99,3,3
1564772554.6824846,186,0.0001,0.24,0.294,MOVETO_PICKUP,180,-54.47,3,3
1564772554.7339394,181,0.0001,0.24,0.294,MOVETO_PICKUP,180,-54.47,3,3
1564772554.79383,176,0.0001,0.24,0.294,MOVETO_PICKUP,180,-39.75,3,3
1564772554.8344522,172,0.0001,0.24,0.294,MOVETO_PICKUP,180,-39.75,3,3
1564772554.8871393,172,0.0001,0.24,0.294,MOVETO_PICKUP,180,-51.32,3,3
1564772554.9381146,173,0.0001,0.24,0.294,MOVETO_PICKUP,180,-51.32,3,3
1564772554.9963794,175,0.0001,0.24,0.294,MOVETO_PICKUP,180,-74.67,3,3
1564772555.034705,177,0.0001,0.24,0.294,MOVETO_PICKUP,180,-74.67,3,3
1564772555.087223,179,0.0001,0.24,0.294,MOVETO_PICKUP,180,-86.38,3,3
1564772555.138985,181,0.0001,0.24,0.294,MOVETO_PICKUP,180,-86.38,3,3
1564772555.198778,183,0.0001,0.24,0.294,MOVETO_PICKUP,180,-80.52,3,3
1564772555.2386606,184,0.0001,0.24,0.294,MOVETO_PICKUP,180,-80.52,3,3
1564772555.2912612,186,0.0001,0.24,0.294,MOVETO_PICKUP,180,-83.58,3,3
1564772555.3445055,187,0.0001,0.24,0.294,MOVETO_PICKUP,180,-83.58,3,3
1564772555.4037886,188,0.0001,0.24,0.294,MOVETO_PICKUP,180,-77.87,3,3
1564772555.4404485,188,0.0001,0.24,0.294,MOVETO_PICKUP,180,-77.87,3,3
1564772555.4928408,188,0.0001,0.24,0.294,MOVETO_PICKUP,180,-75.12,3,3
1564772555.553271,188,0.0001,0.24,0.294,MOVETO_PICKUP,180,-75.12,3,3
1564772555.5919156,188,0.0001,0.24,0.294,MOVETO_PICKUP,180,-72.38,3,3
1564772555.6464248,188,0.0001,0.24,0.294,MOVETO_PICKUP,180,-72.38,3,3
1564772555.7063406,188,0.0001,0.24,0.294,MOVETO_PICKUP,180,-72.57,3,3
1564772555.742283,188,0.0001,0.24,0.294,MOVETO_PICKUP,180,-72.57,3,3
1564772555.795457,188,0.0001,0.24,0.294,MOVETO_PICKUP,180,-72.76,3,3
1564772555.8553216,188,0.0001,0.24,0.294,MOVETO_PICKUP,180,-72.76,3,3
1564772555.891097,188,0.0001,0.24,0.294,MOVETO_PICKUP,180,-72.95,3,3
1564772555.9450393,188,0.0001,0.24,0.294,MOVETO_PICKUP,180,-72.95,3,3
1564772556.0046647,188,0.0001,0.24,0.294,MOVETO_PICKUP,180,-73.14,3,3
1564772556.0459692,188,0.0001,0.24,0.294,MOVETO_PICKUP,180,-73.14,3,3
1564772556.0975957,188,0.0001,0.24,0.294,MOVETO_PICKUP,180,-73.34,3,3
1564772556.151047,188,0.0001,0.24,0.294,MOVETO_PICKUP,180,-73.34,3,3
1564772556.2107103,188,0.0001,0.24,0.294,MOVETO_PICKUP,180,-73.53,3,3
1564772556.2466931,188,0.0001,0.24,0.294,MOVETO_PICKUP,180,-73.53,3,3
1564772556.299958,188,0.0001,0.24,0.294,MOVETO_PICKUP,180,-73.72,3,3
1564772556.3594801,188,0.0001,0.24,0.294,MOVETO_PICKUP,180,-73.72,3,3
1564772556.398506,188,0.0001,0.24,0.294,MOVETO_PICKUP,180,-73.91,3,3
1564772556.4511452,188,0.0001,0.24,0.294,MOVETO_PICKUP,180,-73.91,3,3
1564772556.5062046,188,0.0001,0.24,0.294,MOVETO_PICKUP,180,-74.1,3,3
1564772556.565832,188,0.0001,0.24,0.294,MOVETO_PICKUP,180,-74.1,3,3
1564772556.6035392,188,0.0001,0.24,0.294,MOVETO_PICKUP,180,-74.3,3,3
1564772556.6555314,188,0.0001,0.24,0.294,MOVETO_PICKUP,180,-74.3,3,3
1564772556.7143085,188,0.0001,0.24,0.294,MOVETO_PICKUP,180,-74.49,3,3
1564772556.754438,188,0.0001,0.24,0.294,MOVETO_PICKUP,180,-74.49,3,3
1564772556.806533,188,0.0001,0.24,0.294,MOVETO_PICKUP,180,-74.68,3,3
1564772556.8646295,188,0.0001,0.24,0.294,MOVETO_PICKUP,180,-74.68,3,3
1564772556.9217188,188,0.0001,0.24,0.294,MOVETO_PICKUP,180,-74.87,3,3
1564772556.9554787,188,0.0001,0.24,0.294,MOVETO_PICKUP,180,-74.87,3,3
1564772557.0086207,188,0.0001,0.24,0.294,MOVETO_PICKUP,180,-75.06,3,3
1564772557.066743,188,0.0001,0.24,0.294,MOVETO_PICKUP,180,-75.06,3,3
1564772557.111631,188,0.0001,0.24,0.294,MOVETO_PICKUP,180,-75.26,3,3
1564772557.1599505,188,0.0001,0.24,0.294,MOVETO_PICKUP,180,-75.26,3,3
1564772557.2160504,188,0.0001,0.24,0.294,MOVETO_PICKUP,180,-75.45,3,3
1564772557.2766984,188,0.0001,0.24,0.294,MOVETO_PICKUP,180,-75.45,3,3
1564772557.314596,188,0.0001,0.24,0.294,MOVETO_PICKUP,180,-75.64,3,3
1564772557.369617,188,0.0001,0.24,0.294,MOVETO_PICKUP,180,-75.64,3,3
1564772557.4292066,188,0.0001,0.24,0.294,MOVETO_PICKUP,180,-75.83,3,3
1564772557.4673147,188,0.0001,0.24,0.294,MOVETO_PICKUP,180,-75.83,3,3
1564772557.518815,188,0.0001,0.24,0.294,MOVETO_PICKUP,180,-76.02,3,3
1564772557.5777853,188,0.0001,0.24,0.294,MOVETO_PICKUP,180,-76.02,3,3
1564772557.615834,188,0.0001,0.24,0.294,MOVETO_PICKUP,180,-76.22,3,3
1564772557.6710756,188,0.0001,0.24,0.294,MOVETO_PICKUP,180,-76.22,3,3
1564772557.728236,188,0.0001,0.24,0.294,MOVETO_PICKUP,180,-76.41,3,3
1564772557.7706358,188,0.0001,0.24,0.294,MOVETO_PICKUP,180,-76.41,3,3
1564772557.821942,188,0.0001,0.24,0.294,MOVETO_PICKUP,180,-76.6,3,3
1564772557.8775187,188,0.0001,0.24,0.294,MOVETO_PICKUP,180,-76.6,3,3
1564772557.9373915,188,0.0001,0.24,0.294,MOVETO_PICKUP,180,-76.79,3,3
1564772557.9732306,188,0.0001,0.24,0.294,MOVETO_PICKUP,180,-76.79,3,3
1564772558.0277529,188,0.0001,0.24,0.294,MOVETO_PICKUP,180,-76.98,3,3
1564772558.0880678,188,0.0001,0.24,0.294,MOVETO_PICKUP,180,-76.98,3,3
1564772558.1263092,188,0.0001,0.24,0.294,MOVETO_PICKUP,180,-77.18,3,3
1564772558.1779037,188,0.0001,0.24,0.294,MOVETO_PICKUP,180,-77.18,3,3
1564772558.2363503,188,0.0001,0.24,0.294,MOVETO_PICKUP,180,-77.37,3,3
1564772558.2782679,188,0.0001,0.24,0.294,MOVETO_PICKUP,180,-77.37,3,3
1564772558.3370419,188,0.0001,0.24,0.294,MOVETO_PICKUP,180,-77.56,3,3
1564772558.380885,188,0.0001,0.24,0.294,MOVETO_PICKUP,180,-77.56,3,3
1564772558.438972,188,0.0001,0.24,0.294,MOVETO_PICKUP,180,-77.75,3,3
1564772558.480406,188,0.0001,0.24,0.294,MOVETO_PICKUP,180,-77.75,3,3
1564772558.534059,188,0.0001,0.24,0.294,MOVETO_PICKUP,180,-77.94,3,3
1564772558.5891879,188,0.0001,0.24,0.294,MOVETO_PICKUP,180,-77.94,3,3
1564772558.6524951,188,0.0001,0.24,0.294,MOVETO_PICKUP,180,-78.14,3,3
1564772558.6842248,188,0.0001,0.24,0.294,MOVETO_PICKUP,180,-78.14,3,3
1564772558.7444537,188,0.0001,0.24,0.294,MOVETO_PICKUP,180,-78.33,3,3
1564772558.785305,188,0.0001,0.24,0.294,MOVETO_PICKUP,180,-78.33,3,3
1564772558.8377073,188,0.0001,0.24,0.294,MOVETO_PICKUP,180,-78.52,3,3
1564772558.9004838,188,0.0001,0.24,0.294,MOVETO_PICKUP,180,-78.52,3,3
1564772558.9362247,188,0.0001,0.24,0.294,MOVETO_PICKUP,180,-78.71,3,3
1564772558.9896133,188,0.0001,0.24,0.294,MOVETO_PICKUP,180,-78.71,3,3
1564772559.0490499,188,0.0001,0.24,0.294,MOVETO_PICKUP,180,-78.9,3,3
1564772559.085354,188,0.0001,0.24,0.294,MOVETO_PICKUP,180,-78.9,3,3
1564772559.1408844,188,0.0001,0.24,0.294,MOVETO_PICKUP,180,-79.1,3,3
1564772559.1997933,188,0.0001,0.24,0.294,MOVETO_PICKUP,180,-79.1,3,3
1564772559.2366898,188,0.0001,0.24,0.294,MOVETO_PICKUP,180,-79.29,3,3
1564772559.288535,188,0.0001,0.24,0.294,MOVETO_PICKUP,180,-79.29,3,3
1564772559.349009,188,0.0001,0.24,0.294,MOVETO_PICKUP,180,-79.48,3,3
1564772559.3879488,188,0.0001,0.24,0.294,MOVETO_PICKUP,180,-79.48,3,3
1564772559.439898,188,0.0001,0.24,0.294,MOVETO_PICKUP,180,-79.67,3,3
1564772559.4966564,188,0.0001,0.24,0.294,MOVETO_PICKUP,180,-79.67,3,3
1564772559.5367832,188,0.0001,0.24,0.294,MOVETO_PICKUP,180,-79.86,3,3
1564772559.5908308,188,0.0001,0.24,0.294,MOVETO_PICKUP,180,-79.86,3,3
1564772559.647542,188,0.0001,0.24,0.294,MOVETO_PICKUP,180,-80.06,3,3
1564772559.6871214,188,0.0001,0.24,0.294,MOVETO_PICKUP,180,-80.06,3,3
1564772559.7379837,188,0.0001,0.24,0.294,MOVETO_PICKUP,180,-80.25,3,3
1564772559.7999988,188,0.0001,0.24,0.294,MOVETO_PICKUP,180,-80.25,3,3
1564772559.8389108,188,0.0001,0.24,0.294,MOVETO_PICKUP,180,-80.44,3,3
1564772559.8935683,188,0.0001,0.24,0.294,MOVETO_PICKUP,180,-80.44,3,3
1564772559.9537828,188,0.0001,0.24,0.294,MOVETO_PICKUP,180,-80.63,3,3
1564772559.990819,188,0.0001,0.24,0.294,MOVETO_PICKUP,180,-80.63,3,3
1564772560.0454023,188,0.0001,0.24,0.294,MOVETO_PICKUP,180,-80.82,3,3
1564772560.1054935,188,0.0001,0.24,0.294,MOVETO_PICKUP,180,-80.82,3,3
1564772560.142442,188,0.0001,0.24,0.294,MOVETO_PICKUP,180,-81.02,3,3
1564772560.1944535,188,0.0001,0.24,0.294,MOVETO_PICKUP,180,-81.02,3,3
1564772560.2538655,188,0.0001,0.24,0.294,MOVETO_PICKUP,180,-81.21,3,3
1564772560.2971892,188,0.0001,0.24,0.294,MOVETO_PICKUP,180,-81.21,3,3
1564772560.349049,188,0.0001,0.24,0.294,MOVETO_PICKUP,180,-81.4,3,3
1564772560.4109159,188,0.0001,0.24,0.294,MOVETO_PICKUP,180,-81.4,3,3
1564772560.4460897,188,0.0001,0.24,0.294,MOVETO_PICKUP,180,-81.59,3,3
1564772560.5001488,188,0.0001,0.24,0.294,MOVETO_PICKUP,180,-81.59,3,3
1564772560.5622618,188,0.0001,0.24,0.294,MOVETO_PICKUP,180,-81.78,3,3
1564772560.597029,188,0.0001,0.24,0.294,MOVETO_PICKUP,180,-81.78,3,3
1564772560.6527133,188,0.0001,0.24,0.294,MOVETO_PICKUP,180,-81.98,3,3
1564772560.7124503,188,0.0001,0.24,0.294,MOVETO_PICKUP,180,-81.98,3,3
1564772560.7481189,188,0.0001,0.24,0.294,MOVETO_PICKUP,180,-82.17,3,3
1564772560.8052394,188,0.0001,0.24,0.294,MOVETO_PICKUP,180,-82.17,3,3
1564772560.8643491,188,0.0001,0.24,0.294,MOVETO_PICKUP,180,-82.36,3,3
1564772560.9020212,188,0.0001,0.24,0.294,MOVETO_PICKUP,180,-82.36,3,3
1564772560.9605837,188,0.0001,0.24,0.294,MOVETO_PICKUP,180,-82.55,3,3
1564772560.998887,188,0.0001,0.24,0.294,MOVETO_PICKUP,180,-82.55,3,3
1564772561.0532422,188,0.0001,0.24,0.294,MOVETO_PICKUP,180,-82.74,3,3
1564772561.112404,188,0.0001,0.24,0.294,MOVETO_PICKUP,180,-82.74,3,3
1564772561.1497037,188,0.0001,0.24,0.294,MOVETO_PICKUP,180,-82.94,3,3
1564772561.2048469,188,0.0001,0.24,0.294,MOVETO_PICKUP,180,-82.94,3,3
1564772561.2668633,188,0.0001,0.24,0.294,MOVETO_PICKUP,180,-83.13,3,3
1564772561.3020465,188,0.0001,0.24,0.294,MOVETO_PICKUP,180,-83.13,3,3
1564772561.3678327,188,0.0001,0.24,0.294,MOVETO_PICKUP,180,-83.32,3,3
1564772561.4013855,188,0.0001,0.24,0.294,MOVETO_PICKUP,180,-83.32,3,3
1564772561.460483,188,0.0001,0.24,0.294,MOVETO_PICKUP,180,-83.51,3,3
1564772561.5024207,188,0.0001,0.24,0.294,MOVETO_PICKUP,180,-83.51,3,3
1564772561.5549495,188,0.0001,0.24,0.294,MOVETO_PICKUP,180,-83.7,3,3
1564772561.6114712,188,0.0001,0.24,0.294,MOVETO_PICKUP,180,-83.7,3,3
1564772561.6662872,188,0.0001,0.24,0.294,MOVETO_PICKUP,180,-83.9,3,3
1564772561.706795,188,0.0001,0.24,0.294,MOVETO_PICKUP,180,-83.9,3,3
1564772561.7578518,188,0.0001,0.24,0.294,MOVETO_PICKUP,180,-84.09,3,3
1564772561.8149483,188,0.0001,0.24,0.294,MOVETO_PICKUP,180,-84.09,3,3
1564772561.8577812,188,0.0001,0.24,0.294,MOVETO_PICKUP,180,-84.28,3,3
1564772561.9101067,188,0.0001,0.24,0.294,MOVETO_PICKUP,180,-84.28,3,3
1564772561.9669347,188,0.0001,0.24,0.294,MOVETO_PICKUP,180,-84.47,3,3
1564772562.009938,188,0.0001,0.24,0.294,MOVETO_PICKUP,180,-84.47,3,3
1564772562.0615985,188,0.0001,0.24,0.294,MOVETO_PICKUP,180,-84.66,3,3
1564772562.118549,188,0.0001,0.24,0.294,MOVETO_PICKUP,180,-84.66,3,3
1564772562.1614797,188,0.0001,0.24,0.294,MOVETO_PICKUP,180,-84.86,3,3
1564772562.2141285,188,0.0001,0.24,0.294,MOVETO_PICKUP,180,-84.86,3,3
1564772562.2730606,188,0.0001,0.24,0.294,MOVETO_PICKUP,180,-85.05,3,3
1564772562.3327224,188,0.0001,0.24,0.294,MOVETO_PICKUP,180,-85.05,3,3
1564772562.3686268,188,0.0001,0.24,0.294,MOVETO_PICKUP,180,-85.24,3,3
1564772562.4254603,188,0.0001,0.24,0.294,MOVETO_PICKUP,180,-85.24,3,3
1564772562.4657004,188,0.0001,0.24,0.294,MOVETO_PICKUP,180,-85.43,3,3
1564772562.5241902,188,0.0001,0.24,0.294,MOVETO_PICKUP,180,-85.43,3,3
1564772562.5668008,188,0.0001,0.24,0.294,MOVETO_PICKUP,180,-85.62,3,3
1564772562.6208873,188,0.0001,0.24,0.294,MOVETO_PICKUP,180,-85.62,3,3
1564772562.678493,188,0.0001,0.24,0.294,MOVETO_PICKUP,180,-85.82,3,3
1564772562.7178423,188,0.0001,0.24,0.294,MOVETO_PICKUP,180,-85.82,3,3
1564772562.7695494,188,0.0001,0.24,0.294,MOVETO_PICKUP,180,-86.01,3,3
1564772562.8307319,188,0.0001,0.24,0.294,MOVETO_PICKUP,180,-86.01,3,3
1564772562.8667238,188,0.0001,0.24,0.294,MOVETO_PICKUP,180,-86.2,3,3
1564772562.9215436,188,0.0001,0.24,0.294,MOVETO_PICKUP,180,-86.2,3,3
1564772562.9869914,188,0.0001,0.24,0.294,MOVETO_PICKUP,180,-86.39,3,3
1564772563.0189443,188,0.0001,0.24,0.294,MOVETO_PICKUP,180,-86.39,3,3
1564772563.074369,188,0.0001,0.24,0.294,MOVETO_PICKUP,180,-86.58,3,3
1564772563.119768,188,0.0001,0.24,0.294,MOVETO_PICKUP,180,-86.58,3,3
1564772563.183066,188,0.0001,0.24,0.294,MOVETO_PICKUP,180,-86.78,3,3
1564772563.2190096,188,0.0001,0.24,0.294,MOVETO_PICKUP,180,-86.78,3,3
1564772563.2806113,188,0.0001,0.24,0.294,MOVETO_PICKUP,180,-86.97,3,3
1564772563.3199353,188,0.0001,0.24,0.294,MOVETO_PICKUP,180,-86.97,3,3
1564772563.3761685,188,0.0001,0.24,0.294,MOVETO_PICKUP,180,-87.16,3,3
1564772563.4194396,188,0.0001,0.24,0.294,MOVETO_PICKUP,180,-87.16,3,3
1564772563.4739387,188,0.0001,0.24,0.294,MOVETO_PICKUP,180,-87.35,3,3
1564772563.533785,188,0.0001,0.24,0.294,MOVETO_PICKUP,180,-87.35,3,3
1564772563.5731525,188,0.0001,0.24,0.294,MOVETO_PICKUP,180,-87.54,3,3
1564772563.6294732,188,0.0001,0.24,0.294,MOVETO_PICKUP,180,-87.54,3,3
1564772563.673376,188,0.0001,0.24,0.294,MOVETO_PICKUP,180,-87.74,3,3
1564772563.7259798,188,0.0001,0.24,0.294,MOVETO_PICKUP,180,-87.74,3,3
1564772563.7847764,188,0.0001,0.24,0.294,MOVETO_PICKUP,180,-87.93,3,3
1564772563.825087,188,0.0001,0.24,0.294,MOVETO_PICKUP,180,-87.93,3,3
1564772563.87895,188,0.0001,0.24,0.294,MOVETO_PICKUP,180,-88.12,3,3
1564772563.9401746,188,0.0001,0.24,0.294,MOVETO_PICKUP,180,-88.12,3,3
1564772563.979758,188,0.0001,0.24,0.294,MOVETO_PICKUP,180,-88.31,3,3
1564772564.0340993,188,0.0001,0.24,0.294,MOVETO_PICKUP,180,-88.31,3,3
1564772564.078318,188,0.0001,0.24,0.294,MOVETO_PICKUP,180,-88.5,3,3
1564772564.1311858,188,0.0001,0.24,0.294,MOVETO_PICKUP,180,-88.5,3,3
1564772564.1948676,188,0.0001,0.24,0.294,MOVETO_PICKUP,180,-88.7,3,3
1564772564.2342715,188,0.0001,0.24,0.294,MOVETO_PICKUP,180,-88.7,3,3
1564772564.289035,188,0.0001,0.24,0.294,MOVETO_PICKUP,180,-88.89,3,3
1564772564.3508713,188,0.0001,0.24,0.294,MOVETO_PICKUP,180,-88.89,3,3
1564772564.3881361,188,0.0001,0.24,0.294,MOVETO_PICKUP,180,-89.08,3,3
1564772564.4353225,188,0.0001,0.24,0.294,MOVETO_PICKUP,180,-89.08,3,3
1564772564.4870675,188,0.0001,0.24,0.294,MOVETO_PICKUP,180,-89.27,3,3
1564772564.5503495,188,0.0001,0.24,0.294,MOVETO_PICKUP,180,-89.27,3,3
1564772564.5865252,188,0.0001,0.24,0.294,MOVETO_PICKUP,180,-89.46,3,3
1564772564.643646,188,0.0001,0.24,0.294,MOVETO_PICKUP,180,-89.46,3,3
1564772564.6880753,188,0.0001,0.24,0.294,MOVETO_PICKUP,180,-89.66,3,3
1564772564.7391562,188,0.0001,0.24,0.294,MOVETO_PICKUP,180,-89.66,3,3
1564772564.8012261,188,0.0001,0.24,0.294,MOVETO_PICKUP,180,-89.85,3,3
1564772564.8423982,188,0.0001,0.24,0.294,MOVETO_PICKUP,180,-89.85,3,3
1564772564.902216,188,0.0001,0.24,0.294,MOVETO_PICKUP,180,-90.04,3,3
1564772564.9385743,188,0.0001,0.24,0.294,MOVETO_PICKUP,180,-90.04,3,3
1564772564.9974172,188,0.0001,0.24,0.294,MOVETO_PICKUP,180,-90.23,3,3
1564772565.0405962,188,0.0001,0.24,0.294,MOVETO_PICKUP,180,-90.23,3,3
1564772565.0911074,188,0.0001,0.24,0.294,MOVETO_PICKUP,180,-90.42,3,3
1564772565.1562245,188,0.0001,0.24,0.294,MOVETO_PICKUP,180,-90.42,3,3
1564772565.190891,188,0.0001,0.24,0.294,MOVETO_PICKUP,180,-90.62,3,3
1564772565.2496378,188,0.0001,0.24,0.294,MOVETO_PICKUP,180,-90.62,3,3
1564772565.2898464,188,0.0001,0.24,0.294,MOVETO_PICKUP,180,-90.81,3,3
1564772565.344325,188,0.0001,0.24,0.294,MOVETO_PICKUP,180,-90.81,3,3
1564772565.3953297,188,0.0001,0.24,0.294,MOVETO_PICKUP,180,-91.0,3,3
1564772565.4411912,188,0.0001,0.24,0.294,MOVETO_PICKUP,180,-91.0,3,3
1564772565.501892,188,0.0001,0.24,0.294,MOVETO_PICKUP,180,-91.19,3,3
1564772565.5410597,188,0.0001,0.24,0.294,MOVETO_PICKUP,180,-91.19,3,3
1564772565.6018085,188,0.0001,0.24,0.294,MOVETO_PICKUP,180,-91.38,3,3
1564772565.641747,188,0.0001,0.24,0.294,MOVETO_PICKUP,180,-91.38,3,3
1564772565.699717,188,0.0001,0.24,0.294,MOVETO_PICKUP,180,-91.58,3,3
1564772565.744554,188,0.0001,0.24,0.294,MOVETO_PICKUP,180,-91.58,3,3
1564772565.8007782,188,0.0001,0.24,0.294,MOVETO_PICKUP,180,-91.77,3,3
1564772565.8436868,188,0.0001,0.24,0.294,MOVETO_PICKUP,180,-91.77,3,3
1564772565.8965743,188,0.0001,0.24,0.294,MOVETO_PICKUP,180,-91.96,3,3
1564772565.9536371,188,0.0001,0.24,0.294,MOVETO_PICKUP,180,-91.96,3,3
1564772565.9955297,188,0.0001,0.24,0.294,MOVETO_PICKUP,180,-92.15,3,3
1564772566.047739,188,0.0001,0.24,0.294,MOVETO_PICKUP,180,-92.15,3,3
1564772566.1060042,188,0.0001,0.24,0.294,MOVETO_PICKUP,180,-92.34,3,3
1564772566.1469545,188,0.0001,0.24,0.294,MOVETO_PICKUP,180,-92.34,3,3
1564772566.2026188,188,0.0001,0.24,0.294,MOVETO_PICKUP,180,-92.54,3,3
1564772566.2645218,188,0.0001,0.24,0.294,MOVETO_PICKUP,180,-92.54,3,3
1564772566.298682,188,0.0001,0.24,0.294,MOVETO_PICKUP,180,-92.73,3,3
1564772566.365287,188,0.0001,0.24,0.294,MOVETO_PICKUP,180,-92.73,3,3
1564772566.3972023,188,0.0001,0.24,0.294,MOVETO_PICKUP,180,-92.92,3,3
1564772566.4603925,188,0.0001,0.24,0.294,MOVETO_PICKUP,180,-92.92,3,3
1564772566.4984407,188,0.0001,0.24,0.294,MOVETO_PICKUP,180,-93.11,3,3
1564772566.557324,188,0.0001,0.24,0.294,MOVETO_PICKUP,180,-93.11,3,3
1564772566.5980124,188,0.0001,0.24,0.294,MOVETO_PICKUP,180,-93.3,3,3
1564772566.6546695,188,0.0001,0.24,0.294,MOVETO_PICKUP,180,-93.3,3,3
1564772566.7213469,188,0.0001,0.24,0.294,MOVETO_PICKUP,180,-93.5,3,3
1564772566.7529233,188,0.0001,0.24,0.294,MOVETO_PICKUP,180,-93.5,3,3
1564772566.8107684,188,0.0001,0.24,0.294,MOVETO_PICKUP,180,-93.69,3,3
1564772566.850927,188,0.0001,0.24,0.294,MOVETO_PICKUP,180,-93.69,3,3
1564772566.9120758,188,0.0001,0.24,0.294,MOVETO_PICKUP,180,-93.88,3,3
1564772566.9492931,188,0.0001,0.24,0.294,MOVETO_PICKUP,180,-93.88,3,3
1564772567.0049284,188,0.0001,0.24,0.294,MOVETO_PICKUP,180,-94.07,3,3
1564772567.0673974,188,0.0001,0.24,0.294,MOVETO_PICKUP,180,-94.07,3,3
1564772567.101745,188,0.0001,0.24,0.294,MOVETO_PICKUP,180,-94.26,3,3
1564772567.1675358,188,0.0001,0.24,0.294,MOVETO_PICKUP,180,-94.26,3,3
1564772567.2044368,188,0.0001,0.24,0.294,MOVETO_PICKUP,180,-94.46,3,3
1564772567.26347,188,0.0001,0.24,0.294,MOVETO_PICKUP,180,-94.46,3,3
1564772567.30515,188,0.0001,0.24,0.294,MOVETO_PICKUP,180,-94.65,3,3
1564772567.3641493,188,0.0001,0.24,0.294,MOVETO_PICKUP,180,-94.65,3,3
1564772567.4075363,188,0.0001,0.24,0.294,MOVETO_PICKUP,180,-94.84,3,3
1564772567.461591,188,0.0001,0.24,0.294,MOVETO_PICKUP,180,-94.84,3,3
1564772567.5305405,188,0.0001,0.24,0.294,MOVETO_PICKUP,180,-95.03,3,3
1564772567.5611901,188,0.0001,0.24,0.294,MOVETO_PICKUP,180,-95.03,3,3
1564772567.6208427,188,0.0001,0.24,0.294,MOVETO_PICKUP,180,-95.22,3,3
1564772567.6578634,188,0.0001,0.24,0.294,MOVETO_PICKUP,180,-95.22,3,3
1564772567.7182796,188,0.0001,0.24,0.294,MOVETO_PICKUP,180,-95.42,3,3
1564772567.7612019,188,0.0001,0.24,0.294,MOVETO_PICKUP,180,-95.42,3,3
1564772567.8184924,188,0.0001,0.24,0.294,MOVETO_PICKUP,180,-95.61,3,3
1564772567.8626797,188,0.0001,0.24,0.294,MOVETO_PICKUP,180,-95.61,3,3
1564772567.9135435,188,0.0001,0.24,0.294,MOVETO_PICKUP,180,-95.8,3,3
1564772567.9719837,188,0.0001,0.24,0.294,MOVETO_PICKUP,180,-95.8,3,3
1564772568.0134768,188,0.0001,0.24,0.294,MOVETO_PICKUP,180,-95.99,3,3
1564772568.0674167,188,0.0001,0.24,0.294,MOVETO_PICKUP,180,-95.99,3,3
1564772568.130411,188,0.0001,0.24,0.294,MOVETO_PICKUP,180,-96.18,3,3
1564772568.1623614,188,0.0001,0.24,0.294,MOVETO_PICKUP,180,-96.18,3,3
1564772568.2215588,188,0.0001,0.24,0.294,MOVETO_PICKUP,180,-96.38,3,3
1564772568.2642026,188,0.0001,0.24,0.294,MOVETO_PICKUP,180,-96.38,3,3
1564772568.3161,188,0.0001,0.24,0.294,MOVETO_PICKUP,180,-96.57,3,3
1564772568.3786254,188,0.0001,0.24,0.294,MOVETO_PICKUP,180,-96.57,3,3
1564772568.4155703,188,0.0001,0.24,0.294,MOVETO_PICKUP,180,-96.76,3,3
1564772568.4738452,188,0.0001,0.24,0.294,MOVETO_PICKUP,180,-96.76,3,3
1564772568.5140572,188,0.0001,0.24,0.294,MOVETO_PICKUP,180,-96.95,3,3
1564772568.5804958,188,0.0001,0.24,0.294,MOVETO_PICKUP,180,-96.95,3,3
1564772568.616011,188,0.0001,0.24,0.294,MOVETO_PICKUP,180,-97.14,3,3
1564772568.671526,188,0.0001,0.24,0.294,MOVETO_PICKUP,180,-97.14,3,3
1564772568.7142022,188,0.0001,0.24,0.294,MOVETO_PICKUP,180,-97.34,3,3
1564772568.7740314,188,0.0001,0.24,0.294,MOVETO_PICKUP,180,-97.34,3,3
1564772568.8165436,188,0.0001,0.24,0.294,MOVETO_PICKUP,180,-97.53,3,3
1564772568.8729377,188,0.0001,0.24,0.294,MOVETO_PICKUP,180,-97.53,3,3
1564772568.9159536,188,0.0001,0.24,0.294,MOVETO_PICKUP,180,-97.72,3,3
1564772568.972942,188,0.0001,0.24,0.294,MOVETO_PICKUP,180,-97.72,3,3
1564772569.0319374,188,0.0001,0.24,0.294,MOVETO_PICKUP,180,-97.91,3,3
1564772569.070452,188,0.0001,0.24,0.294,MOVETO_PICKUP,180,-97.91,3,3
1564772569.128584,188,0.0001,0.24,0.294,MOVETO_PICKUP,180,-98.1,3,3
1564772569.1727488,188,0.0001,0.24,0.294,MOVETO_PICKUP,180,-98.1,3,3
1564772569.227606,188,0.0001,0.24,0.294,MOVETO_PICKUP,180,-98.3,3,3
1564772569.271545,188,0.0001,0.24,0.294,MOVETO_PICKUP,180,-98.3,3,3
1564772569.3208628,188,0.0001,0.24,0.294,MOVETO_PICKUP,180,-98.49,3,3
1564772569.385513,188,0.0001,0.24,0.294,MOVETO_PICKUP,180,-98.49,3,3
1564772569.4224455,188,0.0001,0.24,0.294,MOVETO_PICKUP,180,-98.68,3,3
1564772569.4955091,188,0.0001,0.24,0.294,MOVETO_PICKUP,180,-98.68,3,3
1564772569.53238,188,0.0001,0.24,0.294,MOVETO_PICKUP,180,-98.87,3,3
1564772569.5745003,188,0.0001,0.24,0.294,MOVETO_PICKUP,180,-98.87,3,3
1564772569.631286,188,0.0001,0.24,0.294,MOVETO_PICKUP,180,-99.06,3,3
1564772569.6900213,188,0.0001,0.24,0.294,MOVETO_PICKUP,180,-99.06,3,3
1564772569.7222764,188,0.0001,0.24,0.294,MOVETO_PICKUP,180,-99.26,3,3
1564772569.7865148,188,0.0001,0.24,0.294,MOVETO_PICKUP,180,-99.26,3,3
1564772569.8243968,188,0.0001,0.24,0.294,MOVETO_PICKUP,180,-99.45,3,3
1564772569.8842368,188,0.0001,0.24,0.294,MOVETO_PICKUP,180,-99.45,3,3
1564772569.923263,188,0.0001,0.24,0.294,MOVETO_PICKUP,180,-99.64,3,3
1564772569.9802256,188,0.0001,0.24,0.294,MOVETO_PICKUP,180,-99.64,3,3
1564772570.0244725,188,0.0001,0.24,0.294,MOVETO_PICKUP,180,-99.83,3,3
1564772570.0754619,188,0.0001,0.24,0.294,MOVETO_PICKUP,180,-99.83,3,3
1564772570.1352823,188,0.0001,0.24,0.294,MOVETO_PICKUP,180,-100.0,3,3
1564772570.1764627,188,0.0001,0.24,0.294,MOVETO_PICKUP,180,-100.0,3,3
1564772570.233213,188,0.0001,0.24,0.294,MOVETO_PICKUP,180,-100.0,3,3
1564772570.2748237,188,0.0001,0.24,0.294,MOVETO_PICKUP,180,-100.0,3,3
1564772570.3328578,188,0.0001,0.24,0.294,MOVETO_PICKUP,180,-100.0,3,3
1564772570.3947496,188,0.0001,0.24,0.294,MOVETO_PICKUP,180,-100.0,3,3
1564772570.4266813,188,0.0001,0.24,0.294,MOVETO_PICKUP,180,-100.0,3,3
1564772570.491132,188,0.0001,0.24,0.294,MOVETO_PICKUP,180,-100.0,3,3
1564772570.5290308,188,0.0001,0.24,0.294,MOVETO_PICKUP,180,-100.0,3,3
1564772570.6029427,188,0.0001,0.24,0.294,MOVETO_PICKUP,180,-100.0,3,3
1564772570.6379356,188,0.0001,0.24,0.294,MOVETO_PICKUP,180,-100.0,3,3
1564772570.6799405,188,0.0001,0.24,0.294,MOVETO_PICKUP,180,-100.0,3,3
1564772570.7391517,188,0.0001,0.24,0.294,MOVETO_PICKUP,180,-100.0,3,3
1564772570.7790296,188,0.0001,0.24,0.294,MOVETO_PICKUP,180,-100.0,3,3
1564772570.8441293,188,0.0001,0.24,0.294,MOVETO_PICKUP,180,-100.0,3,3
1564772570.884136,188,0.0001,0.24,0.294,MOVETO_PICKUP,180,-100.0,3,3
1564772570.9301538,188,0.0001,0.24,0.294,MOVETO_PICKUP,180,-100.0,3,3
1564772570.9881768,188,0.0001,0.24,0.294,MOVETO_PICKUP,180,-100.0,3,3
1564772571.0480442,188,0.0001,0.24,0.294,MOVETO_PICKUP,180,-100.0,3,3
1564772571.0849454,188,0.0001,0.24,0.294,MOVETO_PICKUP,180,-100.0,3,3
1564772571.1454089,188,0.0001,0.24,0.294,MOVETO_PICKUP,180,-100.0,3,3
1564772571.1833532,188,0.0001,0.24,0.294,MOVETO_PICKUP,180,-100.0,3,3
1564772571.2454464,188,0.0001,0.24,0.294,MOVETO_PICKUP,180,-100.0,3,3
1564772571.2826724,188,0.0001,0.24,0.294,MOVETO_PICKUP,180,-100.0,3,3
1564772571.3418274,188,0.0001,0.24,0.294,MOVETO_PICKUP,180,-100.0,3,3
1564772571.3843858,188,0.0001,0.24,0.294,MOVETO_PICKUP,180,-100.0,3,3
1564772571.446743,188,0.0001,0.24,0.294,MOVETO_PICKUP,180,-100.0,3,3
1564772571.4828742,188,0.0001,0.24,0.294,MOVETO_PICKUP,180,-100.0,3,3
1564772571.541597,188,0.0001,0.24,0.294,MOVETO_PICKUP,180,-100.0,3,3
1564772571.6030223,188,0.0001,0.24,0.294,MOVETO_PICKUP,180,-100.0,3,3
1564772571.6389089,188,0.0001,0.24,0.294,MOVETO_PICKUP,180,-100.0,3,3
1564772571.7030466,188,0.0001,0.24,0.294,MOVETO_PICKUP,180,-100.0,3,3
1564772571.7369115,188,0.0001,0.24,0.294,MOVETO_PICKUP,180,-100.0,3,3
1564772571.799433,188,0.0001,0.24,0.294,MOVETO_PICKUP,180,-100.0,3,3
1564772571.8359787,188,0.0001,0.24,0.294,MOVETO_PICKUP,180,-100.0,3,3
1564772571.8941548,188,0.0001,0.24,0.294,MOVETO_PICKUP,180,-100.0,3,3
1564772571.9559903,188,0.0001,0.24,0.294,MOVETO_PICKUP,180,-100.0,3,3
1564772571.986869,188,0.0001,0.24,0.294,MOVETO_PICKUP,180,-100.0,3,3
1564772572.0522065,188,0.0001,0.24,0.294,MOVETO_PICKUP,180,-100.0,3,3
1564772572.088635,188,0.0001,0.24,0.294,MOVETO_PICKUP,180,-100.0,3,3
1564772572.1567469,188,0.0001,0.24,0.294,MOVETO_PICKUP,180,-100.0,3,3
1564772572.195679,188,0.0001,0.24,0.294,MOVETO_PICKUP,180,-100.0,3,3
1564772572.2377598,188,0.0001,0.24,0.294,MOVETO_PICKUP,180,-100.0,3,3
1564772572.2925084,188,0.0001,0.24,0.294,MOVETO_PICKUP,180,-100.0,3,3
1564772572.3537712,188,0.0001,0.24,0.294,MOVETO_PICKUP,180,-100.0,3,3
1564772572.3886807,188,0.0001,0.24,0.294,MOVETO_PICKUP,180,-100.0,3,3
